# Blender v2.79 (sub 0) OBJ File: ''
# www.blender.org
mtllib monkey.mtl
o Suzanne
v 0.422206 1.164094 0.302629
v -0.452794 1.164094 0.302629
v 0.484706 1.093781 0.224504
v -0.515294 1.093781 0.224504
v 0.531581 1.054719 0.115129
v -0.562169 1.054719 0.115129
v 0.336268 0.976594 0.154191
v -0.366857 0.976594 0.154191
v 0.336268 1.031281 0.255754
v -0.366857 1.031281 0.255754
v 0.336268 1.132844 0.318254
v -0.366857 1.132844 0.318254
v 0.258143 1.164094 0.333879
v -0.288732 1.164094 0.333879
v 0.187831 1.093781 0.279191
v -0.218419 1.093781 0.279191
v 0.140956 1.054719 0.185441
v -0.171544 1.054719 0.185441
v 0.062831 1.242219 0.193254
v -0.093419 1.242219 0.193254
v 0.125331 1.242219 0.279191
v -0.155919 1.242219 0.279191
v 0.226893 1.242219 0.333879
v -0.257482 1.242219 0.333879
v 0.258143 1.328156 0.333879
v -0.288732 1.328156 0.333879
v 0.187831 1.390656 0.279191
v -0.218419 1.390656 0.279191
v 0.140956 1.437531 0.185441
v -0.171544 1.437531 0.185441
v 0.336268 1.515656 0.154191
v -0.366857 1.515656 0.154191
v 0.336268 1.453156 0.255754
v -0.366857 1.453156 0.255754
v 0.336268 1.359406 0.318254
v -0.366857 1.359406 0.318254
v 0.422206 1.328156 0.302629
v -0.452794 1.328156 0.302629
v 0.484706 1.390656 0.224504
v -0.515294 1.390656 0.224504
v 0.531581 1.437531 0.115129
v -0.562169 1.437531 0.115129
v 0.609706 1.242219 0.099504
v -0.640294 1.242219 0.099504
v 0.547206 1.242219 0.208879
v -0.577794 1.242219 0.208879
v 0.453456 1.242219 0.294816
v -0.484044 1.242219 0.294816
v 0.461268 1.242219 0.310441
v -0.491857 1.242219 0.310441
v 0.430018 1.335969 0.318254
v -0.460607 1.335969 0.318254
v 0.336268 1.375031 0.341691
v -0.366857 1.375031 0.341691
v 0.250331 1.335969 0.357316
v -0.280919 1.335969 0.357316
v 0.211268 1.242219 0.357316
v -0.241857 1.242219 0.357316
v 0.250331 1.156281 0.357316
v -0.280919 1.156281 0.357316
v 0.336268 1.242219 0.365129
v -0.366857 1.242219 0.365129
v 0.336268 1.117219 0.341691
v -0.366857 1.117219 0.341691
v 0.430018 1.156281 0.318254
v -0.460607 1.156281 0.318254
v -0.015294 1.429719 0.279191
v -0.015294 1.351594 0.357316
v -0.015294 0.320344 0.271379
v -0.015294 0.679719 0.318254
v -0.015294 0.812531 0.333879
v -0.015294 0.226594 0.255754
v -0.015294 1.406281 0.138566
v -0.015294 1.570344 0.107316
v -0.015294 1.898469 -1.009871
v -0.015294 1.562531 -1.314559
v -0.015294 1.070344 -1.291121
v -0.015294 0.617219 -0.814559
v 0.187831 0.812531 0.099504
v -0.218419 0.812531 0.099504
v 0.297206 0.562531 0.107316
v -0.327794 0.562531 0.107316
v 0.336268 0.304719 0.107316
v -0.366857 0.304719 0.107316
v 0.351893 0.109406 0.068254
v -0.382482 0.109406 0.068254
v 0.312831 0.054719 0.060441
v -0.343419 0.054719 0.060441
v 0.164393 0.031281 0.091691
v -0.194982 0.031281 0.091691
v -0.015294 0.015656 0.115129
v 0.422206 0.859406 0.068254
v -0.452794 0.859406 0.068254
v 0.617518 0.960969 0.076066
v -0.648107 0.960969 0.076066
v 0.812831 1.148469 -0.017684
v -0.843419 1.148469 -0.017684
v 0.844081 1.429719 0.130754
v -0.874669 1.429719 0.130754
v 0.695643 1.484406 0.162004
v -0.726232 1.484406 0.162004
v 0.476893 1.601594 0.224504
v -0.507482 1.601594 0.224504
v 0.305018 1.757844 0.271379
v -0.335607 1.757844 0.271379
v 0.140956 1.718781 0.294816
v -0.171544 1.718781 0.294816
v 0.047206 1.492219 0.287004
v -0.077794 1.492219 0.287004
v 0.148768 1.414094 0.310441
v -0.179357 1.414094 0.310441
v 0.109706 1.304719 0.302629
v -0.140294 1.304719 0.302629
v 0.187831 1.093781 0.279191
v -0.218419 1.093781 0.279191
v 0.359706 1.015656 0.240129
v -0.390294 1.015656 0.240129
v 0.476893 1.062531 0.208879
v -0.507482 1.062531 0.208879
v 0.609706 1.187531 0.185441
v -0.640294 1.187531 0.185441
v 0.625331 1.296906 0.185441
v -0.655919 1.296906 0.185441
v 0.586268 1.375031 0.201066
v -0.616857 1.375031 0.201066
v 0.414393 1.437531 0.255754
v -0.444982 1.437531 0.255754
v 0.234706 1.468781 0.294816
v -0.265294 1.468781 0.294816
v -0.015294 0.234406 0.271379
v 0.094081 0.281281 0.271379
v -0.124669 0.281281 0.271379
v 0.101893 0.164094 0.247941
v -0.132482 0.164094 0.247941
v 0.047206 0.117219 0.232316
v -0.077794 0.117219 0.232316
v -0.015294 0.109406 0.224504
v -0.015294 0.804719 0.287004
v -0.015294 0.859406 0.279191
v 0.086268 0.851594 0.279191
v -0.116857 0.851594 0.279191
v 0.109706 0.773469 0.287004
v -0.140294 0.773469 0.287004
v 0.070643 0.710969 0.279191
v -0.101232 0.710969 0.279191
v 0.383143 0.953156 0.208879
v -0.413732 0.953156 0.208879
v 0.601893 1.054719 0.162004
v -0.632482 1.054719 0.162004
v 0.711268 1.203156 0.138566
v -0.741857 1.203156 0.138566
v 0.726893 1.375031 0.193254
v -0.757482 1.375031 0.193254
v 0.672206 1.414094 0.263566
v -0.702794 1.414094 0.263566
v 0.422206 1.546906 0.333879
v -0.452794 1.546906 0.333879
v 0.297206 1.640656 0.372941
v -0.327794 1.640656 0.372941
v 0.187831 1.617219 0.388566
v -0.218419 1.617219 0.388566
v 0.086268 1.429719 0.380754
v -0.116857 1.429719 0.380754
v 0.109706 0.898469 0.349504
v -0.140294 0.898469 0.349504
v 0.195643 0.554719 0.247941
v -0.226232 0.554719 0.247941
v 0.234706 0.296906 0.224504
v -0.265294 0.296906 0.224504
v 0.250331 0.179719 0.201066
v -0.280919 0.179719 0.201066
v 0.219081 0.085969 0.169816
v -0.249669 0.085969 0.169816
v 0.148768 0.070344 0.169816
v -0.179357 0.070344 0.169816
v -0.015294 0.054719 0.177629
v -0.015294 1.046906 0.263566
v -0.015294 1.210969 0.302629
v 0.312831 1.476594 0.279191
v -0.343419 1.476594 0.279191
v 0.148768 1.140656 0.287004
v -0.179357 1.140656 0.287004
v 0.117518 1.210969 0.294816
v -0.148107 1.210969 0.294816
v 0.101893 0.312531 0.271379
v -0.132482 0.312531 0.271379
v 0.062831 0.554719 0.287004
v -0.093419 0.554719 0.287004
v -0.015294 0.554719 0.287004
v -0.015294 0.671906 0.279191
v 0.078456 0.726594 0.318254
v -0.109044 0.726594 0.318254
v 0.117518 0.773469 0.333879
v -0.148107 0.773469 0.333879
v 0.094081 0.867219 0.318254
v -0.124669 0.867219 0.318254
v 0.023768 0.875031 0.318254
v -0.054357 0.875031 0.318254
v -0.015294 0.796906 0.365129
v 0.031581 0.851594 0.349504
v -0.062169 0.851594 0.349504
v 0.078456 0.843781 0.349504
v -0.109044 0.843781 0.349504
v 0.094081 0.773469 0.365129
v -0.124669 0.773469 0.365129
v 0.062831 0.750031 0.341691
v -0.093419 0.750031 0.341691
v -0.015294 0.710969 0.341691
v 0.242518 0.687531 0.091691
v -0.273107 0.687531 0.091691
v 0.148768 0.757844 0.247941
v -0.179357 0.757844 0.247941
v 0.164393 0.687531 0.247941
v -0.194982 0.687531 0.247941
v 0.219081 0.750031 0.091691
v -0.249669 0.750031 0.091691
v -0.015294 0.125031 0.224504
v 0.031581 0.132844 0.224504
v -0.062169 0.132844 0.224504
v 0.078456 0.179719 0.247941
v -0.109044 0.179719 0.247941
v 0.078456 0.257844 0.263566
v -0.109044 0.257844 0.263566
v -0.015294 0.218781 0.193254
v 0.078456 0.250031 0.201066
v -0.109044 0.250031 0.201066
v 0.078456 0.187531 0.177629
v -0.109044 0.187531 0.177629
v 0.031581 0.148469 0.169816
v -0.062169 0.148469 0.169816
v -0.015294 0.140656 0.169816
v 0.156581 1.218781 0.318254
v -0.187169 1.218781 0.318254
v 0.172206 1.156281 0.310441
v -0.202794 1.156281 0.310441
v 0.320643 1.429719 0.294816
v -0.351232 1.429719 0.294816
v 0.258143 1.421906 0.310441
v -0.288732 1.421906 0.310441
v 0.406581 1.398469 0.310441
v -0.437169 1.398469 0.310441
v 0.547206 1.351594 0.232316
v -0.577794 1.351594 0.232316
v 0.570643 1.289094 0.224504
v -0.601232 1.289094 0.224504
v 0.562831 1.195344 0.216691
v -0.593419 1.195344 0.216691
v 0.461268 1.101594 0.255754
v -0.491857 1.101594 0.255754
v 0.359706 1.062531 0.279191
v -0.390294 1.062531 0.279191
v 0.211268 1.109406 0.318254
v -0.241857 1.109406 0.318254
v 0.164393 1.296906 0.318254
v -0.194982 1.296906 0.318254
v 0.195643 1.375031 0.318254
v -0.226232 1.375031 0.318254
v 0.219081 1.359406 0.294816
v -0.249669 1.359406 0.294816
v 0.180018 1.296906 0.294816
v -0.210607 1.296906 0.294816
v 0.226893 1.125031 0.294816
v -0.257482 1.125031 0.294816
v 0.359706 1.085969 0.263566
v -0.390294 1.085969 0.263566
v 0.445643 1.117219 0.240129
v -0.476232 1.117219 0.240129
v 0.531581 1.210969 0.208879
v -0.562169 1.210969 0.208879
v 0.539393 1.281281 0.208879
v -0.569982 1.281281 0.208879
v 0.515956 1.335969 0.216691
v -0.546544 1.335969 0.216691
v 0.398768 1.390656 0.287004
v -0.429357 1.390656 0.287004
v 0.265956 1.398469 0.302629
v -0.296544 1.398469 0.302629
v 0.320643 1.406281 0.287004
v -0.351232 1.406281 0.287004
v 0.187831 1.171906 0.287004
v -0.218419 1.171906 0.287004
v 0.180018 1.226594 0.287004
v -0.210607 1.226594 0.287004
v 0.094081 1.460969 0.146379
v -0.124669 1.460969 0.146379
v 0.180018 1.664094 0.154191
v -0.210607 1.664094 0.154191
v 0.320643 1.687531 0.130754
v -0.351232 1.687531 0.130754
v 0.469081 1.554719 0.091691
v -0.499669 1.554719 0.091691
v 0.664393 1.453156 0.029191
v -0.694982 1.453156 0.029191
v 0.781581 1.406281 -0.002059
v -0.812169 1.406281 -0.002059
v 0.758143 1.164094 -0.087996
v -0.788732 1.164094 -0.087996
v 0.586268 1.000031 -0.048934
v -0.616857 1.000031 -0.048934
v 0.422206 0.906281 0.005754
v -0.452794 0.906281 0.005754
v -0.015294 1.898469 -0.173934
v -0.015294 1.984406 -0.541121
v -0.015294 0.804719 -1.134871
v -0.015294 0.539094 -0.275496
v -0.015294 0.023469 -0.002059
v -0.015294 0.195344 -0.119246
v -0.015294 0.429719 -0.142684
v -0.015294 0.515656 -0.181746
v 0.836268 1.234406 -0.408309
v -0.866857 1.234406 -0.408309
v 0.844081 1.320344 -0.509871
v -0.874669 1.320344 -0.509871
v 0.758143 1.265656 -0.900496
v -0.788732 1.265656 -0.900496
v 0.445643 1.437531 -1.166121
v -0.476232 1.437531 -1.166121
v 0.719081 0.953156 -0.392684
v -0.749669 0.953156 -0.392684
v 0.578456 0.875031 -0.627059
v -0.609044 0.875031 -0.627059
v 0.625331 0.992219 -0.892684
v -0.655919 0.992219 -0.892684
v 0.320643 1.054719 -1.127059
v -0.351232 1.054719 -1.127059
v 0.219081 0.648469 -0.056746
v -0.249669 0.648469 -0.056746
v 0.164393 0.585969 -0.205184
v -0.194982 0.585969 -0.205184
v 0.273768 0.289094 -0.080184
v -0.304357 0.289094 -0.080184
v 0.234706 0.500031 -0.072371
v -0.265294 0.500031 -0.072371
v 0.312831 0.085969 -0.064559
v -0.343419 0.085969 -0.064559
v 0.125331 0.242219 -0.095809
v -0.155919 0.242219 -0.095809
v 0.109706 0.460969 -0.103621
v -0.140294 0.460969 -0.103621
v 0.148768 0.054719 -0.025496
v -0.179357 0.054719 -0.025496
v 0.203456 0.718781 -0.033309
v -0.234044 0.718781 -0.033309
v 0.195643 0.773469 0.005754
v -0.226232 0.773469 0.005754
v 0.187831 0.828156 0.037004
v -0.218419 0.828156 0.037004
v 0.195643 0.609406 -0.298934
v -0.226232 0.609406 -0.298934
v 0.281581 0.687531 -0.728621
v -0.312169 0.687531 -0.728621
v 0.328456 0.851594 -1.002059
v -0.359044 0.851594 -1.002059
v 0.437831 1.867219 -0.845809
v -0.468419 1.867219 -0.845809
v 0.437831 1.929719 -0.533309
v -0.468419 1.929719 -0.533309
v 0.437831 1.851594 -0.228621
v -0.468419 1.851594 -0.228621
v 0.445643 1.523469 -0.033309
v -0.476232 1.523469 -0.033309
v 0.711268 1.406281 -0.127059
v -0.741857 1.406281 -0.127059
v 0.617518 1.453156 -0.181746
v -0.648107 1.453156 -0.181746
v 0.625331 1.703156 -0.408309
v -0.655919 1.703156 -0.408309
v 0.781581 1.562531 -0.337996
v -0.812169 1.562531 -0.337996
v 0.781581 1.617219 -0.580184
v -0.812169 1.617219 -0.580184
v 0.625331 1.750031 -0.658309
v -0.655919 1.750031 -0.658309
v 0.625331 1.679719 -0.908309
v -0.655919 1.679719 -0.908309
v 0.781581 1.539094 -0.822371
v -0.812169 1.539094 -0.822371
v 0.601893 1.328156 -1.048934
v -0.632482 1.328156 -1.048934
v 0.469081 1.023469 -1.009871
v -0.499669 1.023469 -1.009871
v 0.805018 1.328156 -0.666121
v -0.835607 1.328156 -0.666121
v 0.390956 0.828156 -0.314559
v -0.421544 0.828156 -0.314559
v 0.414393 0.804719 -0.673934
v -0.444982 0.804719 -0.673934
v 0.875331 1.406281 -0.697371
v -0.905919 1.406281 -0.697371
v 0.758143 0.859406 -0.587996
v -0.788732 0.859406 -0.587996
v 1.023768 0.898469 -0.791121
v -1.054357 0.898469 -0.791121
v 1.265956 1.054719 -0.892684
v -1.296544 1.054719 -0.892684
v 1.336268 1.320344 -0.884871
v -1.366857 1.320344 -0.884871
v 1.219081 1.507844 -0.884871
v -1.249669 1.507844 -0.884871
v 1.008143 1.476594 -0.775496
v -1.038732 1.476594 -0.775496
v 1.000331 1.414094 -0.752059
v -1.030919 1.414094 -0.752059
v 1.172206 1.437531 -0.853621
v -1.202794 1.437531 -0.853621
v 1.250331 1.289094 -0.869246
v -1.280919 1.289094 -0.869246
v 1.195643 1.078156 -0.869246
v -1.226232 1.078156 -0.869246
v 1.015956 0.960969 -0.767684
v -1.046544 0.960969 -0.767684
v 0.812831 0.929719 -0.595809
v -0.843419 0.929719 -0.595809
v 0.906581 1.359406 -0.681746
v -0.937169 1.359406 -0.681746
v 0.930018 1.304719 -0.752059
v -0.960607 1.304719 -0.752059
v 0.867518 0.976594 -0.673934
v -0.898107 0.976594 -0.673934
v 1.023768 1.000031 -0.830184
v -1.054357 1.000031 -0.830184
v 1.172206 1.093781 -0.908309
v -1.202794 1.093781 -0.908309
v 1.219081 1.250031 -0.908309
v -1.249669 1.250031 -0.908309
v 1.156581 1.359406 -0.900496
v -1.187169 1.359406 -0.900496
v 1.008143 1.343781 -0.822371
v -1.038732 1.343781 -0.822371
v 0.828456 1.289094 -0.673934
v -0.859044 1.289094 -0.673934
v 0.820643 1.171906 -0.736434
v -0.851232 1.171906 -0.736434
v 0.742518 1.093781 -0.736434
v -0.773107 1.093781 -0.736434
v 0.805018 1.085969 -0.736434
v -0.835607 1.085969 -0.736434
v 0.828456 1.015656 -0.736434
v -0.859044 1.015656 -0.736434
v 0.797206 0.984406 -0.736434
v -0.827794 0.984406 -0.736434
v 0.711268 1.000031 -0.533309
v -0.741857 1.000031 -0.533309
v 0.703456 0.976594 -0.634871
v -0.734044 0.976594 -0.634871
v 0.703456 1.039094 -0.650496
v -0.734044 1.039094 -0.650496
v 0.781581 1.203156 -0.673934
v -0.812169 1.203156 -0.673934
v 0.875331 1.242219 -0.728621
v -0.905919 1.242219 -0.728621
v 0.875331 1.234406 -0.783309
v -0.905919 1.234406 -0.783309
v 0.797206 0.984406 -0.783309
v -0.827794 0.984406 -0.783309
v 0.836268 1.015656 -0.783309
v -0.866857 1.015656 -0.783309
v 0.812831 1.078156 -0.783309
v -0.843419 1.078156 -0.783309
v 0.750331 1.093781 -0.783309
v -0.780919 1.093781 -0.783309
v 0.828456 1.171906 -0.783309
v -0.859044 1.171906 -0.783309
v 1.023768 1.328156 -0.877059
v -1.054357 1.328156 -0.877059
v 1.172206 1.343781 -0.947371
v -1.202794 1.343781 -0.947371
v 1.242518 1.242219 -0.955184
v -1.273107 1.242219 -0.955184
v 1.195643 1.085969 -0.947371
v -1.226232 1.085969 -0.947371
v 1.031581 1.000031 -0.884871
v -1.062169 1.000031 -0.884871
v 0.867518 0.984406 -0.728621
v -0.898107 0.984406 -0.728621
v 0.937831 1.289094 -0.806746
v -0.968419 1.289094 -0.806746
v 0.875331 1.109406 -0.791121
v -0.905919 1.109406 -0.791121
v 0.922206 1.062531 -0.798934
v -0.952794 1.062531 -0.798934
v 0.984706 1.125031 -0.830184
v -1.015294 1.125031 -0.830184
v 0.945643 1.171906 -0.814559
v -0.976232 1.171906 -0.814559
v 1.000331 1.234406 -0.837996
v -1.030919 1.234406 -0.837996
v 1.039393 1.187531 -0.845809
v -1.069982 1.187531 -0.845809
v 1.094081 1.210969 -0.853621
v -1.124669 1.210969 -0.853621
v 1.070643 1.273469 -0.853621
v -1.101232 1.273469 -0.853621
v 1.008143 1.437531 -0.947371
v -1.038732 1.437531 -0.947371
v 1.234706 1.468781 -1.009871
v -1.265294 1.468781 -1.009871
v 1.351893 1.296906 -0.962996
v -1.382482 1.296906 -0.962996
v 1.297206 1.054719 -0.994246
v -1.327794 1.054719 -0.994246
v 1.023768 0.914094 -0.955184
v -1.054357 0.914094 -0.955184
v 0.773768 0.875031 -0.791121
v -0.804357 0.875031 -0.791121
v 0.844081 1.382844 -0.845809
v -0.874669 1.382844 -0.845809
vt 0.943088 0.229137
vt 0.967811 0.203650
vt 0.968398 0.240378
vt 0.881811 0.053950
vt 0.905379 0.080509
vt 0.879595 0.090616
vt 0.999638 0.197819
vt 0.997175 0.253252
vt 0.850275 0.046712
vt 0.850275 0.102199
vt 0.960034 0.152797
vt 0.891838 0.003492
vt 0.943430 0.212352
vt 0.942504 0.177909
vt 0.908237 0.029357
vt 0.905782 0.063725
vt 0.930960 0.198962
vt 0.907350 0.177307
vt 0.943383 0.030316
vt 0.918835 0.050902
vt 0.897370 0.146636
vt 0.954714 0.000119
vt 0.878313 0.199605
vt 0.971401 0.053881
vt 0.999881 0.044550
vt 0.913867 0.198718
vt 0.935921 0.051417
vt 0.899972 0.209781
vt 0.879604 0.236914
vt 0.968455 0.091096
vt 0.949311 0.063086
vt 0.850275 0.189019
vt 0.994772 0.107571
vt 0.904479 0.262931
vt 0.852582 0.252205
vt 0.942450 0.115983
vt 0.948124 0.146399
vt 0.911851 0.241460
vt 0.900288 0.228740
vt 0.936038 0.094206
vt 0.930144 0.241750
vt 0.917750 0.093684
vt 0.906264 0.115885
vt 0.940633 0.264439
vt 0.897461 0.293065
vt 0.889138 0.143778
vt 0.956504 0.293065
vt 0.940436 0.228011
vt 0.908078 0.079502
vt 0.919679 0.090568
vt 0.928356 0.238552
vt 0.934905 0.089114
vt 0.913209 0.236424
vt 0.948155 0.082012
vt 0.943813 0.079645
vt 0.904730 0.226568
vt 0.943376 0.065632
vt 0.915120 0.203485
vt 0.905789 0.212588
vt 0.934458 0.056123
vt 0.928127 0.203306
vt 0.921472 0.055367
vt 0.939870 0.213212
vt 0.909300 0.064742
vt 0.921254 0.219599
vt 0.927615 0.071949
vt 0.350997 0.546197
vt 0.349526 0.546144
vt 0.350809 0.545528
vt 0.348341 0.547061
vt 0.349714 0.546727
vt 0.351525 0.545968
vt 0.351613 0.545037
vt 0.347752 0.547194
vt 0.348096 0.546382
vt 0.352030 0.544977
vt 0.346700 0.546639
vt 0.347108 0.546437
vt 0.353861 0.544992
vt 0.352357 0.546297
vt 0.347241 0.548007
vt 0.345015 0.547838
vt 0.359669 0.544731
vt 0.353549 0.547117
vt 0.346762 0.549524
vt 0.338628 0.552216
vt 0.373593 0.543308
vt 0.391477 0.538186
vt 0.386195 0.565918
vt 0.226869 0.630736
vt 0.315780 0.570045
vt 0.355470 0.605910
vt 0.387085 0.523085
vt 0.381829 0.532249
vt 0.231376 0.511485
vt 0.178847 0.496590
vt 0.395087 0.515622
vt 0.392539 0.522999
vt 0.199628 0.410391
vt 0.395695 0.507944
vt 0.388693 0.512523
vt 0.278212 0.392213
vt 0.255571 0.357546
vt 0.399491 0.505402
vt 0.398966 0.510050
vt 0.301177 0.363708
vt 0.279658 0.323968
vt 0.409233 0.500353
vt 0.402308 0.508981
vt 0.378116 0.338407
vt 0.411278 0.287003
vt 0.419622 0.500769
vt 0.413997 0.504887
vt 0.456002 0.337402
vt 0.421197 0.494073
vt 0.416810 0.496138
vt 0.446046 0.382511
vt 0.477203 0.367344
vt 0.444546 0.481622
vt 0.424409 0.498962
vt 0.473000 0.438607
vt 0.533496 0.445312
vt 0.467946 0.467995
vt 0.449489 0.503776
vt 0.495281 0.509545
vt 0.426007 0.510938
vt 0.437311 0.514223
vt 0.602817 0.277511
vt 0.420083 0.510930
vt 0.413201 0.511910
vt 0.540794 0.205259
vt 0.403925 0.513005
vt 0.395027 0.140883
vt 0.400528 0.515095
vt 0.224091 0.264941
vt 0.397702 0.519502
vt 0.178207 0.330217
vt 0.396138 0.529403
vt 0.129887 0.415864
vt 0.397311 0.538511
vt 0.143386 0.584728
vt 0.411626 0.553036
vt 0.221488 0.687876
vt 0.413783 0.599787
vt 0.406691 0.811126
vt 0.446309 0.532905
vt 0.631719 0.573745
vt 0.472117 0.579379
vt 0.436303 0.549646
vt 0.562292 0.705948
vt 0.422181 0.554725
vt 0.482145 0.792094
vt 0.350522 0.547217
vt 0.349358 0.547610
vt 0.351247 0.547355
vt 0.348854 0.548178
vt 0.352034 0.548741
vt 0.359268 0.550590
vt 0.352464 0.549010
vt 0.348960 0.550321
vt 0.344442 0.557307
vt 0.349118 0.549811
vt 0.357289 0.563203
vt 0.356428 0.555252
vt 0.363841 0.560791
vt 0.350760 0.558100
vt 0.353826 0.556933
vt 0.350967 0.550260
vt 0.350543 0.549122
vt 0.370370 0.561122
vt 0.365356 0.563523
vt 0.354538 0.571608
vt 0.349847 0.577224
vt 0.351941 0.568886
vt 0.377062 0.566760
vt 0.368825 0.564933
vt 0.355301 0.576072
vt 0.356594 0.587740
vt 0.372412 0.572934
vt 0.373987 0.581237
vt 0.364296 0.580989
vt 0.358665 0.581751
vt 0.366388 0.574628
vt 0.367686 0.577177
vt 0.358765 0.565380
vt 0.360298 0.567466
vt 0.357229 0.572585
vt 0.369941 0.571383
vt 0.362711 0.578211
vt 0.370689 0.568668
vt 0.373032 0.568114
vt 0.359559 0.578857
vt 0.357512 0.575301
vt 0.365617 0.565959
vt 0.367920 0.566625
vt 0.364330 0.572441
vt 0.370885 0.556118
vt 0.342079 0.576265
vt 0.342815 0.567112
vt 0.365578 0.553914
vt 0.365378 0.544038
vt 0.330335 0.557615
vt 0.368960 0.543773
vt 0.324662 0.562391
vt 0.351655 0.548583
vt 0.349319 0.549432
vt 0.350486 0.548966
vt 0.351127 0.547616
vt 0.349119 0.548312
vt 0.350433 0.547417
vt 0.349554 0.547716
vt 0.349924 0.547356
vt 0.349970 0.547492
vt 0.350121 0.547933
vt 0.349882 0.548085
vt 0.350734 0.547955
vt 0.350403 0.547904
vt 0.349651 0.548334
vt 0.350916 0.548259
vt 0.349700 0.548691
vt 0.350302 0.548451
vt 0.422141 0.548226
vt 0.430912 0.543243
vt 0.520118 0.855291
vt 0.639677 0.760268
vt 0.434516 0.531834
vt 0.739832 0.593973
vt 0.431515 0.520406
vt 0.745844 0.389458
vt 0.396151 0.871718
vt 0.401845 0.536968
vt 0.413647 0.546898
vt 0.175021 0.753639
vt 0.399876 0.529432
vt 0.069115 0.620525
vt 0.399962 0.521261
vt 0.066767 0.418122
vt 0.402960 0.517223
vt 0.111015 0.276274
vt 0.195498 0.204162
vt 0.405710 0.514931
vt 0.400665 0.053159
vt 0.419420 0.514386
vt 0.413612 0.514897
vt 0.582093 0.122586
vt 0.424605 0.515442
vt 0.681224 0.228152
vt 0.423562 0.517404
vt 0.739714 0.193244
vt 0.850038 0.358040
vt 0.419082 0.516155
vt 0.612175 0.067663
vt 0.413731 0.516146
vt 0.400916 0.000119
vt 0.406709 0.516816
vt 0.145387 0.137866
vt 0.404093 0.518695
vt 0.051533 0.251312
vt 0.401853 0.521843
vt 0.000119 0.401553
vt 0.401523 0.529239
vt 0.027711 0.638496
vt 0.403483 0.535430
vt 0.135853 0.785177
vt 0.414426 0.543579
vt 0.378205 0.933393
vt 0.421942 0.543324
vt 0.570388 0.933393
vt 0.430368 0.531219
vt 0.427384 0.522524
vt 0.823133 0.607818
vt 0.427046 0.539279
vt 0.736470 0.829715
vt 0.422812 0.466922
vt 0.429656 0.455458
vt 0.426620 0.435659
vt 0.417095 0.489282
vt 0.425141 0.395043
vt 0.427793 0.366315
vt 0.409207 0.379032
vt 0.413334 0.493557
vt 0.368662 0.380353
vt 0.404380 0.494663
vt 0.316901 0.395653
vt 0.392677 0.505198
vt 0.395658 0.501942
vt 0.296791 0.410338
vt 0.261072 0.447721
vt 0.277017 0.456285
vt 0.381997 0.520229
vt 0.385822 0.511215
vt 0.265631 0.503038
vt 0.378912 0.529025
vt 0.277224 0.539642
vt 0.346566 0.533397
vt 0.351878 0.537108
vt 0.347237 0.537377
vt 0.342497 0.538873
vt 0.335011 0.532869
vt 0.350482 0.542455
vt 0.348618 0.543069
vt 0.346637 0.543481
vt 0.350492 0.544666
vt 0.349241 0.545225
vt 0.347865 0.545457
vt 0.351541 0.544410
vt 0.346798 0.545838
vt 0.352576 0.542920
vt 0.344941 0.545075
vt 0.356270 0.538849
vt 0.338320 0.542982
vt 0.356158 0.530820
vt 0.362213 0.537195
vt 0.328774 0.544339
vt 0.365999 0.537011
vt 0.321809 0.546495
vt 0.317040 0.553368
vt 0.372346 0.539607
vt 0.312113 0.559929
vt 0.269696 0.556374
vt 0.359159 0.499042
vt 0.351866 0.500341
vt 0.354060 0.495573
vt 0.347425 0.493313
vt 0.344428 0.497789
vt 0.358122 0.503242
vt 0.349011 0.508423
vt 0.339943 0.506142
vt 0.356352 0.526149
vt 0.346157 0.528889
vt 0.333673 0.526565
vt 0.373670 0.510966
vt 0.377566 0.504211
vt 0.313829 0.489036
vt 0.321122 0.470656
vt 0.363374 0.494191
vt 0.357778 0.489212
vt 0.349705 0.485557
vt 0.383495 0.483466
vt 0.370330 0.474653
vt 0.382262 0.466228
vt 0.363828 0.454478
vt 0.358881 0.466930
vt 0.369460 0.487790
vt 0.362203 0.482981
vt 0.355363 0.475232
vt 0.388953 0.501664
vt 0.389061 0.497023
vt 0.314718 0.428127
vt 0.333673 0.428773
vt 0.380968 0.496994
vt 0.379968 0.491259
vt 0.335258 0.456459
vt 0.348524 0.458106
vt 0.375583 0.495126
vt 0.373961 0.491063
vt 0.341933 0.467660
vt 0.349642 0.469254
vt 0.371016 0.495930
vt 0.369401 0.492544
vt 0.343016 0.476096
vt 0.349002 0.476891
vt 0.365341 0.497161
vt 0.367837 0.499905
vt 0.344903 0.485006
vt 0.375341 0.485137
vt 0.398347 0.490439
vt 0.364266 0.406219
vt 0.414515 0.454681
vt 0.376066 0.501521
vt 0.328618 0.471067
vt 0.372443 0.500330
vt 0.334476 0.476767
vt 0.356984 0.510421
vt 0.366824 0.520523
vt 0.317109 0.515206
vt 0.334107 0.502084
vt 0.366016 0.508787
vt 0.329477 0.496377
vt 0.369328 0.538519
vt 0.364800 0.502650
vt 0.338551 0.490456
vt 0.343111 0.492342
vt 0.361736 0.509973
vt 0.361792 0.501137
vt 0.370229 0.501071
vt 0.369792 0.501678
vt 0.369581 0.501599
vt 0.335498 0.481261
vt 0.334992 0.482567
vt 0.334775 0.481286
vt 0.369364 0.501981
vt 0.369244 0.501944
vt 0.334976 0.483542
vt 0.335331 0.482813
vt 0.335159 0.483685
vt 0.369175 0.502118
vt 0.334969 0.483974
vt 0.334810 0.483945
vt 0.369237 0.502179
vt 0.368991 0.502355
vt 0.334807 0.484502
vt 0.334558 0.484508
vt 0.369067 0.502467
vt 0.368524 0.503109
vt 0.334197 0.486008
vt 0.333816 0.485710
vt 0.368620 0.504914
vt 0.367962 0.505332
vt 0.331412 0.487979
vt 0.331601 0.489415
vt 0.368781 0.503176
vt 0.368968 0.504263
vt 0.331969 0.486700
vt 0.369040 0.502985
vt 0.333811 0.485119
vt 0.369258 0.502250
vt 0.334680 0.483988
vt 0.334440 0.484396
vt 0.369402 0.502120
vt 0.334723 0.483631
vt 0.369800 0.502019
vt 0.334455 0.482909
vt 0.370348 0.501998
vt 0.333905 0.482027
vt 0.371720 0.507962
vt 0.322296 0.487217
vt 0.327502 0.488111
vt 0.369839 0.506454
vt 0.370423 0.501402
vt 0.369642 0.504403
vt 0.330957 0.485849
vt 0.370684 0.505681
vt 0.369902 0.504197
vt 0.327634 0.485793
vt 0.370694 0.504198
vt 0.370242 0.504024
vt 0.330964 0.485202
vt 0.330017 0.483960
vt 0.330832 0.484469
vt 0.372156 0.503254
vt 0.371007 0.503243
vt 0.329798 0.480419
vt 0.370888 0.502399
vt 0.371791 0.501609
vt 0.332680 0.481588
vt 0.331177 0.482340
vt 0.333008 0.479242
vt 0.370488 0.502616
vt 0.370123 0.502237
vt 0.332771 0.482471
vt 0.333770 0.482636
vt 0.331779 0.483004
vt 0.370498 0.503848
vt 0.370557 0.503191
vt 0.330808 0.483860
vt 0.331386 0.484283
vt 0.370148 0.503740
vt 0.331558 0.485172
vt 0.369661 0.504152
vt 0.369729 0.503945
vt 0.331322 0.485521
vt 0.369226 0.504041
vt 0.332002 0.486052
vt 0.369688 0.502152
vt 0.334370 0.483224
vt 0.369393 0.502199
vt 0.334613 0.483729
vt 0.369314 0.502303
vt 0.334539 0.483961
vt 0.369232 0.502471
vt 0.369154 0.502483
vt 0.334373 0.484267
vt 0.369184 0.502861
vt 0.333836 0.484765
vt 0.370014 0.503310
vt 0.332211 0.483997
vt 0.332671 0.484617
vt 0.369613 0.503308
vt 0.369922 0.502787
vt 0.333128 0.483553
vt 0.333388 0.484039
vt 0.369630 0.502550
vt 0.369796 0.502447
vt 0.333818 0.483744
vt 0.333795 0.483375
vt 0.369603 0.502318
vt 0.334205 0.483534
vt 0.334116 0.483764
vt 0.369530 0.502427
vt 0.366360 0.503740
vt 0.368360 0.502470
vt 0.335604 0.489680
vt 0.335310 0.485556
vt 0.368935 0.502206
vt 0.335092 0.484427
vt 0.369108 0.502104
vt 0.335061 0.484058
vt 0.369129 0.501968
vt 0.335244 0.483883
vt 0.369056 0.501623
vt 0.335837 0.483632
vt 0.368957 0.500274
vt 0.337890 0.482438
vt 0.339462 0.483705
vt 0.619183 0.400774
vt 0.369636 0.502826
vn 0.6617 -0.2026 0.7219
vn -0.6617 -0.2026 0.7219
vn 0.8268 -0.3051 0.4725
vn -0.8268 -0.3051 0.4725
vn 0.4076 -0.7905 0.4570
vn -0.4076 -0.7905 0.4570
vn 0.3791 -0.5163 0.7679
vn -0.3791 -0.5163 0.7679
vn -0.0859 -0.5222 0.8485
vn 0.0859 -0.5222 0.8485
vn -0.2664 -0.8487 0.4570
vn 0.2664 -0.8487 0.4570
vn -0.7824 -0.3294 0.5285
vn 0.7606 -0.3400 0.5531
vn -0.4706 -0.1981 0.8598
vn 0.4706 -0.1981 0.8598
vn -0.4649 0.1958 0.8634
vn 0.4649 0.1958 0.8634
vn -0.7656 0.3223 0.5568
vn 0.7683 0.3293 0.5488
vn -0.2560 0.8073 0.5317
vn 0.2487 0.8249 0.5076
vn -0.0821 0.6023 0.7940
vn 0.1017 0.5518 0.8277
vn 0.3329 0.5231 0.7846
vn -0.3861 0.5446 0.7445
vn 0.4246 0.7711 0.4745
vn -0.4059 0.7641 0.5014
vn 0.8251 0.2968 0.4808
vn -0.8299 0.2940 0.4742
vn 0.6888 0.1868 0.7005
vn -0.6617 0.2026 0.7219
vn 0.8400 0.3436 -0.4200
vn -0.7816 0.3058 -0.5437
vn 0.2074 0.8296 -0.5185
vn -0.2037 0.8146 -0.5431
vn -0.4056 0.7605 -0.5070
vn 0.4381 0.7988 -0.4123
vn -0.8642 0.3143 -0.3928
vn 0.7861 0.3276 -0.5241
vn -0.7782 -0.3537 -0.5188
vn 0.7782 -0.3537 -0.5188
vn -0.4381 -0.7988 -0.4123
vn 0.4381 -0.7988 -0.4123
vn 0.2037 -0.8146 -0.5431
vn -0.2037 -0.8146 -0.5431
vn 0.7684 -0.3293 -0.5488
vn -0.7684 -0.3293 -0.5488
vn 0.4000 -0.0623 0.9144
vn -0.4000 -0.0623 0.9144
vn 0.3069 -0.1754 0.9354
vn -0.3069 -0.1754 0.9354
vn 0.0945 -0.1835 0.9785
vn -0.0945 -0.1835 0.9785
vn -0.0624 -0.0283 0.9977
vn 0.0624 -0.0283 0.9977
vn -0.0624 0.0260 0.9977
vn 0.0624 0.0260 0.9977
vn 0.0996 0.1729 0.9799
vn -0.0996 0.1729 0.9799
vn 0.3036 0.1656 0.9383
vn -0.3036 0.1656 0.9383
vn 0.4002 0.0572 0.9147
vn -0.4002 0.0572 0.9147
vn 0.1367 -0.8748 0.4648
vn -0.1054 -0.8433 0.5270
vn 0.2303 -0.8656 0.4447
vn -0.1916 -0.8620 0.4693
vn 0.5788 -0.5049 0.6404
vn -0.5788 -0.5049 0.6404
vn 0.7763 -0.0633 0.6272
vn -0.7763 -0.0633 0.6272
vn 0.7471 0.1132 0.6550
vn -0.7471 0.1132 0.6550
vn 0.3747 -0.8345 0.4040
vn -0.3747 -0.8345 0.4040
vn 0.3557 -0.7290 0.5848
vn -0.4177 -0.5751 0.7034
vn 0.6947 -0.4197 0.5841
vn -0.6947 -0.4197 0.5841
vn 0.7028 -0.3915 0.5939
vn -0.5537 -0.2978 0.7777
vn 0.3127 0.3425 0.8860
vn -0.8227 0.3606 0.4395
vn 0.5091 0.6482 0.5663
vn -0.5041 0.6448 0.5745
vn 0.5977 0.5565 0.5771
vn -0.5977 0.5565 0.5771
vn -0.0486 0.6560 0.7532
vn 0.0371 0.6685 0.7428
vn -0.7104 0.2715 0.6494
vn 0.7386 0.3768 0.5590
vn -0.6013 0.5262 0.6013
vn 0.5774 0.5774 0.5774
vn 0.5070 -0.6281 0.5903
vn -0.5364 -0.3230 0.7797
vn 0.2226 -0.4694 0.8545
vn -0.2226 -0.4694 0.8545
vn -0.0348 -0.5792 0.8144
vn 0.1073 -0.5010 0.8588
vn -0.0899 -0.7843 0.6138
vn 0.0770 -0.5759 0.8139
vn 0.0547 -0.1695 0.9840
vn -0.0279 -0.8645 0.5019
vn 0.4260 -0.0609 0.9027
vn -0.1687 -0.3128 0.9347
vn 0.3352 -0.1828 0.9243
vn -0.4350 -0.1812 0.8820
vn 0.3579 -0.3068 0.8819
vn -0.3223 -0.2762 0.9054
vn 0.3069 0.2113 0.9280
vn -0.4815 -0.2408 0.8427
vn -0.1598 0.3903 0.9067
vn 0.1598 0.3903 0.9067
vn 0.6819 -0.2915 0.6709
vn -0.1854 -0.4956 0.8485
vn 0.0585 -0.0781 0.9952
vn -0.0585 -0.0781 0.9952
vn -0.0066 -0.2316 0.9728
vn -0.0585 -0.0845 0.9947
vn 0.1008 -0.7103 0.6966
vn -0.1008 -0.7103 0.6966
vn 0.1322 -0.5947 0.7930
vn -0.1322 -0.5947 0.7930
vn 0.3128 -0.1662 0.9352
vn -0.3143 -0.3928 0.8642
vn 0.3288 -0.0360 0.9437
vn -0.3288 -0.0360 0.9437
vn 0.3233 -0.0808 0.9429
vn -0.3233 -0.0808 0.9429
vn -0.0232 0.0511 0.9984
vn 0.0000 0.0665 0.9978
vn -0.0043 -0.0651 0.9979
vn 0.0000 -0.0665 0.9978
vn 0.0000 0.0000 1.0000
vn 0.8447 -0.5335 0.0445
vn -0.8447 -0.5335 0.0445
vn 0.9500 0.2692 -0.1583
vn -0.9500 0.2692 -0.1583
vn 0.0693 0.9004 -0.4294
vn -0.1018 0.9165 -0.3870
vn -1.0000 -0.0000 0.0000
vn 0.6905 0.5492 0.4708
vn 0.4071 -0.8956 0.1791
vn -0.4319 -0.8639 0.2592
vn 0.2873 -0.5747 0.7663
vn -0.2873 -0.5747 0.7663
vn -0.6326 0.5353 0.5596
vn 0.6326 0.5353 0.5596
vn 0.0862 0.7759 0.6250
vn -0.0862 0.7759 0.6250
vn 0.7533 0.2870 0.5918
vn -0.7639 0.2971 0.5729
vn 0.3416 -0.5409 0.7686
vn -0.3416 -0.5409 0.7686
vn 0.0502 0.2343 0.9709
vn -0.0375 0.2247 0.9737
vn -0.1304 -0.6087 0.7826
vn 0.1304 -0.6087 0.7826
vn -0.5059 0.0716 0.8596
vn 0.5059 0.0716 0.8596
vn -0.5774 -0.5774 0.5774
vn 0.5774 -0.5774 0.5774
vn 0.5460 -0.4310 0.7184
vn -0.3319 0.0738 0.9404
vn 0.3231 0.0311 0.9459
vn -0.2815 0.0662 0.9573
vn 0.7357 0.3910 0.5531
vn -0.8753 0.2059 0.4376
vn 0.8480 0.3180 0.4240
vn -0.8973 0.1994 0.3938
vn 0.8505 0.3798 0.3638
vn -0.8505 0.3798 0.3638
vn 0.1783 -0.4161 0.8917
vn -0.2524 -0.8655 0.4327
vn -0.1296 -0.1945 0.9723
vn 0.1296 -0.1945 0.9723
vn -0.4472 0.0000 0.8944
vn 0.4472 0.0000 0.8944
vn -0.1582 0.9494 0.2713
vn 0.1582 0.9494 0.2713
vn -0.6463 0.7337 0.2096
vn 0.6463 0.7337 0.2096
vn 1.0000 0.0000 0.0000
vn 0.3051 -0.9450 0.1181
vn -0.3051 -0.9450 0.1181
vn 0.0217 -0.3031 0.9527
vn -0.0217 -0.3031 0.9527
vn 0.1353 -0.3479 0.9277
vn -0.1353 -0.3479 0.9277
vn -0.4681 -0.2239 0.8548
vn 0.4681 -0.2239 0.8548
vn -0.2710 0.0271 0.9622
vn 0.2710 0.0271 0.9622
vn -0.1717 -0.0090 0.9851
vn 0.2595 0.1038 0.9601
vn -0.4332 -0.4874 0.7581
vn 0.6684 -0.4595 0.5849
vn -0.1599 -0.8797 0.4478
vn 0.1599 -0.8797 0.4478
vn 0.3900 -0.5895 0.7074
vn -0.3900 -0.5895 0.7074
vn 0.6547 -0.4589 0.6007
vn -0.6547 -0.4589 0.6007
vn 0.5378 -0.1144 0.8353
vn -0.5378 -0.1144 0.8353
vn 0.5657 0.1197 0.8159
vn -0.5774 0.1155 0.8083
vn 0.4082 0.4082 0.8165
vn -0.5214 0.6574 0.5440
vn 0.1796 0.7882 0.5886
vn -0.1796 0.7882 0.5886
vn 0.1881 0.3387 0.9219
vn -0.1881 0.3387 0.9219
vn -0.0870 0.2756 0.9573
vn 0.0870 0.2756 0.9573
vn 0.2804 -0.2181 0.9348
vn -0.3553 -0.5739 0.7379
vn 0.3015 -0.3015 0.9045
vn -0.3015 -0.3015 0.9045
vn -0.3766 -0.8339 0.4035
vn 0.0631 -0.3156 0.9468
vn 0.0823 -0.7822 0.6175
vn 0.2016 -0.9071 0.3696
vn -0.3707 -0.2851 0.8839
vn 0.3707 -0.2851 0.8839
vn -0.2692 -0.0577 0.9614
vn 0.4568 0.0508 0.8881
vn -0.2797 0.5245 0.8042
vn 0.2797 0.5245 0.8042
vn -0.0213 0.5546 0.8319
vn 0.0487 0.6815 0.7302
vn 0.3778 0.6342 0.6746
vn -0.3378 0.5221 0.7831
vn 0.4988 0.5300 0.6858
vn -0.4988 0.5300 0.6858
vn 0.5425 -0.3391 0.7686
vn -0.5425 -0.3391 0.7686
vn 0.8305 -0.0615 0.5536
vn -0.8305 -0.0615 0.5536
vn 0.7814 0.1116 0.6140
vn -0.7814 0.1116 0.6140
vn -0.4338 0.8888 -0.1481
vn 0.4338 0.8888 -0.1481
vn -0.8515 0.3744 -0.3670
vn 0.8515 0.3744 -0.3670
vn -0.2664 0.8710 -0.4127
vn 0.2197 0.8626 -0.4557
vn 0.5932 0.7445 -0.3063
vn -0.5914 0.7489 -0.2991
vn 0.3714 0.8685 -0.3284
vn -0.3653 0.8833 -0.2938
vn 0.2901 0.9141 -0.2833
vn -0.2901 0.9141 -0.2833
vn 0.8873 0.1343 -0.4412
vn -0.7964 0.1323 -0.5901
vn 0.5108 -0.6649 -0.5450
vn -0.5108 -0.6649 -0.5450
vn 0.3695 -0.8566 -0.3601
vn -0.3695 -0.8566 -0.3601
vn 0.3617 -0.3858 -0.8487
vn -0.1649 -0.6644 -0.7289
vn 0.1952 -0.0976 -0.9759
vn -0.3011 -0.0125 -0.9535
vn -0.0107 -0.5633 -0.8262
vn -0.2562 -0.3112 -0.9152
vn 0.1533 -0.9649 -0.2134
vn -0.1533 -0.9649 -0.2134
vn 0.1260 -0.9624 -0.2406
vn -0.1260 -0.9624 -0.2406
vn 0.9396 0.1573 -0.3041
vn -0.9396 0.1573 -0.3041
vn 0.9278 0.1838 -0.3246
vn -0.9278 0.1838 -0.3246
vn 0.2192 0.0766 -0.9727
vn -0.2192 0.0766 -0.9727
vn 0.1211 -0.0530 -0.9912
vn 0.1497 -0.3635 -0.9195
vn 0.9094 0.1371 -0.3927
vn -0.3706 -0.6780 -0.6349
vn 0.9202 0.1355 -0.3672
vn -0.9202 0.1355 -0.3672
vn 0.9173 0.3440 -0.2007
vn -0.9457 0.2673 -0.1850
vn 0.9004 0.3642 -0.2380
vn -0.9337 0.2813 -0.2215
vn 0.8945 0.4337 0.1084
vn -0.9501 0.2455 -0.1922
vn 0.1596 -0.9577 -0.2394
vn -0.1835 -0.7864 -0.5898
vn 0.3693 -0.4712 -0.8010
vn -0.3727 -0.4759 -0.7966
vn 0.2986 -0.8236 -0.4821
vn -0.3263 -0.8342 -0.4446
vn 0.2995 -0.9442 -0.1368
vn -0.2995 -0.9442 -0.1368
vn 0.3287 -0.9163 -0.2291
vn -0.3287 -0.9163 -0.2291
vn 0.8305 0.3333 -0.4463
vn -0.8642 -0.4737 0.1696
vn 0.9166 -0.3740 0.1414
vn -0.9166 -0.3740 0.1414
vn 0.2950 -0.0454 -0.9544
vn -0.4189 -0.2265 -0.8793
vn 0.1272 0.9658 0.2260
vn -0.1119 0.9626 0.2468
vn 0.1320 0.9750 -0.1788
vn -0.1320 0.9750 -0.1788
vn 0.3878 0.6192 -0.6828
vn -0.3878 0.6192 -0.6828
vn 0.4951 0.8618 -0.1100
vn -0.4951 0.8618 -0.1100
vn 0.2561 0.6447 0.7202
vn -0.2561 0.6447 0.7202
vn 0.5966 0.7888 0.1479
vn -0.5966 0.7888 0.1479
vn 0.7125 0.6755 -0.1900
vn -0.7125 0.6755 -0.1900
vn 0.7104 0.1364 -0.6904
vn -0.6304 0.2517 -0.7343
vn 0.6823 0.2318 -0.6933
vn -0.6823 0.2318 -0.6933
vn 0.6574 0.7254 -0.2040
vn -0.6574 0.7254 -0.2040
vn 0.7289 0.6729 0.1262
vn -0.7289 0.6729 0.1262
vn 0.7791 0.4074 0.4764
vn -0.7791 0.4074 0.4764
vn 0.3669 0.8840 -0.2898
vn -0.3238 0.9434 -0.0720
vn 0.2854 0.6237 0.7277
vn -0.1548 0.5080 0.8473
vn -0.1681 0.1005 -0.9806
vn 0.1681 0.1005 -0.9806
vn 0.2925 0.5674 0.7697
vn -0.2925 0.5674 0.7697
vn -0.1616 0.1847 0.9694
vn 0.1616 0.1847 0.9694
vn 0.8681 0.0893 -0.4883
vn -0.9340 0.2255 0.2773
vn 0.9276 0.0762 0.3657
vn -0.9276 0.0762 0.3657
vn 0.9750 0.2169 0.0490
vn -0.9750 0.2169 0.0490
vn 0.9817 -0.0304 -0.1882
vn -0.9956 0.0893 -0.0288
vn 0.7466 -0.6646 0.0285
vn -0.6374 -0.7651 0.0915
vn 0.3723 -0.9243 0.0847
vn -0.3720 -0.9244 0.0845
vn 0.3986 -0.8754 0.2734
vn -0.3986 -0.8754 0.2734
vn 0.6328 -0.7642 0.1247
vn -0.6328 -0.7642 0.1247
vn 0.7325 -0.6368 0.2407
vn -0.7325 -0.6368 0.2407
vn 0.2637 -0.4499 0.8533
vn -0.2637 -0.4499 0.8533
vn 0.5881 -0.3070 -0.7483
vn -0.5236 -0.3290 -0.7859
vn 0.4694 -0.2400 -0.8498
vn -0.5396 -0.3343 -0.7727
vn 0.4463 -0.8452 -0.2941
vn -0.2144 -0.8341 -0.5082
vn 0.6973 -0.6610 -0.2771
vn -0.7365 -0.6154 -0.2808
vn 0.4972 -0.4408 -0.7473
vn -0.4972 -0.4408 -0.7473
vn 0.3691 0.2855 0.8844
vn -0.3244 0.4867 0.8111
vn 0.4467 0.0975 0.8894
vn -0.4467 0.0975 0.8894
vn 0.3188 0.1993 0.9266
vn -0.1817 -0.0079 0.9833
vn 0.2076 -0.0836 0.9746
vn -0.2925 -0.0758 0.9533
vn 0.3398 0.0824 0.9369
vn -0.5847 -0.2198 0.7809
vn 0.5957 -0.3850 0.7049
vn -0.5957 -0.3850 0.7049
vn 0.4843 0.5580 0.6738
vn -0.4843 0.5580 0.6738
vn -0.2675 0.8318 0.4864
vn 0.2675 0.8318 0.4864
vn -0.8576 0.2223 0.4637
vn 0.7885 0.2366 0.5677
vn -0.5257 -0.3579 0.7717
vn 0.5242 -0.3548 0.7742
vn 0.4663 -0.5991 0.6509
vn -0.4390 -0.5252 0.7290
vn 0.7104 -0.4567 0.5356
vn -0.7104 -0.4567 0.5356
vn 0.7507 -0.6131 -0.2461
vn -0.6302 -0.7658 0.1282
vn -0.1788 0.2923 0.9395
vn 0.2175 0.2733 0.9370
vn 0.9042 -0.3578 -0.2332
vn -0.9042 -0.3578 -0.2332
vn 0.0400 0.3399 0.9396
vn -0.0400 0.3399 0.9396
vn 0.2734 0.9064 0.3221
vn -0.2734 0.9064 0.3221
vn 0.4480 -0.4480 0.7737
vn -0.7177 0.1689 0.6755
vn 0.5534 -0.5534 0.6225
vn -0.9008 -0.4075 0.1501
vn 0.5724 -0.3122 0.7582
vn -0.5815 -0.5217 0.6243
vn 0.5597 -0.5533 0.6169
vn -0.6138 -0.2571 0.7465
vn 0.8271 0.5323 -0.1802
vn -0.8271 0.5323 -0.1802
vn 0.9227 -0.3765 -0.0825
vn -0.8717 -0.4446 -0.2063
vn 0.9972 -0.0181 -0.0725
vn -0.9972 -0.0181 -0.0725
vn 0.6895 -0.6644 0.2883
vn -0.6895 -0.6644 0.2883
vn 0.7815 -0.6176 0.0882
vn -0.7930 -0.5947 0.1322
vn 0.7022 -0.7022 0.1170
vn -0.7022 -0.7022 0.1170
vn 0.1240 0.9921 0.0207
vn -0.2408 0.9631 -0.1204
vn 0.9435 0.3145 0.1048
vn -0.9251 0.3469 0.1542
vn 0.6213 -0.7767 0.1036
vn -0.6213 -0.7767 0.1036
vn 0.0000 1.0000 0.0000
vn 0.6197 -0.6899 0.3742
vn -0.6197 -0.6899 0.3742
vn 0.2752 -0.8808 0.3853
vn -0.2752 -0.8808 0.3853
vn -0.7929 -0.5252 -0.3089
vn 0.7929 -0.5252 -0.3089
vn -0.8096 0.2429 -0.5343
vn 0.8538 0.2328 -0.4657
vn -0.5621 0.8231 -0.0803
vn 0.5433 0.6985 -0.4657
vn -0.0071 0.9899 0.1414
vn 0.1096 0.9939 -0.0157
vn 0.1046 0.0392 0.9937
vn -0.1738 0.0097 0.9847
vn 0.2461 0.0852 0.9655
vn -0.4134 0.0413 0.9096
vn 0.3009 0.0926 0.9491
vn -0.3009 0.0926 0.9491
vn 0.2104 0.0124 0.9775
vn -0.1220 0.0458 0.9915
vn -0.0099 0.3867 0.9221
vn 0.0099 0.3867 0.9221
vn 0.3787 -0.0364 0.9248
vn -0.4244 -0.0320 0.9049
vn 0.2530 -0.1897 0.9487
vn -0.2570 0.0723 0.9637
vn -0.4870 0.6088 0.6262
vn 0.2981 0.7454 0.5963
vn 0.6693 0.1802 0.7208
vn -0.6693 0.1802 0.7208
vn 0.4388 -0.2008 0.8759
vn -0.4723 -0.1986 0.8588
vn 0.5786 -0.1334 0.8046
vn -0.2975 -0.4062 0.8640
vn 0.5002 0.2833 0.8182
vn -0.5002 0.2833 0.8182
vn 0.2980 0.5802 0.7580
vn -0.2980 0.5802 0.7580
vn 0.0929 -0.9912 -0.0944
vn -0.0929 -0.9912 -0.0944
vn 0.4688 -0.8715 0.1442
vn -0.4688 -0.8715 0.1442
vn 0.9309 -0.2541 0.2624
vn -0.9264 -0.2460 0.2851
vn 0.8465 0.5291 -0.0595
vn -0.8267 0.5627 -0.0035
vn -0.2511 0.9439 -0.2145
vn 0.2146 0.9243 -0.3157
vn -0.4841 0.8743 -0.0361
vn 0.4196 0.8851 -0.2012
vn -0.5256 -0.0030 -0.8507
vn 0.5470 -0.0144 -0.8370
vn -0.1466 0.0104 -0.9891
vn 0.1466 0.0104 -0.9891
vn 0.4046 0.0266 -0.9141
vn -0.4046 0.0266 -0.9141
vn -0.8073 0.5901 0.0041
vn 0.7330 0.6786 0.0472
vn 0.4200 -0.2291 -0.8781
vn -0.4200 -0.2291 -0.8781
vn -0.0687 -0.9943 -0.0818
vn 0.0687 -0.9943 -0.0818
vn 0.6713 -0.1971 0.7145
vn -0.6713 -0.1971 0.7145
vn 0.8326 -0.3017 0.4646
vn -0.8326 -0.3017 0.4646
vn 0.4258 -0.7967 0.4290
vn -0.4258 -0.7967 0.4290
vn 0.3265 -0.4954 0.8050
vn -0.3265 -0.4954 0.8050
vn -0.0649 -0.5714 0.8181
vn 0.0649 -0.5714 0.8181
vn -0.2738 -0.8315 0.4834
vn 0.2738 -0.8315 0.4834
vn -0.7606 -0.3400 0.5531
vn 0.7824 -0.3294 0.5285
vn -0.4658 -0.1863 0.8651
vn 0.4658 -0.1863 0.8651
vn -0.4983 0.1812 0.8478
vn 0.4983 0.1812 0.8478
vn -0.7683 0.3293 0.5488
vn 0.7656 0.3223 0.5568
vn -0.2487 0.8249 0.5076
vn 0.2560 0.8073 0.5317
vn -0.1017 0.5518 0.8277
vn 0.0821 0.6023 0.7940
vn 0.3861 0.5446 0.7445
vn -0.3329 0.5231 0.7846
vn 0.4059 0.7641 0.5014
vn -0.4246 0.7711 0.4745
vn 0.8299 0.2940 0.4742
vn -0.8251 0.2968 0.4808
vn 0.6617 0.2026 0.7219
vn -0.6888 0.1868 0.7005
vn 0.7816 0.3058 -0.5437
vn -0.8400 0.3436 -0.4200
vn 0.2037 0.8146 -0.5431
vn -0.2074 0.8296 -0.5185
vn -0.4381 0.7988 -0.4123
vn 0.4056 0.7605 -0.5070
vn -0.7861 0.3276 -0.5241
vn 0.8642 0.3143 -0.3928
vn -0.8519 -0.3408 -0.3976
vn 0.8519 -0.3408 -0.3976
vn -0.4056 -0.7605 -0.5070
vn 0.4056 -0.7605 -0.5070
vn 0.2074 -0.8296 -0.5185
vn -0.2074 -0.8296 -0.5185
vn 0.8297 -0.3734 -0.4149
vn -0.8297 -0.3734 -0.4149
vn 0.1054 -0.8433 0.5270
vn -0.1367 -0.8748 0.4648
vn 0.1916 -0.8620 0.4693
vn -0.2303 -0.8656 0.4447
vn 0.5959 -0.4256 0.6810
vn -0.5959 -0.4256 0.6810
vn 0.7563 -0.0299 0.6535
vn -0.7563 -0.0299 0.6535
vn 0.8069 0.0689 0.5866
vn -0.8069 0.0689 0.5866
vn 0.2334 -0.7779 0.5834
vn -0.2334 -0.7779 0.5834
vn 0.4177 -0.5751 0.7034
vn -0.3557 -0.7290 0.5848
vn 0.6872 -0.4191 0.5934
vn -0.6872 -0.4191 0.5934
vn 0.5537 -0.2978 0.7777
vn -0.7028 -0.3915 0.5939
vn 0.8227 0.3606 0.4395
vn -0.3127 0.3425 0.8860
vn 0.5041 0.6448 0.5745
vn -0.5091 0.6482 0.5663
vn 0.6155 0.4924 0.6155
vn -0.6155 0.4924 0.6155
vn -0.0371 0.6685 0.7428
vn 0.0486 0.6560 0.7532
vn -0.7386 0.3768 0.5590
vn 0.7104 0.2715 0.6494
vn -0.5774 0.5774 0.5774
vn 0.6013 0.5262 0.6013
vn 0.5364 -0.3230 0.7797
vn -0.5070 -0.6281 0.5903
vn 0.2181 -0.4685 0.8561
vn -0.2181 -0.4685 0.8561
vn -0.1073 -0.5010 0.8588
vn 0.0348 -0.5792 0.8144
vn -0.0770 -0.5759 0.8139
vn 0.0899 -0.7843 0.6138
vn 0.0279 -0.8645 0.5019
vn -0.0547 -0.1695 0.9840
vn 0.1687 -0.3128 0.9347
vn -0.4260 -0.0609 0.9027
vn 0.4350 -0.1812 0.8820
vn -0.3352 -0.1828 0.9243
vn 0.3223 -0.2762 0.9054
vn -0.3579 -0.3068 0.8819
vn 0.4815 -0.2408 0.8427
vn -0.3069 0.2113 0.9280
vn -0.0317 -0.1899 0.9813
vn 0.0317 -0.1899 0.9813
vn 0.1854 -0.4956 0.8485
vn -0.6819 -0.2915 0.6709
vn 0.2623 -0.3498 0.8994
vn -0.2623 -0.3498 0.8994
vn 0.0585 -0.0845 0.9947
vn 0.0066 -0.2316 0.9728
vn -0.0136 -0.6507 0.7592
vn 0.0136 -0.6507 0.7592
vn 0.2404 -0.5476 0.8014
vn -0.2404 -0.5476 0.8014
vn 0.3143 -0.3928 0.8642
vn -0.3128 -0.1662 0.9352
vn 0.2821 -0.0164 0.9592
vn -0.2821 -0.0164 0.9592
vn 0.3273 -0.1432 0.9340
vn -0.3273 -0.1432 0.9340
vn 0.0232 0.0511 0.9984
vn 0.0043 -0.0651 0.9979
vn 0.7826 -0.6087 -0.1304
vn -0.7826 -0.6087 -0.1304
vn 0.9448 0.1919 -0.2657
vn -0.9448 0.1919 -0.2657
vn 0.1018 0.9165 -0.3870
vn -0.0693 0.9004 -0.4294
vn -0.6905 0.5492 0.4708
vn 0.4319 -0.8639 0.2592
vn -0.4071 -0.8956 0.1791
vn -0.6667 0.6667 0.3333
vn 0.6667 0.6667 0.3333
vn 0.1348 0.8086 0.5727
vn -0.1348 0.8086 0.5727
vn 0.7639 0.2971 0.5729
vn -0.7533 0.2870 0.5918
vn 0.4116 -0.8575 0.3087
vn -0.4116 -0.8575 0.3087
vn 0.0375 0.2247 0.9737
vn -0.0502 0.2343 0.9709
vn 0.1304 -0.2609 0.9565
vn -0.1304 -0.2609 0.9565
vn -0.0631 -0.8206 0.5681
vn 0.0631 -0.8206 0.5681
vn 0.7325 0.2817 0.6198
vn -0.7325 0.2817 0.6198
vn 0.3319 0.0738 0.9404
vn -0.5460 -0.4310 0.7184
vn 0.2815 0.0662 0.9573
vn -0.3231 0.0311 0.9459
vn 0.8753 0.2059 0.4376
vn -0.7357 0.3910 0.5531
vn 0.8973 0.1994 0.3938
vn -0.8480 0.3180 0.4240
vn 0.9586 0.0664 0.2767
vn -0.9586 0.0664 0.2767
vn 0.2524 -0.8655 0.4327
vn -0.1783 -0.4161 0.8917
vn -0.1751 -0.2043 0.9631
vn 0.1751 -0.2043 0.9631
vn -0.1219 -0.1829 0.9755
vn 0.1219 -0.1829 0.9755
vn -0.1562 0.3123 0.9370
vn 0.1562 0.3123 0.9370
vn -0.7238 0.6857 0.0762
vn 0.7238 0.6857 0.0762
vn 0.0478 -0.2870 0.9567
vn -0.0478 -0.2870 0.9567
vn -0.5488 -0.3293 0.7683
vn 0.5488 -0.3293 0.7683
vn -0.4945 -0.1130 0.8618
vn 0.4945 -0.1130 0.8618
vn -0.2595 0.1038 0.9601
vn 0.1717 -0.0090 0.9851
vn -0.6684 -0.4595 0.5849
vn 0.4332 -0.4874 0.7581
vn -0.1156 -0.6359 0.7631
vn 0.1156 -0.6359 0.7631
vn 0.4242 -0.6211 0.6590
vn -0.4242 -0.6211 0.6590
vn 0.4767 -0.3557 0.8039
vn -0.4767 -0.3557 0.8039
vn 0.5871 -0.0839 0.8052
vn -0.5871 -0.0839 0.8052
vn 0.5774 0.1155 0.8083
vn -0.5657 0.1197 0.8159
vn 0.5214 0.6574 0.5440
vn -0.4082 0.4082 0.8165
vn 0.3358 0.3478 0.8754
vn -0.3358 0.3478 0.8754
vn 0.1452 0.3774 0.9146
vn -0.1452 0.3774 0.9146
vn 0.0301 0.2306 0.9726
vn -0.0301 0.2306 0.9726
vn 0.3553 -0.5739 0.7379
vn -0.2804 -0.2181 0.9348
vn 0.2627 -0.2252 0.9382
vn -0.2627 -0.2252 0.9382
vn -0.0631 -0.3156 0.9468
vn 0.3766 -0.8339 0.4035
vn -0.2016 -0.9071 0.3696
vn -0.0823 -0.7822 0.6175
vn -0.3356 -0.2397 0.9110
vn 0.3356 -0.2397 0.9110
vn -0.4568 0.0508 0.8881
vn 0.2692 -0.0577 0.9614
vn -0.0247 0.4072 0.9130
vn 0.0247 0.4072 0.9130
vn -0.0487 0.6815 0.7302
vn 0.0213 0.5546 0.8319
vn 0.3378 0.5221 0.7831
vn -0.3778 0.6342 0.6746
vn 0.7895 -0.3158 0.5263
vn -0.7895 -0.3158 0.5263
vn 0.8070 -0.0807 0.5851
vn -0.8070 -0.0807 0.5851
vn 0.7868 0.1210 0.6052
vn -0.7868 0.1210 0.6052
vn -0.6357 0.6811 -0.3633
vn 0.6357 0.6811 -0.3633
vn -0.8507 0.3650 -0.3783
vn 0.8507 0.3650 -0.3783
vn -0.2197 0.8626 -0.4557
vn 0.2664 0.8710 -0.4127
vn 0.5914 0.7489 -0.2991
vn -0.5932 0.7445 -0.3063
vn 0.3653 0.8833 -0.2938
vn -0.3714 0.8685 -0.3284
vn 0.2760 0.9159 -0.2915
vn -0.2760 0.9159 -0.2915
vn 0.7964 0.1323 -0.5901
vn -0.8873 0.1343 -0.4412
vn 0.5442 -0.7524 -0.3712
vn -0.5442 -0.7524 -0.3712
vn 0.4027 -0.7323 -0.5492
vn -0.4027 -0.7323 -0.5492
vn 0.1649 -0.6644 -0.7289
vn -0.3617 -0.3858 -0.8487
vn 0.3011 -0.0125 -0.9535
vn -0.1952 -0.0976 -0.9759
vn 0.2562 -0.3112 -0.9152
vn 0.0107 -0.5633 -0.8262
vn 0.0779 -0.9948 -0.0663
vn -0.0779 -0.9948 -0.0663
vn 0.1094 -0.9718 -0.2089
vn -0.1094 -0.9718 -0.2089
vn 0.8150 -0.5621 -0.1405
vn -0.8150 -0.5621 -0.1405
vn 0.9358 0.1396 -0.3236
vn -0.9358 0.1396 -0.3236
vn 0.1132 -0.0274 -0.9932
vn -0.1132 -0.0274 -0.9932
vn -0.1497 -0.3635 -0.9195
vn -0.1211 -0.0530 -0.9912
vn 0.3706 -0.6780 -0.6349
vn -0.9094 0.1371 -0.3927
vn 0.9193 0.1393 -0.3682
vn -0.9193 0.1393 -0.3682
vn 0.9457 0.2673 -0.1850
vn -0.9173 0.3440 -0.2007
vn 0.9337 0.2813 -0.2215
vn -0.9004 0.3642 -0.2380
vn 0.9501 0.2455 -0.1922
vn -0.8945 0.4337 0.1084
vn 0.1835 -0.7864 -0.5898
vn -0.1596 -0.9577 -0.2394
vn 0.3727 -0.4759 -0.7966
vn -0.3693 -0.4712 -0.8010
vn 0.3263 -0.8342 -0.4446
vn -0.2986 -0.8236 -0.4821
vn 0.2620 -0.9574 -0.1217
vn -0.2620 -0.9574 -0.1217
vn 0.2996 -0.9443 -0.1362
vn -0.2996 -0.9443 -0.1362
vn 0.8642 -0.4737 0.1696
vn -0.8305 0.3333 -0.4463
vn 0.6869 -0.6358 0.3521
vn -0.6869 -0.6358 0.3521
vn 0.4189 -0.2265 -0.8793
vn -0.2950 -0.0454 -0.9544
vn 0.1119 0.9626 0.2468
vn -0.1272 0.9658 0.2260
vn 0.1208 0.9734 -0.1947
vn -0.1208 0.9734 -0.1947
vn 0.3140 0.5711 -0.7585
vn -0.3140 0.5711 -0.7585
vn 0.3231 0.9288 -0.1817
vn -0.3231 0.9288 -0.1817
vn 0.0452 0.7955 0.6043
vn -0.0452 0.7955 0.6043
vn 0.6144 0.7696 0.1738
vn -0.6144 0.7696 0.1738
vn 0.6935 0.6857 -0.2212
vn -0.6935 0.6857 -0.2212
vn 0.6304 0.2517 -0.7343
vn -0.7104 0.1364 -0.6904
vn 0.3179 0.5704 -0.7574
vn -0.3179 0.5704 -0.7574
vn 0.6289 0.7624 -0.1525
vn -0.6289 0.7624 -0.1525
vn 0.7088 0.6833 0.1752
vn -0.7088 0.6833 0.1752
vn 0.6885 0.3830 0.6158
vn -0.6885 0.3830 0.6158
vn 0.3238 0.9434 -0.0720
vn -0.3669 0.8840 -0.2898
vn 0.1548 0.5080 0.8473
vn -0.2854 0.6237 0.7277
vn -0.1819 0.1145 -0.9766
vn 0.1819 0.1145 -0.9766
vn -0.2638 0.9462 -0.1871
vn 0.2638 0.9462 -0.1871
vn 0.9340 0.2255 0.2773
vn -0.8681 0.0893 -0.4883
vn 0.9758 0.1241 0.1800
vn -0.9758 0.1241 0.1800
vn 0.9613 0.1472 -0.2330
vn -0.9613 0.1472 -0.2330
vn 0.9956 0.0893 -0.0288
vn -0.9817 -0.0304 -0.1882
vn 0.6374 -0.7651 0.0915
vn -0.7466 -0.6646 0.0285
vn 0.3720 -0.9244 0.0845
vn -0.3723 -0.9243 0.0847
vn 0.5281 -0.8354 0.1522
vn -0.5281 -0.8354 0.1522
vn 0.3070 -0.5237 0.7946
vn -0.3070 -0.5237 0.7946
vn 0.5236 -0.3290 -0.7859
vn -0.5881 -0.3070 -0.7483
vn 0.5396 -0.3343 -0.7727
vn -0.4694 -0.2400 -0.8498
vn 0.2144 -0.8341 -0.5082
vn -0.4463 -0.8452 -0.2941
vn 0.7365 -0.6154 -0.2808
vn -0.6973 -0.6610 -0.2771
vn 0.3244 0.4867 0.8111
vn -0.3691 0.2855 0.8844
vn 0.4649 0.2593 0.8465
vn -0.4649 0.2593 0.8465
vn 0.1817 -0.0079 0.9833
vn -0.3188 0.1993 0.9266
vn 0.2925 -0.0758 0.9533
vn -0.2076 -0.0836 0.9746
vn 0.5847 -0.2198 0.7809
vn -0.3398 0.0824 0.9369
vn 0.6509 -0.1939 0.7340
vn -0.6509 -0.1939 0.7340
vn 0.4075 0.7506 0.5201
vn -0.4075 0.7506 0.5201
vn -0.2655 0.8296 0.4911
vn 0.2655 0.8296 0.4911
vn -0.7885 0.2366 0.5677
vn 0.8576 0.2223 0.4637
vn -0.5242 -0.3548 0.7742
vn 0.5257 -0.3579 0.7717
vn 0.4390 -0.5252 0.7290
vn -0.4663 -0.5991 0.6509
vn 0.6888 -0.4428 0.5740
vn -0.6888 -0.4428 0.5740
vn 0.6302 -0.7658 0.1282
vn -0.7507 -0.6131 -0.2461
vn -0.2175 0.2733 0.9370
vn 0.1788 0.2923 0.9395
vn 0.9046 -0.3869 -0.1792
vn -0.9046 -0.3869 -0.1792
vn 0.1782 -0.0891 0.9800
vn -0.1782 -0.0891 0.9800
vn -0.2335 0.8972 0.3749
vn 0.2335 0.8972 0.3749
vn 0.7177 0.1689 0.6755
vn -0.4480 -0.4480 0.7737
vn 0.5313 0.5844 0.6134
vn -0.5313 0.5844 0.6134
vn 0.9008 -0.4075 0.1501
vn -0.5534 -0.5534 0.6225
vn 0.5815 -0.5217 0.6243
vn -0.5724 -0.3122 0.7582
vn 0.6138 -0.2571 0.7465
vn -0.5597 -0.5533 0.6169
vn 0.8779 -0.4788 0.0076
vn -0.8779 -0.4788 0.0076
vn 0.8717 -0.4446 -0.2063
vn -0.9227 -0.3765 -0.0825
vn 0.7661 -0.6363 0.0909
vn -0.7661 -0.6363 0.0909
vn 0.7930 -0.5947 0.1322
vn -0.7815 -0.6176 0.0882
vn 0.2408 0.9631 -0.1204
vn -0.1240 0.9921 0.0207
vn 0.9251 0.3469 0.1542
vn -0.9435 0.3145 0.1048
vn 0.7071 -0.7071 0.0000
vn -0.7071 -0.7071 0.0000
vn -0.0157 0.9898 0.1414
vn 0.0157 0.9898 0.1414
vn 0.6266 -0.7211 0.2956
vn -0.6266 -0.7211 0.2956
vn 0.2714 -0.9022 0.3353
vn -0.2714 -0.9022 0.3353
vn -0.8651 -0.4853 -0.1266
vn 0.8651 -0.4853 -0.1266
vn -0.8538 0.2328 -0.4657
vn 0.8096 0.2429 -0.5343
vn -0.5433 0.6985 -0.4657
vn 0.5621 0.8231 -0.0803
vn -0.1096 0.9939 -0.0157
vn 0.0071 0.9899 0.1414
vn 0.1738 0.0097 0.9847
vn -0.1046 0.0392 0.9937
vn 0.4134 0.0413 0.9096
vn -0.2461 0.0852 0.9655
vn 0.3228 -0.0461 0.9453
vn -0.3228 -0.0461 0.9453
vn 0.1220 0.0458 0.9915
vn -0.2104 0.0124 0.9775
vn 0.5679 0.1916 0.8005
vn -0.5679 0.1916 0.8005
vn 0.4244 -0.0320 0.9049
vn -0.3787 -0.0364 0.9248
vn 0.2570 0.0723 0.9637
vn -0.2530 -0.1897 0.9487
vn 0.1351 -0.0225 0.9906
vn -0.1351 -0.0225 0.9906
vn -0.2981 0.7454 0.5963
vn 0.4870 0.6088 0.6262
vn 0.5571 -0.1486 0.8171
vn -0.5571 -0.1486 0.8171
vn 0.4723 -0.1986 0.8588
vn -0.4388 -0.2008 0.8759
vn 0.2975 -0.4062 0.8640
vn -0.5786 -0.1334 0.8046
vn 0.5771 0.2164 0.7875
vn -0.5771 0.2164 0.7875
vn 0.0931 -0.9932 -0.0692
vn -0.0931 -0.9932 -0.0692
vn 0.5161 -0.8527 -0.0812
vn -0.5161 -0.8527 -0.0812
vn 0.9264 -0.2460 0.2851
vn -0.9309 -0.2541 0.2624
vn 0.8267 0.5627 -0.0035
vn -0.8465 0.5291 -0.0595
vn -0.2146 0.9243 -0.3157
vn 0.2511 0.9439 -0.2145
vn -0.4196 0.8851 -0.2012
vn 0.4841 0.8743 -0.0361
vn -0.5470 -0.0144 -0.8370
vn 0.5256 -0.0030 -0.8507
vn -0.2556 -0.0749 -0.9639
vn 0.2556 -0.0749 -0.9639
vn -0.7330 0.6786 0.0472
vn 0.8073 0.5901 0.0041
vn 0.6844 -0.1711 -0.7088
vn -0.6844 -0.1711 -0.7088
vn -0.3604 -0.8283 -0.4290
vn 0.3604 -0.8283 -0.4290
g Suzanne_Suzanne_None
usemtl None
s off
f 47/1/1 3/2/1 45/3/1
f 4/4/2 48/5/2 46/6/2
f 45/3/3 5/7/3 43/8/3
f 6/9/4 46/6/4 44/10/4
f 3/2/5 7/11/5 5/7/5
f 8/12/6 4/4/6 6/9/6
f 1/13/7 9/14/7 3/2/7
f 10/15/8 2/16/8 4/4/8
f 11/17/9 15/18/9 9/14/9
f 16/19/10 12/20/10 10/15/10
f 9/14/11 17/21/11 7/11/11
f 18/22/12 10/15/12 8/12/12
f 21/23/13 17/21/13 15/18/13
f 22/24/14 18/22/14 20/25/14
f 13/26/15 21/23/15 15/18/15
f 22/24/16 14/27/16 16/19/16
f 23/28/17 27/29/17 21/23/17
f 28/30/18 24/31/18 22/24/18
f 27/29/19 19/32/19 21/23/19
f 28/30/20 20/25/20 30/33/20
f 33/34/21 29/35/21 27/29/21
f 34/36/22 30/33/22 32/37/22
f 35/38/23 27/29/23 25/39/23
f 36/40/24 28/30/24 34/36/24
f 37/41/25 33/34/25 35/38/25
f 38/42/26 34/36/26 40/43/26
f 39/44/27 31/45/27 33/34/27
f 40/43/28 32/37/28 42/46/28
f 45/3/29 41/47/29 39/44/29
f 46/6/30 42/46/30 44/10/30
f 47/1/31 39/44/31 37/41/31
f 48/5/32 40/43/32 46/6/32
f 37/41/33 49/48/33 47/1/33
f 38/42/34 50/49/34 52/50/34
f 35/38/35 51/51/35 37/41/35
f 36/40/36 52/50/36 54/52/36
f 25/39/37 53/53/37 35/38/37
f 26/54/38 54/52/38 56/55/38
f 23/28/39 55/56/39 25/39/39
f 24/31/40 56/55/40 58/57/40
f 23/28/41 59/58/41 57/59/41
f 60/60/42 24/31/42 58/57/42
f 13/26/43 63/61/43 59/58/43
f 64/62/44 14/27/44 60/60/44
f 11/17/45 65/63/45 63/61/45
f 66/64/46 12/20/46 64/62/46
f 1/13/47 49/48/47 65/63/47
f 50/49/48 2/16/48 66/64/48
f 61/65/49 65/63/49 49/48/49
f 50/49/50 66/64/50 62/66/50
f 63/61/51 65/63/51 61/65/51
f 62/66/52 66/64/52 64/62/52
f 61/65/53 59/58/53 63/61/53
f 64/62/54 60/60/54 62/66/54
f 61/65/55 57/59/55 59/58/55
f 60/60/56 58/57/56 62/66/56
f 61/65/57 55/56/57 57/59/57
f 58/57/58 56/55/58 62/66/58
f 61/65/59 53/53/59 55/56/59
f 56/55/60 54/52/60 62/66/60
f 61/65/61 51/51/61 53/53/61
f 54/52/62 52/50/62 62/66/62
f 61/65/63 49/48/63 51/51/63
f 52/50/64 50/49/64 62/66/64
f 174/67/65 91/68/65 89/69/65
f 175/70/66 91/68/66 176/71/66
f 172/72/67 89/69/67 87/73/67
f 173/74/68 90/75/68 175/70/68
f 85/76/69 172/72/69 87/73/69
f 173/74/70 86/77/70 88/78/70
f 83/79/71 170/80/71 85/76/71
f 171/81/72 84/82/72 86/77/72
f 81/83/73 168/84/73 83/79/73
f 169/85/74 82/86/74 84/82/74
f 79/87/75 146/88/75 164/89/75
f 147/90/76 80/91/76 165/92/76
f 94/93/77 146/88/77 92/94/77
f 95/95/78 147/90/78 149/96/78
f 94/93/79 150/97/79 148/98/79
f 151/99/80 95/95/80 149/96/80
f 98/100/81 150/97/81 96/101/81
f 99/102/82 151/99/82 153/103/82
f 100/104/83 152/105/83 98/100/83
f 101/106/84 153/103/84 155/107/84
f 102/108/85 154/109/85 100/104/85
f 103/110/86 155/107/86 157/111/86
f 102/108/87 158/112/87 156/113/87
f 159/114/88 103/110/88 157/111/88
f 106/115/89 158/112/89 104/116/89
f 107/117/90 159/114/90 161/118/90
f 108/119/91 160/120/91 106/115/91
f 109/121/92 161/118/92 163/122/92
f 67/123/93 162/124/93 108/119/93
f 67/123/94 163/122/94 68/125/94
f 128/126/95 162/124/95 110/127/95
f 129/128/96 163/122/96 161/118/96
f 128/126/97 158/112/97 160/120/97
f 159/114/98 129/128/98 161/118/98
f 156/113/99 179/129/99 126/130/99
f 157/111/100 180/131/100 159/114/100
f 154/109/101 126/130/101 124/132/101
f 155/107/102 127/133/102 157/111/102
f 152/105/103 124/132/103 122/134/103
f 153/103/104 125/135/104 155/107/104
f 150/97/105 122/134/105 120/136/105
f 151/99/106 123/137/106 153/103/106
f 148/98/107 120/136/107 118/138/107
f 149/96/108 121/139/108 151/99/108
f 146/88/109 118/138/109 116/140/109
f 147/90/110 119/141/110 149/96/110
f 164/89/111 116/140/111 114/142/111
f 165/92/112 117/143/112 147/90/112
f 114/142/113 177/144/113 164/89/113
f 177/144/114 115/145/114 165/92/114
f 162/124/115 112/146/115 110/127/115
f 163/122/116 113/147/116 68/125/116
f 112/146/117 178/148/117 183/149/117
f 178/148/118 113/147/118 184/150/118
f 181/151/119 178/148/119 177/144/119
f 182/152/120 178/148/120 184/150/120
f 135/153/121 176/71/121 174/67/121
f 176/71/122 136/154/122 175/70/122
f 133/155/123 174/67/123 172/72/123
f 175/70/124 134/156/124 173/74/124
f 133/155/125 170/80/125 131/157/125
f 134/156/126 171/81/126 173/74/126
f 166/158/127 185/159/127 168/84/127
f 186/160/128 167/161/128 169/85/128
f 131/157/129 168/84/129 185/159/129
f 169/85/130 132/162/130 186/160/130
f 190/163/131 187/164/131 144/165/131
f 190/163/132 188/166/132 189/167/132
f 187/164/133 69/168/133 185/159/133
f 188/166/134 69/168/134 189/167/134
f 131/157/135 69/168/135 130/169/135
f 132/162/135 69/168/135 186/160/135
f 142/170/136 191/171/136 144/165/136
f 192/172/137 143/173/137 145/174/137
f 140/175/138 193/176/138 142/170/138
f 194/177/139 141/178/139 143/173/139
f 197/179/140 140/175/140 139/180/140
f 198/181/141 141/178/141 196/182/141
f 71/183/142 139/180/142 138/184/142
f 71/183/143 139/180/143 198/181/143
f 144/165/144 70/185/144 190/163/144
f 145/174/145 70/185/145 192/172/145
f 191/171/146 208/186/146 70/185/146
f 192/172/147 208/186/147 207/187/147
f 71/183/148 200/188/148 197/179/148
f 201/189/149 71/183/149 198/181/149
f 197/179/150 202/190/150 195/191/150
f 203/192/151 198/181/151 196/182/151
f 202/190/152 193/176/152 195/191/152
f 203/192/153 194/177/153 205/193/153
f 193/176/154 206/194/154 191/171/154
f 207/187/155 194/177/155 192/172/155
f 204/195/156 200/188/156 199/196/156
f 205/193/157 201/189/157 203/192/157
f 199/196/158 206/194/158 204/195/158
f 207/187/159 199/196/159 205/193/159
f 139/180/160 164/89/160 177/144/160
f 165/92/161 139/180/161 177/144/161
f 140/175/162 211/197/162 164/89/162
f 212/198/163 141/178/163 165/92/163
f 144/165/164 211/197/164 142/170/164
f 145/174/165 212/198/165 214/199/165
f 187/164/166 213/200/166 144/165/166
f 188/166/167 214/199/167 167/161/167
f 209/201/168 166/158/168 81/83/168
f 210/202/169 167/161/169 214/199/169
f 215/203/170 213/200/170 209/201/170
f 216/204/171 214/199/171 212/198/171
f 79/87/172 211/197/172 215/203/172
f 212/198/173 80/91/173 216/204/173
f 130/169/174 222/205/174 131/157/174
f 130/169/175 223/206/175 72/207/175
f 133/155/176 222/205/176 220/208/176
f 223/206/177 134/156/177 221/209/177
f 135/153/178 220/208/178 218/210/178
f 221/209/179 136/154/179 219/211/179
f 137/212/135 218/210/135 217/213/135
f 219/211/135 137/212/135 217/213/135
f 218/210/180 231/214/180 217/213/180
f 219/211/181 231/214/181 230/215/181
f 218/210/182 227/216/182 229/217/182
f 228/218/183 219/211/183 230/215/183
f 220/208/142 225/219/142 227/216/142
f 226/220/184 221/209/184 228/218/184
f 72/207/185 225/219/185 222/205/185
f 72/207/186 226/220/186 224/221/186
f 224/221/187 229/217/187 225/219/187
f 230/215/188 224/221/188 226/220/188
f 225/219/189 229/217/189 227/216/189
f 228/218/190 230/215/190 226/220/190
f 183/149/191 234/222/191 232/223/191
f 235/224/192 184/150/192 233/225/192
f 112/146/193 232/223/193 254/226/193
f 233/225/194 113/147/194 255/227/194
f 112/146/195 256/228/195 110/127/195
f 113/147/196 257/229/196 255/227/196
f 114/142/197 234/222/197 181/151/197
f 115/145/198 235/224/198 253/230/198
f 114/142/199 250/231/199 252/232/199
f 251/233/200 115/145/200 253/230/200
f 116/140/201 248/234/201 250/231/201
f 249/235/202 117/143/202 251/233/202
f 118/138/203 246/236/203 248/234/203
f 247/237/204 119/141/204 249/235/204
f 120/136/205 244/238/205 246/236/205
f 245/239/206 121/139/206 247/237/206
f 124/132/207 244/238/207 122/134/207
f 125/135/208 245/239/208 243/240/208
f 126/130/209 242/241/209 124/132/209
f 127/133/210 243/240/210 241/242/210
f 126/130/211 236/243/211 240/244/211
f 237/245/212 127/133/212 241/242/212
f 179/129/213 238/246/213 236/243/213
f 239/247/214 180/131/214 237/245/214
f 128/126/215 256/228/215 238/246/215
f 257/229/216 129/128/216 239/247/216
f 256/228/217 276/248/217 238/246/217
f 257/229/218 277/249/218 259/250/218
f 236/243/219 276/248/219 278/251/219
f 277/249/220 237/245/220 279/252/220
f 236/243/221 274/253/221 240/244/221
f 237/245/222 275/254/222 279/252/222
f 240/244/223 272/255/223 242/241/223
f 241/242/224 273/256/224 275/254/224
f 244/238/225 272/255/225 270/257/225
f 273/256/226 245/239/226 271/258/226
f 244/238/227 268/259/227 246/236/227
f 245/239/228 269/260/228 271/258/228
f 248/234/229 268/259/229 266/261/229
f 269/260/230 249/235/230 267/262/230
f 248/234/231 264/263/231 250/231/231
f 249/235/232 265/264/232 267/262/232
f 250/231/233 262/265/233 252/232/233
f 251/233/234 263/266/234 265/264/234
f 234/222/235 262/265/235 280/267/235
f 263/266/236 235/224/236 281/268/236
f 256/228/237 260/269/237 258/270/237
f 261/271/238 257/229/238 259/250/238
f 254/226/239 282/272/239 260/269/239
f 283/273/240 255/227/240 261/271/240
f 232/223/241 280/267/241 282/272/241
f 281/268/242 233/225/242 283/273/242
f 67/123/243 284/274/243 73/275/243
f 285/276/244 67/123/244 73/275/244
f 108/119/245 286/277/245 284/274/245
f 287/278/246 109/121/246 285/276/246
f 104/116/247 286/277/247 106/115/247
f 105/279/248 287/278/248 289/280/248
f 102/108/249 288/281/249 104/116/249
f 103/110/250 289/280/250 291/282/250
f 100/104/251 290/283/251 102/108/251
f 101/106/252 291/282/252 293/284/252
f 100/104/253 294/285/253 292/286/253
f 295/287/254 101/106/254 293/284/254
f 96/101/255 294/285/255 98/100/255
f 97/288/256 295/287/256 297/289/256
f 96/101/257 298/290/257 296/291/257
f 299/292/258 97/288/258 297/289/258
f 94/93/259 300/293/259 298/290/259
f 301/294/260 95/95/260 299/292/260
f 309/295/261 338/296/261 308/297/261
f 309/295/262 339/298/262 329/299/262
f 308/297/263 336/300/263 307/301/263
f 308/297/264 337/302/264 339/298/264
f 307/301/265 340/303/265 306/304/265
f 307/301/266 341/305/266 337/302/266
f 89/69/267 306/304/267 340/303/267
f 306/304/268 90/75/268 341/305/268
f 87/73/269 340/303/269 334/306/269
f 341/305/270 88/78/270 335/307/270
f 85/76/271 334/306/271 330/308/271
f 335/307/272 86/77/272 331/309/272
f 83/79/273 330/308/273 332/310/273
f 331/309/274 84/82/274 333/311/274
f 330/308/275 338/296/275 332/310/275
f 339/298/276 331/309/276 333/311/276
f 334/306/277 336/300/277 330/308/277
f 335/307/278 337/302/278 341/305/278
f 332/310/279 328/312/279 326/313/279
f 333/311/280 329/299/280 339/298/280
f 81/83/281 332/310/281 326/313/281
f 333/311/282 82/86/282 327/314/282
f 342/315/283 215/203/283 209/201/283
f 343/316/284 216/204/284 345/317/284
f 326/313/285 209/201/285 81/83/285
f 327/314/286 210/202/286 343/316/286
f 215/203/287 346/318/287 79/87/287
f 216/204/288 347/319/288 345/317/288
f 346/318/289 92/94/289 79/87/289
f 347/319/290 93/320/290 301/294/290
f 324/321/291 304/322/291 77/323/291
f 325/324/292 304/322/292 353/325/292
f 352/326/293 78/327/293 304/322/293
f 353/325/294 78/327/294 351/328/294
f 78/327/295 348/329/295 305/330/295
f 349/331/296 78/327/296 305/330/296
f 305/330/297 328/312/297 309/295/297
f 329/299/298 305/330/298 309/295/298
f 328/312/299 342/315/299 326/313/299
f 329/299/300 343/316/300 349/331/300
f 296/291/301 318/332/301 310/333/301
f 319/334/302 297/289/302 311/335/302
f 316/336/303 77/323/303 76/337/303
f 317/338/304 77/323/304 325/324/304
f 358/339/305 303/340/305 302/341/305
f 359/342/306 303/340/306 357/343/306
f 303/340/307 354/344/307 75/345/307
f 355/346/308 303/340/308 75/345/308
f 75/345/309 316/336/309 76/337/309
f 317/338/310 75/345/310 76/337/310
f 292/286/311 362/347/311 364/348/311
f 363/349/312 293/284/312 365/350/312
f 364/348/313 368/351/313 366/352/313
f 369/353/314 365/350/314 367/354/314
f 366/352/315 370/355/315 372/356/315
f 371/357/316 367/354/316 373/358/316
f 372/356/317 376/359/317 374/360/317
f 377/361/318 373/358/318 375/362/318
f 378/363/319 376/359/319 314/364/319
f 379/365/320 377/361/320 375/362/320
f 316/336/321 374/360/321 378/363/321
f 375/362/322 317/338/322 379/365/322
f 354/344/323 372/356/323 374/360/323
f 373/358/324 355/346/324 375/362/324
f 356/366/325 366/352/325 372/356/325
f 367/354/326 357/343/326 373/358/326
f 358/339/327 364/348/327 366/352/327
f 365/350/328 359/342/328 367/354/328
f 292/286/329 360/367/329 290/283/329
f 293/284/330 361/368/330 365/350/330
f 360/367/331 302/341/331 74/369/331
f 361/368/332 302/341/332 359/342/332
f 284/274/333 288/281/333 290/283/333
f 289/280/334 285/276/334 291/282/334
f 284/274/335 360/367/335 74/369/335
f 361/368/336 285/276/336 74/369/336
f 73/275/337 284/274/337 74/369/337
f 74/369/338 285/276/338 73/275/338
f 296/291/339 362/347/339 294/285/339
f 297/289/340 363/349/340 311/335/340
f 310/333/341 368/351/341 362/347/341
f 369/353/342 311/335/342 363/349/342
f 312/370/343 370/355/343 368/351/343
f 371/357/344 313/371/344 369/353/344
f 376/359/345 382/372/345 314/364/345
f 377/361/346 383/373/346 371/357/346
f 350/374/347 384/375/347 348/329/347
f 351/328/348 385/376/348 387/377/348
f 384/375/349 320/378/349 318/332/349
f 385/376/350 321/379/350 387/377/350
f 298/290/351 384/375/351 318/332/351
f 385/376/352 299/292/352 319/334/352
f 300/293/353 342/315/353 384/375/353
f 343/316/354 301/294/354 385/376/354
f 342/315/355 348/329/355 384/375/355
f 385/376/356 349/331/356 343/316/356
f 300/293/357 346/318/357 344/380/357
f 345/317/358 347/319/358 301/294/358
f 322/381/359 378/363/359 314/364/359
f 323/382/360 379/365/360 381/383/360
f 378/363/361 324/321/361 316/336/361
f 379/365/362 325/324/362 381/383/362
f 386/384/363 322/381/363 320/378/363
f 387/377/364 323/382/364 381/383/364
f 352/326/365 386/384/365 350/374/365
f 353/325/366 387/377/366 381/383/366
f 324/321/367 380/385/367 352/326/367
f 353/325/368 381/383/368 325/324/368
f 388/386/369 402/387/369 400/388/369
f 389/389/370 403/390/370 415/391/370
f 400/388/371 404/392/371 398/393/371
f 405/394/372 401/395/372 399/396/372
f 404/392/373 396/397/373 398/393/373
f 405/394/374 397/398/374 407/399/374
f 406/400/375 394/401/375 396/397/375
f 407/399/376 395/402/376 409/403/376
f 408/404/377 392/405/377 394/401/377
f 409/403/378 393/406/378 411/407/378
f 392/405/379 412/408/379 390/409/379
f 413/410/380 393/406/380 391/411/380
f 410/412/381 418/413/381 412/408/381
f 419/414/382 411/407/382 413/410/382
f 408/404/383 420/415/383 410/412/383
f 421/416/384 409/403/384 411/407/384
f 424/417/385 408/404/385 406/400/385
f 425/418/386 409/403/386 423/419/386
f 426/420/387 406/400/387 404/392/387
f 427/421/388 407/399/388 425/418/388
f 428/422/389 404/392/389 402/387/389
f 429/423/390 405/394/390 427/421/390
f 402/387/391 416/424/391 428/422/391
f 417/425/392 403/390/392 429/423/392
f 320/378/393 442/426/393 318/332/393
f 321/379/394 443/427/394 445/428/394
f 390/409/395 444/429/395 320/378/395
f 391/411/396 445/428/396 413/410/396
f 310/333/397 442/426/397 312/370/397
f 443/427/398 311/335/398 313/371/398
f 382/372/399 414/430/399 388/386/399
f 415/391/400 383/373/400 389/389/400
f 412/408/401 440/431/401 444/429/401
f 441/432/402 413/410/402 445/428/402
f 446/433/403 440/431/403 438/434/403
f 447/435/404 441/432/404 445/428/404
f 434/436/135 438/434/135 436/437/135
f 439/438/135 435/439/135 437/440/135
f 448/441/405 434/436/405 432/442/405
f 449/443/406 435/439/406 447/435/406
f 448/441/407 450/444/407 430/445/407
f 449/443/408 451/446/408 433/447/408
f 430/445/409 416/424/409 414/430/409
f 431/448/410 417/425/410 451/446/410
f 312/370/411 430/445/411 382/372/411
f 431/448/412 313/371/412 383/373/412
f 442/426/413 448/441/413 312/370/413
f 443/427/414 449/443/414 447/435/414
f 442/426/415 444/429/415 446/433/415
f 447/435/416 445/428/416 443/427/416
f 416/424/417 452/449/417 476/450/417
f 453/451/418 417/425/418 477/452/418
f 432/442/419 452/449/419 450/444/419
f 433/447/420 453/451/420 463/453/420
f 432/442/421 460/454/421 462/455/421
f 461/456/422 433/447/422 463/453/422
f 436/437/423 460/454/423 434/436/423
f 437/440/424 461/456/424 459/457/424
f 438/434/425 458/458/425 436/437/425
f 439/438/426 459/457/426 457/459/426
f 438/434/427 454/460/427 456/461/427
f 455/462/428 439/438/428 457/459/428
f 440/431/429 474/463/429 454/460/429
f 475/464/429 441/432/429 455/462/429
f 428/422/430 476/450/430 464/465/430
f 477/452/431 429/423/431 465/466/431
f 426/420/432 464/465/432 466/467/432
f 465/466/433 427/421/433 467/468/433
f 424/417/434 466/467/434 468/469/434
f 467/468/435 425/418/435 469/470/435
f 424/417/436 470/471/436 422/472/436
f 425/418/437 471/473/437 469/470/437
f 422/472/438 472/474/438 420/415/438
f 423/419/439 473/475/439 471/473/439
f 420/415/440 474/463/440 418/413/440
f 421/416/441 475/464/441 473/475/441
f 456/461/442 478/476/442 458/458/442
f 457/459/443 479/477/443 481/478/443
f 480/479/444 484/480/444 478/476/444
f 481/478/445 485/481/445 483/482/445
f 484/480/446 488/483/446 486/484/446
f 489/485/447 485/481/447 487/486/447
f 488/483/448 492/487/448 486/484/448
f 489/485/449 493/488/449 491/489/449
f 464/465/450 486/484/450 492/487/450
f 487/486/451 465/466/451 493/488/451
f 484/480/452 476/450/452 452/449/452
f 485/481/453 477/452/453 487/486/453
f 462/455/454 484/480/454 452/449/454
f 463/453/455 485/481/455 479/477/455
f 458/458/135 462/455/135 460/454/135
f 463/453/135 459/457/135 461/456/135
f 474/463/456 456/461/456 454/460/456
f 475/464/457 457/459/457 481/478/457
f 472/474/458 480/479/458 474/463/458
f 481/478/459 473/475/459 475/464/459
f 488/483/460 472/474/460 470/471/460
f 489/485/461 473/475/461 483/482/461
f 490/490/462 470/471/462 468/469/462
f 491/489/463 471/473/463 489/485/463
f 466/467/464 490/490/464 468/469/464
f 491/489/465 467/468/465 469/470/465
f 464/465/466 492/487/466 466/467/466
f 467/468/467 493/488/467 465/466/467
f 392/405/468 504/491/468 502/492/468
f 505/493/469 393/406/469 503/494/469
f 394/401/470 502/492/470 500/495/470
f 503/494/471 395/402/471 501/496/471
f 394/401/472 498/497/472 396/397/472
f 395/402/473 499/498/473 501/496/473
f 396/397/474 496/499/474 398/393/474
f 397/398/475 497/500/475 499/498/475
f 398/393/476 494/501/476 400/388/476
f 399/396/477 495/502/477 497/500/477
f 400/388/478 506/503/478 388/386/478
f 401/395/479 507/504/479 495/502/479
f 502/492/480 506/503/480 494/501/480
f 503/494/481 507/504/481 505/493/481
f 494/501/482 500/495/482 502/492/482
f 501/496/483 495/502/483 503/494/483
f 496/499/484 498/497/484 500/495/484
f 501/496/485 499/498/485 497/500/485
f 382/372/486 506/503/486 314/364/486
f 383/373/487 507/504/487 389/389/487
f 314/364/488 504/491/488 322/381/488
f 505/493/489 315/505/489 323/382/489
f 320/378/490 504/491/490 390/409/490
f 505/493/491 321/379/491 391/411/491
f 47/1/492 1/13/492 3/2/492
f 4/4/493 2/16/493 48/5/493
f 45/3/494 3/2/494 5/7/494
f 6/9/495 4/4/495 46/6/495
f 3/2/496 9/14/496 7/11/496
f 8/12/497 10/15/497 4/4/497
f 1/13/498 11/17/498 9/14/498
f 10/15/499 12/20/499 2/16/499
f 11/17/500 13/26/500 15/18/500
f 16/19/501 14/27/501 12/20/501
f 9/14/502 15/18/502 17/21/502
f 18/22/503 16/19/503 10/15/503
f 21/23/504 19/32/504 17/21/504
f 22/24/505 16/19/505 18/22/505
f 13/26/506 23/28/506 21/23/506
f 22/24/507 24/31/507 14/27/507
f 23/28/508 25/39/508 27/29/508
f 28/30/509 26/54/509 24/31/509
f 27/29/510 29/35/510 19/32/510
f 28/30/511 22/24/511 20/25/511
f 33/34/512 31/45/512 29/35/512
f 34/36/513 28/30/513 30/33/513
f 35/38/514 33/34/514 27/29/514
f 36/40/515 26/54/515 28/30/515
f 37/41/516 39/44/516 33/34/516
f 38/42/517 36/40/517 34/36/517
f 39/44/518 41/47/518 31/45/518
f 40/43/519 34/36/519 32/37/519
f 45/3/520 43/8/520 41/47/520
f 46/6/521 40/43/521 42/46/521
f 47/1/522 45/3/522 39/44/522
f 48/5/523 38/42/523 40/43/523
f 37/41/524 51/51/524 49/48/524
f 38/42/525 48/5/525 50/49/525
f 35/38/526 53/53/526 51/51/526
f 36/40/527 38/42/527 52/50/527
f 25/39/528 55/56/528 53/53/528
f 26/54/529 36/40/529 54/52/529
f 23/28/530 57/59/530 55/56/530
f 24/31/531 26/54/531 56/55/531
f 23/28/532 13/26/532 59/58/532
f 60/60/533 14/27/533 24/31/533
f 13/26/534 11/17/534 63/61/534
f 64/62/535 12/20/535 14/27/535
f 11/17/536 1/13/536 65/63/536
f 66/64/537 2/16/537 12/20/537
f 1/13/538 47/1/538 49/48/538
f 50/49/539 48/5/539 2/16/539
f 174/67/540 176/71/540 91/68/540
f 175/70/541 90/75/541 91/68/541
f 172/72/542 174/67/542 89/69/542
f 173/74/543 88/78/543 90/75/543
f 85/76/544 170/80/544 172/72/544
f 173/74/545 171/81/545 86/77/545
f 83/79/546 168/84/546 170/80/546
f 171/81/547 169/85/547 84/82/547
f 81/83/548 166/158/548 168/84/548
f 169/85/549 167/161/549 82/86/549
f 79/87/550 92/94/550 146/88/550
f 147/90/551 93/320/551 80/91/551
f 94/93/552 148/98/552 146/88/552
f 95/95/553 93/320/553 147/90/553
f 94/93/554 96/101/554 150/97/554
f 151/99/555 97/288/555 95/95/555
f 98/100/556 152/105/556 150/97/556
f 99/102/557 97/288/557 151/99/557
f 100/104/558 154/109/558 152/105/558
f 101/106/559 99/102/559 153/103/559
f 102/108/560 156/113/560 154/109/560
f 103/110/561 101/106/561 155/107/561
f 102/108/562 104/116/562 158/112/562
f 159/114/563 105/279/563 103/110/563
f 106/115/564 160/120/564 158/112/564
f 107/117/565 105/279/565 159/114/565
f 108/119/566 162/124/566 160/120/566
f 109/121/567 107/117/567 161/118/567
f 67/123/568 68/125/568 162/124/568
f 67/123/569 109/121/569 163/122/569
f 128/126/570 160/120/570 162/124/570
f 129/128/571 111/506/571 163/122/571
f 128/126/572 179/129/572 158/112/572
f 159/114/573 180/131/573 129/128/573
f 156/113/574 158/112/574 179/129/574
f 157/111/575 127/133/575 180/131/575
f 154/109/576 156/113/576 126/130/576
f 155/107/577 125/135/577 127/133/577
f 152/105/578 154/109/578 124/132/578
f 153/103/579 123/137/579 125/135/579
f 150/97/580 152/105/580 122/134/580
f 151/99/581 121/139/581 123/137/581
f 148/98/582 150/97/582 120/136/582
f 149/96/583 119/141/583 121/139/583
f 146/88/584 148/98/584 118/138/584
f 147/90/585 117/143/585 119/141/585
f 164/89/586 146/88/586 116/140/586
f 165/92/587 115/145/587 117/143/587
f 114/142/588 181/151/588 177/144/588
f 177/144/589 182/152/589 115/145/589
f 162/124/590 68/125/590 112/146/590
f 163/122/591 111/506/591 113/147/591
f 112/146/592 68/125/592 178/148/592
f 178/148/593 68/125/593 113/147/593
f 181/151/594 183/149/594 178/148/594
f 182/152/595 177/144/595 178/148/595
f 135/153/596 137/212/596 176/71/596
f 176/71/597 137/212/597 136/154/597
f 133/155/598 135/153/598 174/67/598
f 175/70/599 136/154/599 134/156/599
f 133/155/600 172/72/600 170/80/600
f 134/156/601 132/162/601 171/81/601
f 166/158/602 187/164/602 185/159/602
f 186/160/603 188/166/603 167/161/603
f 131/157/604 170/80/604 168/84/604
f 169/85/605 171/81/605 132/162/605
f 190/163/132 189/167/132 187/164/132
f 190/163/606 145/174/606 188/166/606
f 187/164/134 189/167/134 69/168/134
f 188/166/607 186/160/607 69/168/607
f 131/157/135 185/159/135 69/168/135
f 132/162/135 130/169/135 69/168/135
f 142/170/608 193/176/608 191/171/608
f 192/172/609 194/177/609 143/173/609
f 140/175/610 195/191/610 193/176/610
f 194/177/611 196/182/611 141/178/611
f 197/179/612 195/191/612 140/175/612
f 198/181/613 139/180/613 141/178/613
f 71/183/614 197/179/614 139/180/614
f 71/183/184 138/184/184 139/180/184
f 144/165/615 191/171/615 70/185/615
f 145/174/616 190/163/616 70/185/616
f 191/171/146 206/194/146 208/186/146
f 192/172/147 70/185/147 208/186/147
f 71/183/617 199/196/617 200/188/617
f 201/189/618 199/196/618 71/183/618
f 197/179/619 200/188/619 202/190/619
f 203/192/620 201/189/620 198/181/620
f 202/190/621 204/195/621 193/176/621
f 203/192/622 196/182/622 194/177/622
f 193/176/623 204/195/623 206/194/623
f 207/187/624 205/193/624 194/177/624
f 204/195/625 202/190/625 200/188/625
f 205/193/626 199/196/626 201/189/626
f 199/196/627 208/186/627 206/194/627
f 207/187/628 208/186/628 199/196/628
f 139/180/629 140/175/629 164/89/629
f 165/92/630 141/178/630 139/180/630
f 140/175/631 142/170/631 211/197/631
f 212/198/632 143/173/632 141/178/632
f 144/165/633 213/200/633 211/197/633
f 145/174/634 143/173/634 212/198/634
f 187/164/635 166/158/635 213/200/635
f 188/166/636 145/174/636 214/199/636
f 209/201/637 213/200/637 166/158/637
f 210/202/638 82/86/638 167/161/638
f 215/203/639 211/197/639 213/200/639
f 216/204/640 210/202/640 214/199/640
f 79/87/641 164/89/641 211/197/641
f 212/198/642 165/92/642 80/91/642
f 130/169/643 72/207/643 222/205/643
f 130/169/644 132/162/644 223/206/644
f 133/155/645 131/157/645 222/205/645
f 223/206/646 132/162/646 134/156/646
f 135/153/647 133/155/647 220/208/647
f 221/209/648 134/156/648 136/154/648
f 137/212/649 135/153/649 218/210/649
f 219/211/650 136/154/650 137/212/650
f 218/210/180 229/217/180 231/214/180
f 219/211/181 217/213/181 231/214/181
f 218/210/651 220/208/651 227/216/651
f 228/218/652 221/209/652 219/211/652
f 220/208/142 222/205/142 225/219/142
f 226/220/184 223/206/184 221/209/184
f 72/207/185 224/221/185 225/219/185
f 72/207/186 223/206/186 226/220/186
f 224/221/653 231/214/653 229/217/653
f 230/215/654 231/214/654 224/221/654
f 183/149/655 181/151/655 234/222/655
f 235/224/656 182/152/656 184/150/656
f 112/146/657 183/149/657 232/223/657
f 233/225/658 184/150/658 113/147/658
f 112/146/659 254/226/659 256/228/659
f 113/147/660 111/506/660 257/229/660
f 114/142/661 252/232/661 234/222/661
f 115/145/662 182/152/662 235/224/662
f 114/142/663 116/140/663 250/231/663
f 251/233/664 117/143/664 115/145/664
f 116/140/665 118/138/665 248/234/665
f 249/235/666 119/141/666 117/143/666
f 118/138/667 120/136/667 246/236/667
f 247/237/668 121/139/668 119/141/668
f 120/136/669 122/134/669 244/238/669
f 245/239/670 123/137/670 121/139/670
f 124/132/671 242/241/671 244/238/671
f 125/135/672 123/137/672 245/239/672
f 126/130/673 240/244/673 242/241/673
f 127/133/674 125/135/674 243/240/674
f 126/130/675 179/129/675 236/243/675
f 237/245/676 180/131/676 127/133/676
f 179/129/677 128/126/677 238/246/677
f 239/247/678 129/128/678 180/131/678
f 128/126/679 110/127/679 256/228/679
f 257/229/680 111/506/680 129/128/680
f 256/228/681 258/270/681 276/248/681
f 257/229/682 239/247/682 277/249/682
f 236/243/683 238/246/683 276/248/683
f 277/249/684 239/247/684 237/245/684
f 236/243/685 278/251/685 274/253/685
f 237/245/686 241/242/686 275/254/686
f 240/244/687 274/253/687 272/255/687
f 241/242/688 243/240/688 273/256/688
f 244/238/689 242/241/689 272/255/689
f 273/256/690 243/240/690 245/239/690
f 244/238/691 270/257/691 268/259/691
f 245/239/692 247/237/692 269/260/692
f 248/234/693 246/236/693 268/259/693
f 269/260/694 247/237/694 249/235/694
f 248/234/695 266/261/695 264/263/695
f 249/235/696 251/233/696 265/264/696
f 250/231/697 264/263/697 262/265/697
f 251/233/698 253/230/698 263/266/698
f 234/222/235 252/232/235 262/265/235
f 263/266/236 253/230/236 235/224/236
f 256/228/699 254/226/699 260/269/699
f 261/271/700 255/227/700 257/229/700
f 254/226/701 232/223/701 282/272/701
f 283/273/702 233/225/702 255/227/702
f 232/223/703 234/222/703 280/267/703
f 281/268/704 235/224/704 233/225/704
f 67/123/705 108/119/705 284/274/705
f 285/276/706 109/121/706 67/123/706
f 108/119/707 106/115/707 286/277/707
f 287/278/708 107/117/708 109/121/708
f 104/116/709 288/281/709 286/277/709
f 105/279/710 107/117/710 287/278/710
f 102/108/711 290/283/711 288/281/711
f 103/110/712 105/279/712 289/280/712
f 100/104/713 292/286/713 290/283/713
f 101/106/714 103/110/714 291/282/714
f 100/104/715 98/100/715 294/285/715
f 295/287/716 99/102/716 101/106/716
f 96/101/717 296/291/717 294/285/717
f 97/288/718 99/102/718 295/287/718
f 96/101/719 94/93/719 298/290/719
f 299/292/720 95/95/720 97/288/720
f 94/93/721 92/94/721 300/293/721
f 301/294/722 93/320/722 95/95/722
f 309/295/723 328/312/723 338/296/723
f 309/295/724 308/297/724 339/298/724
f 308/297/725 338/296/725 336/300/725
f 308/297/726 307/301/726 337/302/726
f 307/301/727 336/300/727 340/303/727
f 307/301/728 306/304/728 341/305/728
f 89/69/729 91/68/729 306/304/729
f 306/304/730 91/68/730 90/75/730
f 87/73/731 89/69/731 340/303/731
f 341/305/732 90/75/732 88/78/732
f 85/76/733 87/73/733 334/306/733
f 335/307/734 88/78/734 86/77/734
f 83/79/735 85/76/735 330/308/735
f 331/309/736 86/77/736 84/82/736
f 330/308/737 336/300/737 338/296/737
f 339/298/738 337/302/738 331/309/738
f 334/306/739 340/303/739 336/300/739
f 335/307/740 331/309/740 337/302/740
f 332/310/741 338/296/741 328/312/741
f 333/311/742 327/314/742 329/299/742
f 81/83/743 83/79/743 332/310/743
f 333/311/744 84/82/744 82/86/744
f 342/315/745 344/380/745 215/203/745
f 343/316/746 210/202/746 216/204/746
f 326/313/747 342/315/747 209/201/747
f 327/314/748 82/86/748 210/202/748
f 215/203/749 344/380/749 346/318/749
f 216/204/750 80/91/750 347/319/750
f 346/318/751 300/293/751 92/94/751
f 347/319/752 80/91/752 93/320/752
f 324/321/753 352/326/753 304/322/753
f 325/324/754 77/323/754 304/322/754
f 352/326/755 350/374/755 78/327/755
f 353/325/756 304/322/756 78/327/756
f 78/327/757 350/374/757 348/329/757
f 349/331/758 351/328/758 78/327/758
f 305/330/759 348/329/759 328/312/759
f 329/299/760 349/331/760 305/330/760
f 328/312/761 348/329/761 342/315/761
f 329/299/762 327/314/762 343/316/762
f 296/291/763 298/290/763 318/332/763
f 319/334/764 299/292/764 297/289/764
f 316/336/765 324/321/765 77/323/765
f 317/338/766 76/337/766 77/323/766
f 358/339/767 356/366/767 303/340/767
f 359/342/768 302/341/768 303/340/768
f 303/340/769 356/366/769 354/344/769
f 355/346/770 357/343/770 303/340/770
f 75/345/771 354/344/771 316/336/771
f 317/338/772 355/346/772 75/345/772
f 292/286/773 294/285/773 362/347/773
f 363/349/774 295/287/774 293/284/774
f 364/348/775 362/347/775 368/351/775
f 369/353/776 363/349/776 365/350/776
f 366/352/777 368/351/777 370/355/777
f 371/357/778 369/353/778 367/354/778
f 372/356/779 370/355/779 376/359/779
f 377/361/780 371/357/780 373/358/780
f 378/363/781 374/360/781 376/359/781
f 379/365/782 315/505/782 377/361/782
f 316/336/783 354/344/783 374/360/783
f 375/362/784 355/346/784 317/338/784
f 354/344/785 356/366/785 372/356/785
f 373/358/786 357/343/786 355/346/786
f 356/366/787 358/339/787 366/352/787
f 367/354/788 359/342/788 357/343/788
f 358/339/789 360/367/789 364/348/789
f 365/350/790 361/368/790 359/342/790
f 292/286/791 364/348/791 360/367/791
f 293/284/792 291/282/792 361/368/792
f 360/367/793 358/339/793 302/341/793
f 361/368/794 74/369/794 302/341/794
f 284/274/795 286/277/795 288/281/795
f 289/280/796 287/278/796 285/276/796
f 284/274/797 290/283/797 360/367/797
f 361/368/798 291/282/798 285/276/798
f 296/291/799 310/333/799 362/347/799
f 297/289/800 295/287/800 363/349/800
f 310/333/801 312/370/801 368/351/801
f 369/353/802 313/371/802 311/335/802
f 312/370/803 382/372/803 370/355/803
f 371/357/804 383/373/804 313/371/804
f 376/359/805 370/355/805 382/372/805
f 377/361/806 315/505/806 383/373/806
f 350/374/807 386/384/807 384/375/807
f 351/328/808 349/331/808 385/376/808
f 384/375/809 386/384/809 320/378/809
f 385/376/810 319/334/810 321/379/810
f 298/290/811 300/293/811 384/375/811
f 385/376/812 301/294/812 299/292/812
f 300/293/813 344/380/813 342/315/813
f 343/316/814 345/317/814 301/294/814
f 322/381/815 380/385/815 378/363/815
f 323/382/816 315/505/816 379/365/816
f 378/363/817 380/385/817 324/321/817
f 379/365/818 317/338/818 325/324/818
f 386/384/819 380/385/819 322/381/819
f 387/377/820 321/379/820 323/382/820
f 352/326/821 380/385/821 386/384/821
f 353/325/822 351/328/822 387/377/822
f 388/386/823 414/430/823 402/387/823
f 389/389/824 401/395/824 403/390/824
f 400/388/825 402/387/825 404/392/825
f 405/394/826 403/390/826 401/395/826
f 404/392/827 406/400/827 396/397/827
f 405/394/828 399/396/828 397/398/828
f 406/400/829 408/404/829 394/401/829
f 407/399/830 397/398/830 395/402/830
f 408/404/831 410/412/831 392/405/831
f 409/403/832 395/402/832 393/406/832
f 392/405/833 410/412/833 412/408/833
f 413/410/834 411/407/834 393/406/834
f 410/412/835 420/415/835 418/413/835
f 419/414/836 421/416/836 411/407/836
f 408/404/837 422/472/837 420/415/837
f 421/416/838 423/419/838 409/403/838
f 424/417/839 422/472/839 408/404/839
f 425/418/840 407/399/840 409/403/840
f 426/420/841 424/417/841 406/400/841
f 427/421/842 405/394/842 407/399/842
f 428/422/843 426/420/843 404/392/843
f 429/423/844 403/390/844 405/394/844
f 402/387/845 414/430/845 416/424/845
f 417/425/846 415/391/846 403/390/846
f 320/378/847 444/429/847 442/426/847
f 321/379/848 319/334/848 443/427/848
f 390/409/849 412/408/849 444/429/849
f 391/411/850 321/379/850 445/428/850
f 310/333/851 318/332/851 442/426/851
f 443/427/852 319/334/852 311/335/852
f 382/372/853 430/445/853 414/430/853
f 415/391/854 431/448/854 383/373/854
f 412/408/855 418/413/855 440/431/855
f 441/432/856 419/414/856 413/410/856
f 446/433/857 444/429/857 440/431/857
f 447/435/858 439/438/858 441/432/858
f 434/436/859 446/433/859 438/434/859
f 439/438/860 447/435/860 435/439/860
f 448/441/861 446/433/861 434/436/861
f 449/443/862 433/447/862 435/439/862
f 448/441/863 432/442/863 450/444/863
f 449/443/864 431/448/864 451/446/864
f 430/445/865 450/444/865 416/424/865
f 431/448/866 415/391/866 417/425/866
f 312/370/867 448/441/867 430/445/867
f 431/448/868 449/443/868 313/371/868
f 442/426/869 446/433/869 448/441/869
f 443/427/870 313/371/870 449/443/870
f 416/424/871 450/444/871 452/449/871
f 453/451/872 451/446/872 417/425/872
f 432/442/873 462/455/873 452/449/873
f 433/447/874 451/446/874 453/451/874
f 432/442/421 434/436/421 460/454/421
f 461/456/422 435/439/422 433/447/422
f 436/437/875 458/458/875 460/454/875
f 437/440/876 435/439/876 461/456/876
f 438/434/877 456/461/877 458/458/877
f 439/438/878 437/440/878 459/457/878
f 438/434/879 440/431/879 454/460/879
f 455/462/880 441/432/880 439/438/880
f 440/431/881 418/413/881 474/463/881
f 475/464/882 419/414/882 441/432/882
f 428/422/883 416/424/883 476/450/883
f 477/452/884 417/425/884 429/423/884
f 426/420/885 428/422/885 464/465/885
f 465/466/886 429/423/886 427/421/886
f 424/417/887 426/420/887 466/467/887
f 467/468/888 427/421/888 425/418/888
f 424/417/889 468/469/889 470/471/889
f 425/418/890 423/419/890 471/473/890
f 422/472/891 470/471/891 472/474/891
f 423/419/892 421/416/892 473/475/892
f 420/415/893 472/474/893 474/463/893
f 421/416/894 419/414/894 475/464/894
f 456/461/895 480/479/895 478/476/895
f 457/459/896 459/457/896 479/477/896
f 480/479/897 482/507/897 484/480/897
f 481/478/898 479/477/898 485/481/898
f 484/480/899 482/507/899 488/483/899
f 489/485/900 483/482/900 485/481/900
f 488/483/901 490/490/901 492/487/901
f 489/485/902 487/486/902 493/488/902
f 464/465/903 476/450/903 486/484/903
f 487/486/904 477/452/904 465/466/904
f 484/480/905 486/484/905 476/450/905
f 485/481/906 453/451/906 477/452/906
f 462/455/907 478/476/907 484/480/907
f 463/453/908 453/451/908 485/481/908
f 458/458/909 478/476/909 462/455/909
f 463/453/910 479/477/910 459/457/910
f 474/463/911 480/479/911 456/461/911
f 475/464/912 455/462/912 457/459/912
f 472/474/913 482/507/913 480/479/913
f 481/478/914 483/482/914 473/475/914
f 488/483/915 482/507/915 472/474/915
f 489/485/916 471/473/916 473/475/916
f 490/490/917 488/483/917 470/471/917
f 491/489/918 469/470/918 471/473/918
f 466/467/919 492/487/919 490/490/919
f 491/489/920 493/488/920 467/468/920
f 392/405/921 390/409/921 504/491/921
f 505/493/922 391/411/922 393/406/922
f 394/401/923 392/405/923 502/492/923
f 503/494/924 393/406/924 395/402/924
f 394/401/925 500/495/925 498/497/925
f 395/402/926 397/398/926 499/498/926
f 396/397/927 498/497/927 496/499/927
f 397/398/928 399/396/928 497/500/928
f 398/393/929 496/499/929 494/501/929
f 399/396/930 401/395/930 495/502/930
f 400/388/931 494/501/931 506/503/931
f 401/395/932 389/389/932 507/504/932
f 502/492/933 504/491/933 506/503/933
f 503/494/934 495/502/934 507/504/934
f 494/501/935 496/499/935 500/495/935
f 501/496/936 497/500/936 495/502/936
f 382/372/937 388/386/937 506/503/937
f 383/373/938 315/505/938 507/504/938
f 314/364/939 506/503/939 504/491/939
f 505/493/940 507/504/940 315/505/940
f 320/378/941 322/381/941 504/491/941
f 505/493/942 323/382/942 321/379/942
