# Blender v2.79 (sub 0) OBJ File: 'stall.blend'
# www.blender.org
mtllib stall2.mtl
o Cube
v 3.227124 -0.065127 -1.000000
v 3.227124 -0.065127 1.000000
v -3.227125 -0.065127 1.000000
v -3.227123 -0.065127 -1.000000
v 3.227126 1.934873 -0.999999
v 3.227122 1.934873 1.000001
v -3.227126 1.934873 1.000000
v -3.227124 1.934873 -1.000000
v 3.558682 1.924610 -1.102740
v 3.558677 1.924610 1.511141
v -3.558681 1.924610 1.511140
v -3.558679 1.924610 -1.102740
v 3.558682 2.083301 -1.102740
v 3.558677 2.083301 1.511141
v -3.558681 2.083301 1.511140
v -3.558679 2.083301 -1.102740
v 3.227124 -0.065127 -1.000000
v 3.227126 1.934873 -0.999999
v 3.227126 1.934873 -0.999999
v 3.227126 1.934873 -0.999999
v 3.227124 -0.065127 1.000000
v 3.227122 1.934873 1.000001
v 3.227122 1.934873 1.000001
v 3.227122 1.934873 1.000001
v -3.227125 -0.065127 1.000000
v -3.227126 1.934873 1.000000
v -3.227126 1.934873 1.000000
v -3.227126 1.934873 1.000000
v -3.227123 -0.065127 -1.000000
v -3.227124 1.934873 -1.000000
v -3.227124 1.934873 -1.000000
v -3.227124 1.934873 -1.000000
v 3.558682 1.924610 -1.102740
v 3.558677 1.924610 1.511141
v 3.558677 1.924610 1.511141
v 3.558677 1.924610 1.511141
v -3.558681 1.924610 1.511140
v -3.558681 1.924610 1.511140
v -3.558681 1.924610 1.511140
v -3.558679 1.924610 -1.102740
v -3.558679 1.924610 -1.102740
v 3.558682 2.083301 -1.102740
v 3.558677 2.083301 1.511141
v 3.558677 2.083301 1.511141
v -3.558679 2.083301 -1.102740
v -3.558679 2.083301 -1.102740
v -3.558681 2.083301 1.511140
v -3.558681 2.083301 1.511140
v -3.975889 5.109764 -0.703744
v -3.975889 -0.001038 -0.703744
v 4.035702 -0.001038 -0.703744
v 4.035702 5.109764 -0.703744
v 4.136954 -0.001038 -0.645286
v 4.136954 5.109764 -0.645286
v 4.136954 -0.001038 -0.528370
v 4.136954 5.109764 -0.528370
v 4.035702 -0.001038 -0.469912
v 4.035702 5.109764 -0.469912
v 3.934450 -0.001038 -0.528370
v 3.934450 5.109764 -0.528370
v 3.934450 -0.001038 -0.645286
v 3.934450 5.109764 -0.645286
v -3.874637 -0.001038 -0.645286
v -3.874637 5.109764 -0.645286
v -3.874637 -0.001038 -0.528370
v -3.874637 5.109764 -0.528370
v -3.975889 -0.001038 -0.469912
v -3.975889 5.109764 -0.469912
v -4.077142 -0.001038 -0.528370
v -4.077142 5.109764 -0.528370
v -4.077142 -0.001038 -0.645286
v -4.077142 5.109764 -0.645286
v -4.518063 -0.025686 3.868089
v -4.518063 -0.025686 3.580229
v 4.401308 -0.025686 3.580229
v 4.401308 -0.025686 3.868089
v -4.518063 3.617208 3.868089
v -4.518063 3.617208 3.580229
v 4.401308 3.617208 3.580229
v 4.401308 3.617208 3.868089
v -4.518063 4.016335 3.710218
v -4.518063 3.792680 3.528995
v 4.401308 3.792680 3.528995
v 4.401308 4.016335 3.710218
v -4.518063 4.490533 3.232638
v -4.518063 4.260199 3.059984
v 4.401308 4.260199 3.059984
v 4.401308 4.490533 3.232638
v -4.518063 5.251897 -0.749037
v -4.518063 5.051156 -0.716959
v 4.401308 5.051156 -0.716959
v 4.401308 5.251897 -0.749037
v -4.518063 4.733114 -1.423512
v -4.518063 4.593092 -1.289192
v 4.401308 4.593092 -1.289192
v 4.401308 4.733114 -1.423512
v -3.874637 5.109764 -0.528370
v -3.874637 -0.001038 -0.528370
v 3.934450 5.109764 -0.528370
v 3.934450 -0.001038 -0.528370
v 3.077599 2.080430 -1.292466
v 3.486084 2.080430 0.000798
v 1.220706 2.080430 0.716330
v 0.812221 2.080430 -0.576934
v 3.077599 2.174018 -1.292466
v 3.486084 2.174018 0.000798
v 1.220706 2.174018 0.716330
v 0.812221 2.174018 -0.576934
v 0.866186 2.174018 -0.491315
v 1.241163 2.174018 0.695864
v 1.353509 2.174018 0.660380
v 0.978532 2.174018 -0.526800
v 0.866186 2.080430 -0.491315
v 1.241163 2.080430 0.695864
v 1.353509 2.080430 0.660380
v 0.978532 2.080430 -0.526800
v 0.866186 2.545954 -0.491315
v 1.241163 2.545954 0.695864
v 1.353509 2.545954 0.660380
v 0.978532 2.545954 -0.526800
v 0.844122 2.174018 -0.561169
v 0.956468 2.174018 -0.596654
v 0.844122 2.080430 -0.561169
v 0.956468 2.080430 -0.596654
v 0.844122 2.545954 -0.561169
v 0.956468 2.545954 -0.596654
v 3.012783 2.174018 -1.169330
v 3.012783 2.080430 -1.169330
v 3.012783 2.545954 -1.169330
v 2.990720 2.174018 -1.239183
v 2.990720 2.080430 -1.239183
v 2.990720 2.545954 -1.239183
v 3.092841 2.174018 -1.194616
v 3.092841 2.080430 -1.194616
v 3.092841 2.545954 -1.194616
v 3.070777 2.174018 -1.264470
v 3.070777 2.080430 -1.264470
v 3.070777 2.545954 -1.264470
v 3.376227 2.174018 -0.018666
v 3.376227 2.080430 -0.018666
v 3.376227 2.545954 -0.018666
v 3.456284 2.174018 -0.043953
v 3.456284 2.080430 -0.043953
v 3.456284 2.545954 -0.043953
v 3.077599 2.174018 -1.292466
v 3.077599 2.174018 -1.292466
v 3.486084 2.174018 0.000798
v 3.486084 2.174018 0.000798
v 3.486084 2.080430 0.000798
v 3.486084 2.080430 0.000798
v 3.077599 2.080430 -1.292466
v 3.077599 2.080430 -1.292466
v 1.220706 2.174018 0.716330
v 1.220706 2.174018 0.716330
v 1.220706 2.080430 0.716330
v 1.220706 2.080430 0.716330
v 0.812221 2.174018 -0.576934
v 0.812221 2.174018 -0.576934
v 0.812221 2.080430 -0.576934
v 0.812221 2.080430 -0.576934
v 0.978532 2.080430 -0.526800
v 0.978532 2.080430 -0.526800
v 0.978532 2.080430 -0.526800
v 0.978532 2.080430 -0.526800
v 0.866186 2.080430 -0.491315
v 0.866186 2.080430 -0.491315
v 0.866186 2.080430 -0.491315
v 0.844122 2.080430 -0.561169
v 0.844122 2.080430 -0.561169
v 1.241163 2.080430 0.695864
v 1.241163 2.080430 0.695864
v 0.866186 2.174018 -0.491315
v 0.866186 2.174018 -0.491315
v 0.866186 2.174018 -0.491315
v 1.241163 2.174018 0.695864
v 1.241163 2.174018 0.695864
v 1.241163 2.174018 0.695864
v 1.353509 2.080430 0.660380
v 1.353509 2.080430 0.660380
v 1.353509 2.174018 0.660380
v 1.353509 2.174018 0.660380
v 1.353509 2.174018 0.660380
v 0.978532 2.174018 -0.526800
v 0.978532 2.174018 -0.526800
v 0.978532 2.174018 -0.526800
v 0.866186 2.545954 -0.491315
v 0.866186 2.545954 -0.491315
v 0.866186 2.545954 -0.491315
v 0.978532 2.545954 -0.526800
v 0.978532 2.545954 -0.526800
v 0.978532 2.545954 -0.526800
v 0.978532 2.545954 -0.526800
v 1.241163 2.545954 0.695864
v 1.241163 2.545954 0.695864
v 1.353509 2.545954 0.660380
v 1.353509 2.545954 0.660380
v 0.956468 2.080430 -0.596654
v 0.956468 2.080430 -0.596654
v 0.956468 2.080430 -0.596654
v 0.844122 2.174018 -0.561169
v 0.844122 2.174018 -0.561169
v 0.844122 2.174018 -0.561169
v 0.956468 2.174018 -0.596654
v 0.956468 2.174018 -0.596654
v 0.956468 2.174018 -0.596654
v 0.844122 2.545954 -0.561169
v 0.844122 2.545954 -0.561169
v 0.956468 2.545954 -0.596654
v 0.956468 2.545954 -0.596654
v 0.956468 2.545954 -0.596654
v 3.012783 2.174018 -1.169330
v 3.012783 2.174018 -1.169330
v 3.012783 2.174018 -1.169330
v 3.012783 2.080430 -1.169330
v 3.012783 2.080430 -1.169330
v 3.012783 2.080430 -1.169330
v 3.012783 2.080430 -1.169330
v 3.012783 2.545954 -1.169330
v 3.012783 2.545954 -1.169330
v 3.012783 2.545954 -1.169330
v 3.012783 2.545954 -1.169330
v 2.990720 2.080430 -1.239183
v 2.990720 2.080430 -1.239183
v 2.990720 2.080430 -1.239183
v 2.990720 2.174018 -1.239183
v 2.990720 2.174018 -1.239183
v 2.990720 2.174018 -1.239183
v 2.990720 2.545954 -1.239183
v 2.990720 2.545954 -1.239183
v 2.990720 2.545954 -1.239183
v 3.070777 2.174018 -1.264470
v 3.070777 2.174018 -1.264470
v 3.070777 2.174018 -1.264470
v 3.092841 2.080430 -1.194616
v 3.092841 2.080430 -1.194616
v 3.092841 2.080430 -1.194616
v 3.092841 2.174018 -1.194616
v 3.092841 2.174018 -1.194616
v 3.092841 2.174018 -1.194616
v 3.092841 2.545954 -1.194616
v 3.092841 2.545954 -1.194616
v 3.092841 2.545954 -1.194616
v 3.070777 2.080430 -1.264470
v 3.070777 2.080430 -1.264470
v 3.070777 2.545954 -1.264470
v 3.070777 2.545954 -1.264470
v 3.376227 2.174018 -0.018666
v 3.376227 2.174018 -0.018666
v 3.376227 2.174018 -0.018666
v 3.376227 2.080430 -0.018666
v 3.376227 2.080430 -0.018666
v 3.376227 2.545954 -0.018666
v 3.376227 2.545954 -0.018666
v 3.456284 2.080430 -0.043953
v 3.456284 2.080430 -0.043953
v 3.456284 2.174018 -0.043953
v 3.456284 2.174018 -0.043953
v 3.456284 2.174018 -0.043953
v 3.456284 2.545954 -0.043953
v 3.456284 2.545954 -0.043953
v 1.510815 2.137595 0.037730
v 1.349035 2.290844 -0.140367
v 1.591464 2.172901 -0.233612
v 1.784266 2.190338 -0.024086
v 1.660990 2.319058 0.198652
v 1.392003 2.381173 0.126783
v 1.522500 2.438301 -0.312256
v 1.791486 2.376186 -0.240387
v 1.834455 2.466515 0.026763
v 1.592026 2.584458 0.120008
v 1.399223 2.567021 -0.089519
v 1.672674 2.619764 -0.151334
v 2.497889 2.137595 -0.044384
v 2.336109 2.290844 -0.222481
v 2.578538 2.172901 -0.315726
v 2.771340 2.190338 -0.106200
v 2.648064 2.319058 0.116538
v 2.379078 2.381173 0.044669
v 2.509574 2.438301 -0.394370
v 2.778560 2.376186 -0.322502
v 2.821529 2.466515 -0.055351
v 2.579100 2.584458 0.037894
v 2.386297 2.567021 -0.171633
v 2.659748 2.619764 -0.233449
v 2.006507 2.137595 -0.316138
v 1.844727 2.290844 -0.494235
v 2.087156 2.172901 -0.587479
v 2.279958 2.190338 -0.377954
v 2.156682 2.319058 -0.155216
v 1.887695 2.381173 -0.227085
v 2.018192 2.438301 -0.666124
v 2.287179 2.376186 -0.594255
v 2.330147 2.466515 -0.327105
v 2.087718 2.584458 -0.233860
v 1.894915 2.567021 -0.443387
v 2.168366 2.619764 -0.505202
v 2.833736 2.426006 -0.583306
v 2.684991 2.845636 -1.079525
v 2.757221 2.366194 -0.574572
v 2.608476 2.785824 -1.070790
v 2.749703 2.246832 -0.600498
v 2.600958 2.666462 -1.096717
v 2.818701 2.187281 -0.635161
v 2.669955 2.606911 -1.131379
v 2.895216 2.247093 -0.643896
v 2.746471 2.666724 -1.140114
v 2.902734 2.366456 -0.617969
v 2.753989 2.786086 -1.114187
v 3.047219 2.426006 -0.650736
v 2.898475 2.845636 -1.146955
v 2.970704 2.366194 -0.642001
v 2.821959 2.785824 -1.138220
v 2.963186 2.246832 -0.667928
v 2.814442 2.666462 -1.164147
v 3.032184 2.187281 -0.702591
v 2.883439 2.606911 -1.198809
v 3.108700 2.247093 -0.711326
v 2.959954 2.666724 -1.207544
v 3.116217 2.366456 -0.685399
v 2.967472 2.786086 -1.181617
v -1.172064 2.145742 0.102815
v -1.274777 2.145742 0.043514
v -1.274777 2.075523 -0.065804
v -1.274777 2.111542 -0.065804
v -1.077392 2.075523 0.048156
v -1.077392 2.111542 0.048156
v -1.077392 2.075523 0.276076
v -1.077392 2.111542 0.276076
v -1.274777 2.075523 0.390036
v -1.274777 2.111542 0.390036
v -1.472162 2.075523 0.276076
v -1.472162 2.111542 0.276076
v -1.472162 2.075523 0.048156
v -1.472162 2.111542 0.048156
v -1.172064 2.145742 0.221418
v -1.274777 2.145742 0.280719
v -1.377490 2.145742 0.221418
v -1.377490 2.145742 0.102815
v -1.238618 2.209867 0.141240
v -1.274777 2.209867 0.120363
v -1.238618 2.209867 0.182993
v -1.274777 2.209867 0.203870
v -1.310936 2.209867 0.182993
v -1.310936 2.209867 0.141240
v -1.238618 2.579231 0.141240
v -1.274777 2.579231 0.120363
v -1.238618 2.579231 0.182993
v -1.274777 2.579231 0.203870
v -1.310936 2.579231 0.182993
v -1.310936 2.579231 0.141240
v -1.188232 2.648486 0.112150
v -1.274777 2.648486 0.062183
v -1.188232 2.648486 0.212083
v -1.274777 2.648486 0.262050
v -1.361322 2.648486 0.212083
v -1.361322 2.648486 0.112150
v -1.124406 2.740827 0.075299
v -1.274777 2.740827 -0.011518
v -1.124406 2.740827 0.248933
v -1.274777 2.740827 0.335750
v -1.425149 2.740827 0.248933
v -1.425149 2.740827 0.075299
v -1.080861 2.912683 0.050158
v -1.274777 2.912683 -0.061799
v -1.080861 2.912683 0.274074
v -1.274777 2.912683 0.386032
v -1.468694 2.912683 0.274074
v -1.468694 2.912683 0.050158
v -1.080861 3.117886 0.050158
v -1.274777 3.117886 -0.061799
v -1.080861 3.117886 0.274074
v -1.274777 3.117886 0.386032
v -1.468694 3.117886 0.274074
v -1.468694 3.117886 0.050158
v -1.099921 3.127254 0.059737
v -1.278856 3.127254 -0.043571
v -1.099921 3.127254 0.266354
v -1.278856 3.127254 0.369662
v -1.457792 3.127254 0.266354
v -1.457792 3.127254 0.059737
v -1.278856 2.680948 0.163046
v -1.922013 2.145742 -0.643475
v -2.024726 2.145742 -0.702776
v -2.024726 2.075523 -0.812093
v -2.024726 2.111542 -0.812093
v -1.827342 2.075523 -0.698134
v -1.827342 2.111542 -0.698134
v -1.827342 2.075523 -0.470213
v -1.827342 2.111542 -0.470213
v -2.024726 2.075523 -0.356253
v -2.024726 2.111542 -0.356253
v -2.222111 2.075523 -0.470213
v -2.222111 2.111542 -0.470213
v -2.222111 2.075523 -0.698134
v -2.222111 2.111542 -0.698134
v -1.922013 2.145742 -0.524872
v -2.024726 2.145742 -0.465571
v -2.127439 2.145742 -0.524872
v -2.127439 2.145742 -0.643475
v -1.988567 2.209867 -0.605050
v -2.024726 2.209867 -0.625927
v -1.988567 2.209867 -0.563297
v -2.024726 2.209867 -0.542420
v -2.060886 2.209867 -0.563297
v -2.060886 2.209867 -0.605050
v -1.988567 2.579231 -0.605050
v -2.024726 2.579231 -0.625927
v -1.988567 2.579231 -0.563297
v -2.024726 2.579231 -0.542420
v -2.060886 2.579231 -0.563297
v -2.060886 2.579231 -0.605050
v -1.938182 2.648486 -0.634140
v -2.024726 2.648486 -0.684107
v -1.938182 2.648486 -0.534207
v -2.024726 2.648486 -0.484240
v -2.111271 2.648486 -0.534207
v -2.111271 2.648486 -0.634140
v -1.874355 2.740827 -0.670991
v -2.024726 2.740827 -0.757808
v -1.874355 2.740827 -0.497356
v -2.024726 2.740827 -0.410539
v -2.175098 2.740827 -0.497356
v -2.175098 2.740827 -0.670991
v -1.830810 2.912683 -0.696131
v -2.024726 2.912683 -0.808089
v -1.830810 2.912683 -0.472216
v -2.024726 2.912683 -0.360258
v -2.218643 2.912683 -0.472216
v -2.218643 2.912683 -0.696131
v -1.830810 3.117886 -0.696131
v -2.024726 3.117886 -0.808089
v -1.830810 3.117886 -0.472216
v -2.024726 3.117886 -0.360258
v -2.218643 3.117886 -0.472216
v -2.218643 3.117886 -0.696131
v -1.849871 3.127254 -0.686552
v -2.028805 3.127254 -0.789860
v -1.849871 3.127254 -0.479936
v -2.028805 3.127254 -0.376628
v -2.207741 3.127254 -0.479936
v -2.207741 3.127254 -0.686552
v -2.028805 2.680948 -0.583244
v -3.080822 2.145742 0.848455
v -3.183535 2.145742 0.789153
v -3.183535 2.075523 0.679836
v -3.183535 2.111542 0.679836
v -2.986151 2.075523 0.793796
v -2.986151 2.111542 0.793796
v -2.986151 2.075523 1.021716
v -2.986151 2.111542 1.021716
v -3.183535 2.075523 1.135676
v -3.183535 2.111542 1.135676
v -3.380919 2.075523 1.021716
v -3.380919 2.111542 1.021716
v -3.380919 2.075523 0.793796
v -3.380919 2.111542 0.793796
v -3.080822 2.145742 0.967057
v -3.183535 2.145742 1.026358
v -3.286248 2.145742 0.967057
v -3.286248 2.145742 0.848455
v -3.147376 2.209867 0.886879
v -3.183535 2.209867 0.866003
v -3.147376 2.209867 0.928633
v -3.183535 2.209867 0.949509
v -3.219694 2.209867 0.928633
v -3.219694 2.209867 0.886879
v -3.147376 2.579231 0.886879
v -3.183535 2.579231 0.866003
v -3.147376 2.579231 0.928633
v -3.183535 2.579231 0.949509
v -3.219694 2.579231 0.928633
v -3.219694 2.579231 0.886879
v -3.096991 2.648486 0.857789
v -3.183535 2.648486 0.807823
v -3.096991 2.648486 0.957723
v -3.183535 2.648486 1.007689
v -3.270080 2.648486 0.957723
v -3.270080 2.648486 0.857789
v -3.033164 2.740827 0.820939
v -3.183534 2.740827 0.734122
v -3.033164 2.740827 0.994573
v -3.183534 2.740827 1.081390
v -3.333907 2.740827 0.994573
v -3.333907 2.740827 0.820939
v -2.989619 2.912683 0.795798
v -3.183534 2.912683 0.683840
v -2.989619 2.912683 1.019714
v -3.183534 2.912683 1.131672
v -3.377452 2.912683 1.019714
v -3.377452 2.912683 0.795798
v -2.989619 3.117886 0.795798
v -3.183534 3.117886 0.683840
v -2.989619 3.117886 1.019714
v -3.183534 3.117886 1.131672
v -3.377452 3.117886 1.019714
v -3.377452 3.117886 0.795798
v -3.008679 3.127254 0.805377
v -3.187614 3.127254 0.702069
v -3.008679 3.127254 1.011994
v -3.187614 3.127254 1.115302
v -3.366550 3.127254 1.011994
v -3.366550 3.127254 0.805377
v -3.187614 2.680948 0.908685
v 4.401308 3.617208 3.580229
v 4.401308 -0.025686 3.580229
v 4.401308 3.792680 3.528995
v 4.401308 4.260199 3.059984
v 4.401308 5.051156 -0.716959
v 4.401308 4.593092 -1.289192
vt 0.533523 0.942320
vt 0.905299 0.919749
vt 0.905299 0.942320
vt 0.606224 0.972537
vt 0.905301 0.957852
vt 0.890688 0.972537
vt 0.863038 0.667779
vt 0.707599 0.512341
vt 0.863038 0.512341
vt 0.915821 0.985620
vt 0.508265 0.578064
vt 0.915821 0.578064
vt 0.707599 0.979117
vt 0.863038 0.823679
vt 0.863038 0.979117
vt 0.863038 0.823448
vt 0.707599 0.668010
vt 0.863038 0.668010
vt 0.606226 0.942743
vt 0.905292 0.957429
vt 0.533523 0.957429
vt 0.985176 0.854869
vt 0.905300 0.896755
vt 0.700713 0.854870
vt 0.921287 0.703296
vt 0.622211 0.776012
vt 0.636824 0.703297
vt 0.707368 0.512341
vt 0.535960 0.715489
vt 0.535960 0.512341
vt 0.533523 0.919326
vt 0.533523 0.896755
vt 0.999789 0.869555
vt 0.905300 0.919326
vt 0.912899 0.831876
vt 0.599209 0.854446
vt 0.599209 0.831876
vt 0.177195 0.893095
vt 0.013364 0.906932
vt 0.176655 0.902678
vt 0.710700 0.981434
vt 0.702383 0.504933
vt 0.710700 0.504901
vt 0.699800 0.981445
vt 0.691633 0.504928
vt 0.699950 0.504898
vt 0.175642 0.911615
vt 0.019454 0.789409
vt 0.175049 0.789769
vt 0.691482 0.981475
vt 0.680731 0.504924
vt 0.702383 0.981467
vt 0.691482 0.504933
vt 0.674847 0.981532
vt 0.663946 0.504998
vt 0.674847 0.504998
vt 0.680581 0.981472
vt 0.672414 0.504954
vt 0.691482 0.981467
vt 0.683164 0.504966
vt 0.683164 0.981499
vt 0.672263 0.981502
vt 0.664096 0.504984
vt 0.708118 0.981416
vt 0.708268 0.504868
vt 0.719019 0.981419
vt 0.719169 0.504872
vt 0.172299 0.777935
vt 0.017048 0.894869
vt 0.719018 0.981402
vt 0.719017 0.504868
vt 0.019488 0.777616
vt 0.188367 0.779011
vt 0.194225 0.892858
vt 0.212963 0.780571
vt 0.185989 0.902579
vt 0.183371 0.911603
vt 0.183492 0.789933
vt 0.220229 0.892814
vt 0.367145 0.793339
vt 0.213720 0.792797
vt 0.210776 0.911687
vt 0.218479 0.901319
vt 0.379965 0.900404
vt 0.391357 0.794319
vt 0.370492 0.908704
vt 0.367608 0.800840
vt 0.410730 0.918007
vt 0.406722 0.906137
vt 0.394868 0.799588
vt 0.396496 0.908115
vt 0.378842 0.909853
vt 0.894968 0.583164
vt 0.657579 0.599545
vt 0.657579 0.583164
vt 0.875496 0.950201
vt 0.746642 0.966582
vt 0.746642 0.950201
vt 0.657579 0.624058
vt 0.894968 0.607677
vt 0.894968 0.624058
vt 0.746642 0.983360
vt 0.875496 0.966979
vt 0.875496 0.983360
vt 0.765717 0.755451
vt 0.528328 0.884305
vt 0.528328 0.755451
vt 0.528328 0.755055
vt 0.657182 0.517666
vt 0.657182 0.755055
vt 0.657579 0.755055
vt 0.875496 0.689953
vt 0.875496 0.755055
vt 0.964561 0.983757
vt 0.746642 0.990146
vt 0.746642 0.983757
vt 0.888718 0.607280
vt 0.875895 0.600889
vt 0.888717 0.600889
vt 0.739939 0.949804
vt 0.957855 0.933423
vt 0.957855 0.949804
vt 0.889111 0.534047
vt 0.895502 0.517666
vt 0.895502 0.534047
vt 0.746245 0.950201
vt 0.528328 0.966582
vt 0.528328 0.950201
vt 0.657579 0.600889
vt 0.875499 0.607280
vt 0.657579 0.607279
vt 0.765717 0.884702
vt 0.752895 0.891092
vt 0.752895 0.884702
vt 0.895396 0.755451
vt 0.889006 0.820553
vt 0.889006 0.755451
vt 0.875496 0.517666
vt 0.657579 0.582767
vt 0.657579 0.517666
vt 0.889112 0.582767
vt 0.895502 0.566386
vt 0.895502 0.582767
vt 0.888609 0.755451
vt 0.882219 0.820553
vt 0.882219 0.755451
vt 0.881822 0.886448
vt 0.766114 0.899271
vt 0.766114 0.886448
vt 0.888715 0.582767
vt 0.875892 0.517666
vt 0.888715 0.517666
vt 0.881822 0.886052
vt 0.766114 0.820950
vt 0.881822 0.820950
vt 0.895231 0.657614
vt 0.882409 0.641232
vt 0.895231 0.641232
vt 0.889006 0.891002
vt 0.901828 0.886449
vt 0.901828 0.891002
vt 0.893665 0.755055
vt 0.889112 0.738673
vt 0.893665 0.738673
vt 0.984897 0.640836
vt 0.869190 0.624454
vt 0.984897 0.624454
vt 0.984897 0.689556
vt 0.869190 0.673175
vt 0.984897 0.673175
vt 0.881822 0.820553
vt 0.766114 0.755451
vt 0.881822 0.755451
vt 0.984897 0.672778
vt 0.869190 0.659956
vt 0.984897 0.659956
vt 0.875893 0.689953
vt 0.888715 0.755055
vt 0.875892 0.755055
vt 0.869190 0.641232
vt 0.882012 0.657614
vt 0.869190 0.657614
vt 0.657579 0.624454
vt 0.868793 0.689556
vt 0.657579 0.689556
vt 0.893559 0.886052
vt 0.889006 0.820950
vt 0.893559 0.820950
vt 0.889111 0.544658
vt 0.901934 0.549212
vt 0.889111 0.549212
vt 0.528328 0.884702
vt 0.739542 0.949804
vt 0.528328 0.949804
vt 0.882219 0.820950
vt 0.886772 0.886051
vt 0.882219 0.886051
vt 0.889112 0.549608
vt 0.893665 0.565989
vt 0.889111 0.565989
vt 0.528328 0.976483
vt 0.739540 0.971929
vt 0.739540 0.976483
vt 0.528328 0.966979
vt 0.739540 0.971533
vt 0.528328 0.971533
vt 0.739939 0.899867
vt 0.951152 0.916248
vt 0.739939 0.916248
vt 0.739939 0.916645
vt 0.951152 0.933026
vt 0.739939 0.933026
vt 0.288599 0.586905
vt 0.263686 0.622200
vt 0.255994 0.605150
vt 0.308778 0.621073
vt 0.416738 0.556495
vt 0.402006 0.581949
vt 0.401971 0.548587
vt 0.410397 0.513377
vt 0.328955 0.603326
vt 0.288644 0.660434
vt 0.256022 0.650593
vt 0.361632 0.586905
vt 0.401971 0.598571
vt 0.381766 0.626266
vt 0.329010 0.596747
vt 0.336674 0.625139
vt 0.328982 0.648769
vt 0.401943 0.644014
vt 0.328982 0.642190
vt 0.423079 0.513377
vt 0.431506 0.548587
vt 0.416738 0.556495
vt 0.361587 0.660434
vt 0.431470 0.581949
vt 0.058872 0.514455
vt 0.033648 0.579711
vt 0.060007 0.526490
vt 0.057959 0.590632
vt 0.101326 0.507643
vt 0.098280 0.547934
vt 0.058446 0.652807
vt 0.059718 0.615219
vt 0.102501 0.569863
vt 0.125087 0.582568
vt 0.097551 0.631974
vt 0.100043 0.648601
vt 0.288599 0.513377
vt 0.263686 0.548671
vt 0.255994 0.531621
vt 0.308778 0.547544
vt 0.431506 0.630024
vt 0.416774 0.655477
vt 0.416738 0.622116
vt 0.425165 0.586905
vt 0.328955 0.529797
vt 0.288644 0.586905
vt 0.256022 0.577064
vt 0.361632 0.513377
vt 0.401971 0.525042
vt 0.381766 0.552738
vt 0.329010 0.523218
vt 0.336674 0.551611
vt 0.328982 0.575240
vt 0.401943 0.570485
vt 0.328982 0.568661
vt 0.408312 0.586905
vt 0.416738 0.622115
vt 0.401971 0.630023
vt 0.361588 0.586905
vt 0.416703 0.655477
vt 0.373139 0.405595
vt 0.265891 0.382261
vt 0.372364 0.382592
vt 0.274024 0.364779
vt 0.380766 0.365849
vt 0.283166 0.370938
vt 0.390004 0.372272
vt 0.390970 0.395797
vt 0.284319 0.394978
vt 0.276129 0.412304
vt 0.382504 0.412368
vt 0.387980 0.449935
vt 0.280686 0.426474
vt 0.387016 0.426417
vt 0.288902 0.409221
vt 0.395511 0.409928
vt 0.298351 0.416223
vt 0.405043 0.417158
vt 0.406207 0.441227
vt 0.299725 0.440869
vt 0.291436 0.457923
vt 0.397635 0.457505
vt 0.140481 0.179064
vt 0.130082 0.187381
vt 0.125099 0.179064
vt 0.118010 0.174628
vt 0.140481 0.179064
vt 0.147570 0.174628
vt 0.162351 0.174628
vt 0.147570 0.169957
vt 0.162351 0.169957
vt 0.138205 0.187381
vt 0.148172 0.179064
vt 0.110516 0.153916
vt 0.102583 0.154518
vt 0.106711 0.146827
vt 0.147570 0.174628
vt 0.118010 0.169957
vt 0.127375 0.235286
vt 0.127375 0.187381
vt 0.118010 0.174628
vt 0.103229 0.169957
vt 0.094650 0.124355
vt 0.102583 0.123753
vt 0.098455 0.131444
vt 0.135498 0.187381
vt 0.103229 0.174628
vt 0.118010 0.169957
vt 0.110516 0.124355
vt 0.102583 0.109575
vt 0.147570 0.169957
vt 0.117408 0.179064
vt 0.094650 0.153916
vt 0.102583 0.168696
vt 0.094650 0.153916
vt 0.110516 0.124355
vt 0.094650 0.124355
vt 0.125099 0.179064
vt 0.130082 0.187381
vt 0.135498 0.187381
vt 0.126310 0.244268
vt 0.119829 0.244268
vt 0.135498 0.235286
vt 0.138205 0.235286
vt 0.130082 0.235286
vt 0.130082 0.235286
vt 0.135498 0.235286
vt 0.121530 0.256245
vt 0.110270 0.256245
vt 0.139270 0.244268
vt 0.139270 0.244268
vt 0.145751 0.244268
vt 0.126310 0.244268
vt 0.121530 0.256245
vt 0.147311 0.278534
vt 0.144050 0.256245
vt 0.144050 0.256245
vt 0.155310 0.256245
vt 0.118269 0.278534
vt 0.147311 0.305148
vt 0.118269 0.278534
vt 0.103749 0.278534
vt 0.147311 0.278534
vt 0.161831 0.278534
vt 0.072502 0.235066
vt 0.100301 0.236281
vt 0.101543 0.235066
vt 0.103749 0.305148
vt 0.147311 0.305148
vt 0.161831 0.305148
vt 0.118269 0.305148
vt 0.118269 0.305148
vt 0.110377 0.124615
vt 0.102419 0.112218
vt 0.102583 0.110094
vt 0.110377 0.153656
vt 0.102419 0.165813
vt 0.109611 0.152414
vt 0.113699 0.236281
vt 0.116063 0.235066
vt 0.060104 0.236281
vt 0.073503 0.236281
vt 0.072502 0.235066
vt 0.100301 0.236281
vt 0.073503 0.236281
vt 0.086902 0.178396
vt 0.140481 0.179064
vt 0.130082 0.187381
vt 0.125099 0.179064
vt 0.118010 0.174628
vt 0.140481 0.179064
vt 0.147570 0.174628
vt 0.162351 0.174628
vt 0.147570 0.169957
vt 0.162351 0.169957
vt 0.138205 0.187381
vt 0.148172 0.179064
vt 0.110516 0.153916
vt 0.102583 0.154518
vt 0.106711 0.146827
vt 0.147570 0.174628
vt 0.118010 0.169957
vt 0.127375 0.235286
vt 0.127375 0.187381
vt 0.118010 0.174628
vt 0.103229 0.169957
vt 0.094650 0.124355
vt 0.102583 0.123753
vt 0.098455 0.131444
vt 0.135498 0.187381
vt 0.103229 0.174628
vt 0.118010 0.169957
vt 0.110516 0.124355
vt 0.102583 0.109575
vt 0.147570 0.169957
vt 0.117408 0.179064
vt 0.094650 0.153916
vt 0.102583 0.168696
vt 0.094650 0.124355
vt 0.094650 0.153916
vt 0.110516 0.153916
vt 0.125099 0.179064
vt 0.130082 0.187381
vt 0.135498 0.187381
vt 0.126310 0.244268
vt 0.119829 0.244268
vt 0.135498 0.235286
vt 0.138205 0.235286
vt 0.130082 0.235286
vt 0.130082 0.235286
vt 0.135498 0.235286
vt 0.121530 0.256245
vt 0.110270 0.256245
vt 0.139270 0.244268
vt 0.139270 0.244268
vt 0.145751 0.244268
vt 0.126310 0.244268
vt 0.121530 0.256245
vt 0.147311 0.278534
vt 0.144050 0.256245
vt 0.144050 0.256245
vt 0.155310 0.256245
vt 0.118269 0.278534
vt 0.147311 0.305148
vt 0.118269 0.278534
vt 0.103749 0.278534
vt 0.147311 0.278534
vt 0.161831 0.278534
vt 0.072502 0.235066
vt 0.100301 0.236281
vt 0.101543 0.235066
vt 0.103749 0.305148
vt 0.147311 0.305148
vt 0.161831 0.305148
vt 0.118269 0.305148
vt 0.118269 0.305148
vt 0.110377 0.124615
vt 0.102419 0.112218
vt 0.102583 0.110094
vt 0.110377 0.153656
vt 0.102419 0.165813
vt 0.109611 0.152414
vt 0.113699 0.236281
vt 0.116063 0.235066
vt 0.060104 0.236281
vt 0.073503 0.236281
vt 0.072502 0.235066
vt 0.100301 0.236281
vt 0.073503 0.236281
vt 0.086902 0.178396
vt 0.140481 0.179064
vt 0.130082 0.187381
vt 0.125099 0.179064
vt 0.118010 0.174628
vt 0.140481 0.179064
vt 0.147570 0.174628
vt 0.162351 0.174628
vt 0.147570 0.169957
vt 0.162351 0.169957
vt 0.138205 0.187381
vt 0.148172 0.179064
vt 0.110516 0.153916
vt 0.102583 0.154518
vt 0.106711 0.146827
vt 0.147570 0.174628
vt 0.118010 0.169957
vt 0.127375 0.235286
vt 0.127375 0.187381
vt 0.118010 0.174628
vt 0.103229 0.169957
vt 0.094650 0.124355
vt 0.102583 0.123753
vt 0.098455 0.131444
vt 0.135498 0.187381
vt 0.103229 0.174628
vt 0.118010 0.169957
vt 0.110516 0.124355
vt 0.102583 0.109575
vt 0.147570 0.169957
vt 0.117408 0.179064
vt 0.094650 0.153916
vt 0.102583 0.168696
vt 0.094650 0.124355
vt 0.094650 0.153916
vt 0.110516 0.153916
vt 0.125099 0.179064
vt 0.130082 0.187381
vt 0.135498 0.187381
vt 0.126310 0.244268
vt 0.119829 0.244268
vt 0.135498 0.235286
vt 0.138205 0.235286
vt 0.130082 0.235286
vt 0.130082 0.235286
vt 0.135498 0.235286
vt 0.121530 0.256245
vt 0.110270 0.256245
vt 0.139270 0.244268
vt 0.139270 0.244268
vt 0.145751 0.244268
vt 0.126310 0.244268
vt 0.121530 0.256245
vt 0.147311 0.278534
vt 0.144050 0.256245
vt 0.144050 0.256245
vt 0.155310 0.256245
vt 0.118269 0.278534
vt 0.147311 0.305148
vt 0.118269 0.278534
vt 0.103749 0.278534
vt 0.147311 0.278534
vt 0.161831 0.278534
vt 0.072502 0.235066
vt 0.100301 0.236281
vt 0.101543 0.235066
vt 0.103749 0.305148
vt 0.147311 0.305148
vt 0.161831 0.305148
vt 0.118269 0.305148
vt 0.118269 0.305148
vt 0.110377 0.124615
vt 0.102419 0.112218
vt 0.102583 0.110094
vt 0.110377 0.153656
vt 0.102419 0.165813
vt 0.109611 0.152414
vt 0.113699 0.236281
vt 0.116063 0.235066
vt 0.060104 0.236281
vt 0.073503 0.236281
vt 0.072502 0.235066
vt 0.100301 0.236281
vt 0.073503 0.236281
vt 0.086902 0.178396
vt 0.533523 0.919749
vt 0.533523 0.957852
vt 0.707599 0.667779
vt 0.508265 0.985620
vt 0.707599 0.823679
vt 0.707599 0.823448
vt 0.890679 0.942743
vt 0.935900 0.776011
vt 0.707368 0.715489
vt 0.999789 0.892126
vt 0.912899 0.854447
vt 0.017669 0.909263
vt 0.663946 0.981532
vt 0.663946 0.981532
vt 0.894968 0.599545
vt 0.875496 0.966582
vt 0.657579 0.607677
vt 0.746642 0.966979
vt 0.765717 0.884305
vt 0.528328 0.517666
vt 0.657579 0.689953
vt 0.964561 0.990147
vt 0.875896 0.607280
vt 0.739939 0.933423
vt 0.889111 0.517666
vt 0.746245 0.966582
vt 0.875499 0.600890
vt 0.765717 0.891093
vt 0.895396 0.820553
vt 0.875496 0.582767
vt 0.889111 0.566386
vt 0.888609 0.820553
vt 0.881822 0.899271
vt 0.875892 0.582767
vt 0.766114 0.886052
vt 0.882409 0.657614
vt 0.889006 0.886449
vt 0.889112 0.755055
vt 0.869190 0.640836
vt 0.869190 0.689556
vt 0.766114 0.820553
vt 0.869190 0.672778
vt 0.888715 0.689953
vt 0.882012 0.641232
vt 0.868793 0.624454
vt 0.889006 0.886052
vt 0.901934 0.544658
vt 0.739542 0.884702
vt 0.886772 0.820950
vt 0.893665 0.549608
vt 0.528328 0.971929
vt 0.739540 0.966979
vt 0.951152 0.899867
vt 0.951152 0.916645
vt 0.266846 0.405755
vt 0.281849 0.450540
vt 0.106711 0.131444
vt 0.098455 0.146827
vt 0.102583 0.168696
vt 0.110516 0.153916
vt 0.102583 0.109575
vt 0.109611 0.125616
vt 0.102583 0.168177
vt 0.057981 0.235066
vt 0.101543 0.235066
vt 0.106711 0.131444
vt 0.098455 0.146827
vt 0.102583 0.168696
vt 0.110516 0.124355
vt 0.102583 0.109575
vt 0.109611 0.125616
vt 0.102583 0.168177
vt 0.057981 0.235066
vt 0.101543 0.235066
vt 0.106711 0.131444
vt 0.098455 0.146827
vt 0.102583 0.168696
vt 0.110516 0.124355
vt 0.102583 0.109575
vt 0.109611 0.125616
vt 0.102583 0.168177
vt 0.057981 0.235066
vt 0.101543 0.235066
vn -1.0000 0.0000 0.0000
vn 0.0309 -0.9995 0.0000
vn 1.0000 0.0000 0.0000
vn 0.0000 0.0000 1.0000
vn 0.0000 0.0000 -1.0000
vn -0.0309 -0.9995 0.0000
vn 0.0000 -0.9950 0.0994
vn 0.7073 -0.1353 -0.6938
vn 0.0000 -0.9998 -0.0201
vn 0.0000 1.0000 0.0000
vn 0.0000 -0.1914 -0.9815
vn 0.7071 0.0000 -0.7071
vn 0.6673 0.1394 0.7316
vn -0.8660 0.0000 0.5000
vn 0.8660 0.0000 -0.5000
vn 0.0000 -0.1415 -0.9899
vn -0.7071 0.0000 -0.7071
vn -0.7404 -0.0951 -0.6654
vn 0.8660 0.0000 0.5000
vn -0.8660 0.0000 -0.5000
vn -0.5000 0.0000 0.8660
vn -0.6673 0.1394 0.7316
vn 0.7071 0.0000 0.7071
vn 0.5000 0.0000 0.8660
vn -0.7071 0.0000 0.7071
vn -0.6638 0.4116 0.6244
vn 0.6638 0.4116 0.6244
vn -0.6469 0.6745 0.3558
vn 0.0000 -0.5103 -0.8600
vn -0.7676 -0.3270 -0.5512
vn 0.6469 0.6745 0.3558
vn -0.6254 0.7591 -0.1804
vn -0.7771 -0.5537 -0.2990
vn 0.0000 -0.8799 -0.4751
vn 0.6254 0.7591 -0.1804
vn -0.5718 0.0617 -0.8180
vn 0.0000 -0.9727 0.2322
vn -0.8168 -0.5611 0.1339
vn 0.7264 -0.4757 -0.4959
vn 0.5718 0.0617 -0.8180
vn -0.5822 -0.8113 -0.0533
vn 0.0000 -0.7807 0.6249
vn 0.9536 0.0000 -0.3012
vn 0.3012 0.0000 0.9536
vn -0.9536 0.0000 0.3012
vn -0.3012 0.0000 -0.9536
vn 0.0000 -1.0000 0.0000
vn -0.2983 -0.8886 0.3484
vn -0.8946 -0.3237 -0.3080
vn -0.0010 -0.7584 -0.6517
vn -0.7362 0.0092 0.6767
vn 0.7096 -0.6942 0.1206
vn 0.2552 -0.2197 0.9416
vn -0.7096 0.6942 -0.1206
vn -0.2552 0.2197 -0.9416
vn 0.7362 -0.0092 -0.6767
vn 0.8946 0.3237 0.3080
vn 0.0010 0.7584 0.6517
vn 0.2983 0.8886 -0.3484
vn 0.2513 0.4711 0.8455
vn -0.8149 0.5483 -0.1877
vn -0.4637 0.0778 0.8826
vn -0.8711 -0.0802 -0.4845
vn -0.5771 -0.5508 0.6029
vn -0.2513 -0.4711 -0.8455
vn 0.0605 -0.9785 0.1971
vn 0.8149 -0.5483 0.1877
vn 0.4637 -0.0778 -0.8826
vn 0.5771 0.5508 -0.6029
vn 0.8711 0.0802 0.4845
vn 0.3691 0.9046 -0.2131
vn 0.7566 0.4865 0.4368
vn 0.3691 0.9046 0.2131
vn -0.7418 0.5159 0.4283
vn -0.3691 0.9046 -0.2131
vn -0.7418 0.5159 -0.4283
vn 0.0000 0.5159 -0.8566
vn 0.6862 -0.6100 -0.3962
vn 0.0000 -0.6100 -0.7924
vn 0.0000 0.4865 -0.8737
vn 0.0000 0.9046 -0.4262
vn 0.7418 0.5159 -0.4283
vn 0.6862 -0.6100 0.3962
vn 0.0000 -0.3834 0.9236
vn 0.0000 0.4865 0.8737
vn 0.7418 0.5159 0.4283
vn 0.0000 -0.6100 0.7924
vn 0.0000 0.9046 0.4262
vn -0.3691 0.9046 0.2131
vn 0.7566 0.4865 -0.4368
vn 0.0000 0.5159 0.8566
vn -0.6862 -0.6100 0.3962
vn -0.6862 -0.6100 -0.3962
vn -0.7566 0.4865 0.4368
vn -0.7566 0.4865 -0.4368
vn 0.6714 -0.6316 0.3876
vn 0.0000 -0.6316 0.7753
vn 0.7998 -0.3834 -0.4618
vn 0.0000 -0.3834 -0.9236
vn -0.7998 -0.3834 0.4618
vn 0.7998 -0.3834 0.4618
vn -0.7998 -0.3834 -0.4618
vn 0.7788 -0.4374 0.4496
vn 0.0000 -0.4374 0.8993
vn 0.6714 -0.6316 -0.3876
vn -0.6714 -0.6316 -0.3876
vn 0.0000 -0.6316 -0.7753
vn -0.6714 -0.6316 0.3876
vn -0.7788 -0.4374 0.4496
vn -0.8580 -0.1359 -0.4953
vn -0.7788 -0.4374 -0.4496
vn 0.7788 -0.4374 -0.4496
vn 0.0000 -0.4374 -0.8993
vn -0.8580 -0.1359 0.4953
vn -0.7799 0.4217 -0.4624
vn 0.8580 -0.1359 0.4953
vn 0.0000 -0.1359 0.9907
vn 0.8580 -0.1359 -0.4953
vn 0.0000 -0.1359 -0.9907
vn -0.7875 0.4095 0.4605
vn -0.0080 0.9989 0.0463
vn 0.0122 0.4444 0.8957
vn 0.7614 0.4790 -0.4367
vn 0.0104 0.4597 -0.8880
vn 0.7657 0.4738 0.4350
vn -0.0518 0.9973 -0.0511
vn -0.0438 0.9958 0.0801
vn -0.1117 0.9923 0.0527
vn -0.0096 0.9998 -0.0187
vn -0.1087 0.9935 -0.0333
vn -0.0605 0.9785 -0.1971
usemtl Material
s 1
f 38/1/1 45/2/1 41/3/1
f 27/4/2 40/5/2 31/6/2
f 5/7/3 2/8/3 1/9/3
f 22/10/4 3/11/4 21/12/4
f 25/13/1 8/14/1 29/15/1
f 17/16/5 30/17/5 18/18/5
f 23/19/6 9/20/6 10/21/6
f 32/22/7 33/23/8 20/24/7
f 24/25/9 11/26/9 28/27/9
f 16/28/10 14/29/10 13/30/10
f 33/23/8 43/31/3 35/32/3
f 12/33/11 42/34/12 33/23/8
f 36/35/4 48/36/4 39/37/4
usemtl Material_stall.png.001
f 80/38/13 75/39/3 504/40/3
usemtl Material
f 68/41/4 69/42/14 67/43/4
f 52/44/5 53/45/15 51/46/5
usemtl Material_stall.png.001
f 79/47/16 74/48/17 78/49/18
usemtl Material
f 54/50/15 55/51/19 53/45/15
f 70/52/14 71/53/20 69/42/14
f 64/54/15 65/55/3 63/56/15
f 56/57/19 57/58/4 55/51/19
f 72/59/20 50/60/5 71/53/20
f 49/61/5 63/56/15 50/60/5
f 58/62/4 59/63/21 57/58/4
f 62/64/20 51/46/5 61/65/20
f 99/66/1 61/65/20 100/67/1
usemtl Material_stall.png.001
f 77/68/22 76/69/23 80/38/13
usemtl Material
f 97/70/24 67/43/4 98/71/24
usemtl Material_stall.png.001
f 78/49/18 73/72/25 77/68/22
f 80/38/13 81/73/26 77/68/22
f 84/74/27 85/75/28 81/73/26
f 80/38/13 506/76/3 84/74/27
f 78/49/18 83/77/29 79/47/16
f 77/68/22 82/78/30 78/49/18
f 88/79/31 89/80/32 85/75/28
f 81/73/26 86/81/33 82/78/30
f 82/78/30 87/82/34 83/77/29
f 84/74/27 507/83/3 88/79/31
f 92/84/35 93/85/36 89/80/32
f 86/81/33 91/86/37 87/82/34
f 507/83/3 92/84/35 88/79/31
f 86/81/33 89/80/32 90/87/38
f 95/88/39 93/85/36 96/89/40
f 90/87/38 93/85/36 94/90/41
f 90/87/38 509/91/42 91/86/37
f 508/92/3 96/89/40 92/84/35
usemtl Material
f 106/93/43 101/94/43 105/95/43
f 107/96/44 149/97/44 147/98/44
f 108/99/45 155/100/45 153/101/45
f 145/102/46 159/103/46 157/104/46
f 150/105/47 160/106/47 152/107/47
f 158/108/10 148/109/10 146/110/10
f 183/111/43 195/112/43 180/113/43
f 115/114/47 113/115/47 116/116/47
f 120/117/10 125/118/10 117/119/10
f 109/120/45 170/121/45 110/122/45
f 175/123/44 178/124/44 111/125/44
f 182/126/43 161/127/43 112/128/43
f 186/129/10 119/130/10 191/131/10
f 162/132/47 123/133/47 124/134/47
f 181/135/44 193/136/44 176/137/44
f 177/138/45 187/139/45 172/140/45
f 122/141/46 168/142/46 121/143/46
f 200/144/46 208/145/46 203/146/46
f 209/147/10 218/148/10 228/149/10
f 188/150/45 201/151/45 173/152/45
f 184/153/44 129/154/44 192/155/44
f 174/156/45 169/157/45 167/158/45
f 222/159/47 234/160/47 214/161/47
f 130/162/46 137/163/46 131/164/46
f 204/165/46 223/166/46 198/167/46
f 163/168/44 211/169/44 185/170/44
f 210/171/46 225/172/46 205/173/46
f 199/174/47 217/175/47 164/176/47
f 237/177/43 138/178/43 135/179/43
f 134/180/43 233/181/43 133/182/43
f 241/183/43 256/184/43 238/185/43
f 229/186/46 232/187/46 227/188/46
f 230/189/10 240/190/10 246/191/10
f 212/192/45 141/193/45 220/194/45
f 248/195/44 259/196/44 252/197/44
f 140/198/44 142/199/44 247/200/44
f 215/201/47 254/202/47 250/203/47
f 221/204/10 260/205/10 242/206/10
f 216/207/45 249/208/45 213/209/45
f 239/210/43 255/211/43 236/212/43
f 261/213/48 262/214/49 263/215/50
f 262/214/49 261/213/48 266/216/51
f 261/217/48 263/218/50 264/219/52
f 261/217/48 264/219/52 265/220/53
f 261/213/48 265/221/53 266/216/51
f 262/214/49 266/216/51 271/222/54
f 263/215/50 262/214/49 267/223/55
f 264/224/52 263/225/50 268/226/56
f 265/227/53 264/224/52 269/228/57
f 266/216/51 265/221/53 270/229/58
f 262/214/49 271/222/54 267/223/55
f 263/225/50 267/230/55 268/226/56
f 264/224/52 268/226/56 269/228/57
f 265/227/53 269/228/57 270/231/58
f 266/216/51 270/229/58 271/222/54
f 267/232/55 271/233/54 272/234/59
f 268/226/56 267/230/55 272/235/59
f 269/228/57 268/226/56 272/235/59
f 270/231/58 269/228/57 272/235/59
f 271/233/54 270/236/58 272/234/59
f 273/237/48 274/238/49 275/239/50
f 274/238/49 273/237/48 278/240/51
f 273/237/48 275/239/50 276/241/52
f 273/237/48 276/241/52 277/242/53
f 273/237/48 277/242/53 278/240/51
f 274/238/49 278/240/51 283/243/54
f 275/239/50 274/238/49 279/244/55
f 276/241/52 275/239/50 280/245/56
f 277/242/53 276/241/52 281/246/57
f 278/240/51 277/242/53 282/247/58
f 274/238/49 283/243/54 279/244/55
f 275/239/50 279/244/55 280/245/56
f 276/241/52 280/245/56 281/246/57
f 277/242/53 281/246/57 282/247/58
f 278/240/51 282/247/58 283/243/54
f 279/244/55 283/243/54 284/248/59
f 280/245/56 279/244/55 284/248/59
f 281/246/57 280/245/56 284/248/59
f 282/247/58 281/246/57 284/248/59
f 283/243/54 282/247/58 284/248/59
f 285/249/48 286/250/49 287/251/50
f 286/250/49 285/249/48 290/252/51
f 285/253/48 287/254/50 288/255/52
f 285/253/48 288/255/52 289/256/53
f 285/249/48 289/257/53 290/252/51
f 286/250/49 290/252/51 295/258/54
f 287/251/50 286/250/49 291/259/55
f 288/260/52 287/261/50 292/262/56
f 289/263/53 288/260/52 293/264/57
f 290/252/51 289/257/53 294/265/58
f 286/250/49 295/258/54 291/259/55
f 287/261/50 291/266/55 292/262/56
f 288/260/52 292/262/56 293/264/57
f 289/263/53 293/264/57 294/267/58
f 290/252/51 294/265/58 295/258/54
f 291/268/55 295/269/54 296/270/59
f 292/262/56 291/266/55 296/271/59
f 293/264/57 292/262/56 296/271/59
f 294/267/58 293/264/57 296/271/59
f 295/269/54 294/272/58 296/270/59
f 297/273/60 300/274/61 299/275/62
f 299/275/62 302/276/63 301/277/64
f 301/277/64 304/278/65 303/279/66
f 304/278/65 305/280/67 303/279/66
f 306/281/68 304/278/65 302/276/63
f 308/282/69 297/273/60 307/283/70
f 306/281/68 307/283/70 305/280/67
f 307/283/70 301/277/64 305/280/67
f 309/284/60 312/285/61 311/286/62
f 311/286/62 314/287/63 313/288/64
f 313/288/64 316/289/65 315/290/66
f 316/289/65 317/291/67 315/290/66
f 318/292/68 316/289/65 314/287/63
f 320/293/69 309/284/60 319/294/70
f 318/292/68 319/294/70 317/291/67
f 319/294/70 313/288/64 317/291/67
f 321/295/71 341/296/72 335/297/73
f 332/298/74 338/299/75 334/300/76
f 324/301/77 325/302/78 323/303/79
f 338/299/75 340/304/80 322/305/81
f 326/306/82 322/307/81 321/308/71
f 326/309/82 327/310/83 325/302/78
f 341/296/72 348/311/84 342/312/85
f 326/309/82 335/297/73 328/313/86
f 328/313/86 329/314/87 327/310/83
f 332/315/74 336/316/88 337/317/89
f 321/295/71 340/304/80 339/318/90
f 330/319/91 331/320/92 329/314/87
f 328/321/86 336/316/88 330/322/91
f 334/300/76 323/303/79 333/323/93
f 332/298/74 333/323/93 331/320/92
f 335/297/73 342/312/85 336/324/88
f 334/325/76 322/307/81 324/326/77
f 333/327/93 327/328/83 331/329/92
f 337/330/89 342/312/85 343/331/94
f 337/330/89 344/332/95 338/299/75
f 348/311/84 353/333/96 354/334/97
f 340/304/80 345/335/98 339/318/90
f 344/332/95 346/336/99 340/304/80
f 342/312/85 349/337/100 343/331/94
f 339/318/90 347/338/101 341/296/72
f 343/331/94 350/339/102 344/332/95
f 354/334/97 359/340/103 360/341/104
f 346/336/99 351/342/105 345/335/98
f 346/336/99 356/343/106 352/344/107
f 348/311/84 355/345/108 349/337/100
f 345/335/98 353/333/96 347/338/101
f 349/337/100 356/343/106 350/339/102
f 361/346/109 368/347/110 362/348/111
f 352/344/107 357/349/112 351/342/105
f 352/344/107 362/348/111 358/350/113
f 354/334/97 361/346/109 355/345/108
f 351/342/105 359/340/103 353/333/96
f 355/345/108 362/348/111 356/343/106
f 367/351/114 374/352/115 368/347/110
f 360/341/104 365/353/116 366/354/117
f 358/350/113 363/355/118 357/349/112
f 358/350/113 368/347/110 364/356/119
f 360/341/104 367/351/114 361/346/109
f 357/349/112 365/353/116 359/340/103
f 373/357/120 380/358/121 374/359/115
f 365/353/116 372/360/122 366/354/117
f 364/356/119 369/361/123 363/355/118
f 368/347/110 370/362/124 364/356/119
f 366/354/117 373/363/120 367/351/114
f 363/355/118 371/364/125 365/353/116
f 371/365/125 378/366/126 372/367/122
f 369/368/123 376/369/127 375/370/128
f 374/359/115 376/371/127 370/372/124
f 373/357/120 378/373/126 379/374/129
f 371/375/125 375/376/128 377/377/130
f 380/358/121 379/374/129 381/378/10
f 378/373/126 377/377/130 381/378/10
f 375/376/128 376/371/127 381/378/10
f 376/371/127 380/358/121 381/378/10
f 379/374/129 378/373/126 381/378/10
f 377/377/130 375/376/128 381/378/10
f 382/379/71 402/380/72 396/381/73
f 393/382/74 399/383/75 395/384/76
f 385/385/77 386/386/78 384/387/79
f 399/383/75 401/388/80 383/389/81
f 387/390/82 383/391/81 382/392/71
f 387/393/82 388/394/83 386/386/78
f 402/380/72 409/395/84 403/396/85
f 389/397/86 382/379/71 396/381/73
f 389/397/86 390/398/87 388/394/83
f 393/399/74 397/400/88 398/401/89
f 382/379/71 401/388/80 400/402/90
f 391/403/91 392/404/92 390/398/87
f 389/405/86 397/400/88 391/406/91
f 395/384/76 384/387/79 394/407/93
f 393/382/74 394/407/93 392/404/92
f 396/381/73 403/396/85 397/408/88
f 395/409/76 383/391/81 385/410/77
f 392/411/92 394/412/93 386/413/78
f 398/414/89 403/396/85 404/415/94
f 398/414/89 405/416/95 399/383/75
f 409/395/84 414/417/96 415/418/97
f 401/388/80 406/419/98 400/402/90
f 405/416/95 407/420/99 401/388/80
f 403/396/85 410/421/100 404/415/94
f 400/402/90 408/422/101 402/380/72
f 404/415/94 411/423/102 405/416/95
f 415/418/97 420/424/103 421/425/104
f 407/420/99 412/426/105 406/419/98
f 407/420/99 417/427/106 413/428/107
f 409/395/84 416/429/108 410/421/100
f 406/419/98 414/417/96 408/422/101
f 410/421/100 417/427/106 411/423/102
f 422/430/109 429/431/110 423/432/111
f 413/428/107 418/433/112 412/426/105
f 413/428/107 423/432/111 419/434/113
f 415/418/97 422/430/109 416/429/108
f 412/426/105 420/424/103 414/417/96
f 416/429/108 423/432/111 417/427/106
f 428/435/114 435/436/115 429/431/110
f 421/425/104 426/437/116 427/438/117
f 419/434/113 424/439/118 418/433/112
f 419/434/113 429/431/110 425/440/119
f 421/425/104 428/435/114 422/430/109
f 418/433/112 426/437/116 420/424/103
f 434/441/120 441/442/121 435/443/115
f 426/437/116 433/444/122 427/438/117
f 425/440/119 430/445/123 424/439/118
f 429/431/110 431/446/124 425/440/119
f 427/438/117 434/447/120 428/435/114
f 424/439/118 432/448/125 426/437/116
f 432/449/125 439/450/126 433/451/122
f 430/452/123 437/453/127 436/454/128
f 435/443/115 437/455/127 431/456/124
f 434/441/120 439/457/126 440/458/129
f 432/459/125 436/460/128 438/461/130
f 441/442/121 440/458/129 442/462/10
f 439/457/126 438/461/130 442/462/10
f 436/460/128 437/455/127 442/462/10
f 437/455/127 441/442/121 442/462/10
f 440/458/129 439/457/126 442/462/10
f 438/461/130 436/460/128 442/462/10
f 443/463/71 463/464/72 457/465/73
f 454/466/74 460/467/75 456/468/76
f 446/469/77 447/470/78 445/471/79
f 460/467/75 462/472/80 444/473/81
f 448/474/82 444/475/81 443/476/71
f 448/477/82 449/478/83 447/470/78
f 463/464/72 470/479/84 464/480/85
f 450/481/86 443/463/71 457/465/73
f 450/481/86 451/482/87 449/478/83
f 454/483/74 458/484/88 459/485/89
f 443/463/71 462/472/80 461/486/90
f 452/487/91 453/488/92 451/482/87
f 450/489/86 458/484/88 452/490/91
f 456/468/76 445/471/79 455/491/93
f 454/466/74 455/491/93 453/488/92
f 457/465/73 464/480/85 458/492/88
f 456/493/76 444/475/81 446/494/77
f 453/495/92 455/496/93 447/497/78
f 459/498/89 464/480/85 465/499/94
f 459/498/89 466/500/95 460/467/75
f 470/479/84 475/501/96 476/502/97
f 462/472/80 467/503/98 461/486/90
f 466/500/95 468/504/99 462/472/80
f 464/480/85 471/505/100 465/499/94
f 461/486/90 469/506/101 463/464/72
f 465/499/94 472/507/102 466/500/95
f 476/502/97 481/508/103 482/509/104
f 468/504/99 473/510/105 467/503/98
f 468/504/99 478/511/106 474/512/107
f 470/479/84 477/513/108 471/505/100
f 467/503/98 475/501/96 469/506/101
f 471/505/100 478/511/106 472/507/102
f 483/514/109 490/515/110 484/516/111
f 474/512/107 479/517/112 473/510/105
f 474/512/107 484/516/111 480/518/113
f 476/502/97 483/514/109 477/513/108
f 473/510/105 481/508/103 475/501/96
f 477/513/108 484/516/111 478/511/106
f 489/519/114 496/520/115 490/515/110
f 482/509/104 487/521/116 488/522/117
f 480/518/113 485/523/118 479/517/112
f 480/518/113 490/515/110 486/524/119
f 482/509/104 489/519/114 483/514/109
f 481/508/103 485/523/118 487/521/116
f 495/525/120 502/526/121 496/527/115
f 487/521/116 494/528/122 488/522/117
f 486/524/119 491/529/123 485/523/118
f 490/515/110 492/530/124 486/524/119
f 488/522/117 495/531/120 489/519/114
f 485/523/118 493/532/125 487/521/116
f 493/533/125 500/534/126 494/535/122
f 491/536/123 498/537/127 497/538/128
f 496/527/115 498/539/127 492/540/124
f 495/525/120 500/541/126 501/542/129
f 493/543/125 497/544/128 499/545/130
f 502/526/121 501/542/129 503/546/10
f 500/541/126 499/545/130 503/546/10
f 497/544/128 498/539/127 503/546/10
f 498/539/127 502/526/121 503/546/10
f 501/542/129 500/541/126 503/546/10
f 499/545/130 497/544/128 503/546/10
f 38/1/1 47/547/1 45/2/1
f 27/4/2 37/548/2 40/5/2
f 5/7/3 6/549/3 2/8/3
f 22/10/4 7/550/4 3/11/4
f 25/13/1 26/551/1 8/14/1
f 17/16/5 4/552/5 30/17/5
f 23/19/6 19/553/6 9/20/6
f 32/22/7 12/33/11 33/23/8
f 24/25/9 34/554/9 11/26/9
f 16/28/10 15/555/10 14/29/10
f 33/23/8 42/34/12 43/31/3
f 12/33/11 46/556/5 42/34/12
f 36/35/4 44/557/4 48/36/4
usemtl Material_stall.png.001
f 80/38/13 76/69/23 75/39/3
usemtl Material
f 68/41/4 70/52/14 69/42/14
f 52/44/5 54/50/15 53/45/15
usemtl Material_stall.png.001
f 79/47/16 505/558/5 74/48/17
usemtl Material
f 54/50/15 56/57/19 55/51/19
f 70/52/14 72/59/20 71/53/20
f 64/54/15 66/559/3 65/55/3
f 56/57/19 58/62/4 57/58/4
f 72/59/20 49/61/5 50/60/5
f 49/61/5 64/54/15 63/56/15
f 58/62/4 60/560/21 59/63/21
f 62/64/20 52/44/5 51/46/5
f 99/66/1 62/64/20 61/65/20
usemtl Material_stall.png.001
f 77/68/22 73/72/25 76/69/23
usemtl Material
f 97/70/24 68/41/4 67/43/4
usemtl Material_stall.png.001
f 78/49/18 74/48/17 73/72/25
f 80/38/13 84/74/27 81/73/26
f 84/74/27 88/79/31 85/75/28
f 80/38/13 504/40/3 506/76/3
f 78/49/18 82/78/30 83/77/29
f 77/68/22 81/73/26 82/78/30
f 88/79/31 92/84/35 89/80/32
f 81/73/26 85/75/28 86/81/33
f 82/78/30 86/81/33 87/82/34
f 84/74/27 506/76/3 507/83/3
f 92/84/35 96/89/40 93/85/36
f 86/81/33 90/87/38 91/86/37
f 507/83/3 508/92/3 92/84/35
f 86/81/33 85/75/28 89/80/32
f 95/88/39 94/90/41 93/85/36
f 90/87/38 89/80/32 93/85/36
f 90/87/38 94/90/41 509/91/42
f 508/92/3 95/88/39 96/89/40
usemtl Material
f 106/93/43 102/561/43 101/94/43
f 107/96/44 103/562/44 149/97/44
f 108/99/45 104/563/45 155/100/45
f 145/102/46 151/564/46 159/103/46
f 150/105/47 156/565/47 160/106/47
f 158/108/10 154/566/10 148/109/10
f 183/111/43 189/567/43 195/112/43
f 115/114/47 114/568/47 113/115/47
f 120/117/10 126/569/10 125/118/10
f 109/120/45 166/570/45 170/121/45
f 175/123/44 171/571/44 178/124/44
f 182/126/43 179/572/43 161/127/43
f 186/129/10 118/573/10 119/130/10
f 162/132/47 165/574/47 123/133/47
f 181/135/44 196/575/44 193/136/44
f 177/138/45 194/576/45 187/139/45
f 122/141/46 197/577/46 168/142/46
f 200/144/46 206/578/46 208/145/46
f 209/147/10 190/579/10 218/148/10
f 188/150/45 207/580/45 201/151/45
f 184/153/44 127/581/44 129/154/44
f 174/156/45 202/582/45 169/157/45
f 222/159/47 243/583/47 234/160/47
f 130/162/46 136/584/46 137/163/46
f 204/165/46 226/585/46 223/166/46
f 163/168/44 128/586/44 211/169/44
f 210/171/46 132/587/46 225/172/46
f 199/174/47 224/588/47 217/175/47
f 237/177/43 231/589/43 138/178/43
f 134/180/43 244/590/43 233/181/43
f 241/183/43 144/591/43 256/184/43
f 229/186/46 245/592/46 232/187/46
f 230/189/10 219/593/10 240/190/10
f 212/192/45 139/594/45 141/193/45
f 248/195/44 257/595/44 259/196/44
f 140/198/44 143/596/44 142/199/44
f 215/201/47 235/597/47 254/202/47
f 221/204/10 253/598/10 260/205/10
f 216/207/45 251/599/45 249/208/45
f 239/210/43 258/600/43 255/211/43
f 297/273/60 298/601/131 300/274/61
f 299/275/62 300/274/61 302/276/63
f 301/277/64 302/276/63 304/278/65
f 304/278/65 306/281/68 305/280/67
f 302/276/63 300/274/61 308/282/69
f 300/274/61 298/601/131 308/282/69
f 308/282/69 306/281/68 302/276/63
f 308/282/69 298/601/131 297/273/60
f 306/281/68 308/282/69 307/283/70
f 307/283/70 297/273/60 299/275/62
f 299/275/62 301/277/64 307/283/70
f 301/277/64 303/279/66 305/280/67
f 309/284/60 310/602/131 312/285/61
f 311/286/62 312/285/61 314/287/63
f 313/288/64 314/287/63 316/289/65
f 316/289/65 318/292/68 317/291/67
f 314/287/63 312/285/61 320/293/69
f 312/285/61 310/602/131 320/293/69
f 320/293/69 318/292/68 314/287/63
f 320/293/69 310/602/131 309/284/60
f 318/292/68 320/293/69 319/294/70
f 319/294/70 309/284/60 311/286/62
f 311/286/62 313/288/64 319/294/70
f 313/288/64 315/290/66 317/291/67
f 321/295/71 339/318/90 341/296/72
f 332/298/74 337/330/89 338/299/75
f 324/301/77 326/309/82 325/302/78
f 338/299/75 344/332/95 340/304/80
f 326/306/82 324/326/77 322/307/81
f 326/309/82 328/313/86 327/310/83
f 341/296/72 347/338/101 348/311/84
f 326/309/82 321/295/71 335/297/73
f 328/313/86 330/319/91 329/314/87
f 332/315/74 330/322/91 336/316/88
f 321/295/71 322/305/81 340/304/80
f 330/319/91 332/298/74 331/320/92
f 328/321/86 335/603/73 336/316/88
f 334/300/76 324/301/77 323/303/79
f 332/298/74 334/300/76 333/323/93
f 335/297/73 341/296/72 342/312/85
f 334/325/76 338/604/75 322/307/81
f 333/327/93 323/605/79 325/606/78
f 325/606/78 327/328/83 333/327/93
f 327/328/83 329/607/87 331/329/92
f 337/330/89 336/324/88 342/312/85
f 337/330/89 343/331/94 344/332/95
f 348/311/84 347/338/101 353/333/96
f 340/304/80 346/336/99 345/335/98
f 344/332/95 350/339/102 346/336/99
f 342/312/85 348/311/84 349/337/100
f 339/318/90 345/335/98 347/338/101
f 343/331/94 349/337/100 350/339/102
f 354/334/97 353/333/96 359/340/103
f 346/336/99 352/344/107 351/342/105
f 346/336/99 350/339/102 356/343/106
f 348/311/84 354/334/97 355/345/108
f 345/335/98 351/342/105 353/333/96
f 349/337/100 355/345/108 356/343/106
f 361/346/109 367/351/114 368/347/110
f 352/344/107 358/350/113 357/349/112
f 352/344/107 356/343/106 362/348/111
f 354/334/97 360/341/104 361/346/109
f 351/342/105 357/349/112 359/340/103
f 355/345/108 361/346/109 362/348/111
f 367/351/114 373/363/120 374/352/115
f 360/341/104 359/340/103 365/353/116
f 358/350/113 364/356/119 363/355/118
f 358/350/113 362/348/111 368/347/110
f 360/341/104 366/354/117 367/351/114
f 357/349/112 363/355/118 365/353/116
f 373/357/120 379/374/129 380/358/121
f 365/353/116 371/364/125 372/360/122
f 364/356/119 370/362/124 369/361/123
f 368/347/110 374/352/115 370/362/124
f 366/354/117 372/360/122 373/363/120
f 363/355/118 369/361/123 371/364/125
f 371/365/125 377/608/130 378/366/126
f 369/368/123 370/609/124 376/369/127
f 374/359/115 380/358/121 376/371/127
f 373/357/120 372/610/122 378/373/126
f 371/375/125 369/611/123 375/376/128
f 382/379/71 400/402/90 402/380/72
f 393/382/74 398/414/89 399/383/75
f 385/385/77 387/393/82 386/386/78
f 399/383/75 405/416/95 401/388/80
f 387/390/82 385/410/77 383/391/81
f 387/393/82 389/397/86 388/394/83
f 402/380/72 408/422/101 409/395/84
f 389/397/86 387/393/82 382/379/71
f 389/397/86 391/403/91 390/398/87
f 393/399/74 391/406/91 397/400/88
f 382/379/71 383/389/81 401/388/80
f 391/403/91 393/382/74 392/404/92
f 389/405/86 396/612/73 397/400/88
f 395/384/76 385/385/77 384/387/79
f 393/382/74 395/384/76 394/407/93
f 396/381/73 402/380/72 403/396/85
f 395/409/76 399/613/75 383/391/81
f 394/412/93 384/614/79 386/413/78
f 386/413/78 388/615/83 392/411/92
f 388/615/83 390/616/87 392/411/92
f 398/414/89 397/408/88 403/396/85
f 398/414/89 404/415/94 405/416/95
f 409/395/84 408/422/101 414/417/96
f 401/388/80 407/420/99 406/419/98
f 405/416/95 411/423/102 407/420/99
f 403/396/85 409/395/84 410/421/100
f 400/402/90 406/419/98 408/422/101
f 404/415/94 410/421/100 411/423/102
f 415/418/97 414/417/96 420/424/103
f 407/420/99 413/428/107 412/426/105
f 407/420/99 411/423/102 417/427/106
f 409/395/84 415/418/97 416/429/108
f 406/419/98 412/426/105 414/417/96
f 410/421/100 416/429/108 417/427/106
f 422/430/109 428/435/114 429/431/110
f 413/428/107 419/434/113 418/433/112
f 413/428/107 417/427/106 423/432/111
f 415/418/97 421/425/104 422/430/109
f 412/426/105 418/433/112 420/424/103
f 416/429/108 422/430/109 423/432/111
f 428/435/114 434/447/120 435/436/115
f 421/425/104 420/424/103 426/437/116
f 419/434/113 425/440/119 424/439/118
f 419/434/113 423/432/111 429/431/110
f 421/425/104 427/438/117 428/435/114
f 418/433/112 424/439/118 426/437/116
f 434/441/120 440/458/129 441/442/121
f 426/437/116 432/448/125 433/444/122
f 425/440/119 431/446/124 430/445/123
f 429/431/110 435/436/115 431/446/124
f 427/438/117 433/444/122 434/447/120
f 424/439/118 430/445/123 432/448/125
f 432/449/125 438/617/130 439/450/126
f 430/452/123 431/618/124 437/453/127
f 435/443/115 441/442/121 437/455/127
f 434/441/120 433/619/122 439/457/126
f 432/459/125 430/620/123 436/460/128
f 443/463/71 461/486/90 463/464/72
f 454/466/74 459/498/89 460/467/75
f 446/469/77 448/477/82 447/470/78
f 460/467/75 466/500/95 462/472/80
f 448/474/82 446/494/77 444/475/81
f 448/477/82 450/481/86 449/478/83
f 463/464/72 469/506/101 470/479/84
f 450/481/86 448/477/82 443/463/71
f 450/481/86 452/487/91 451/482/87
f 454/483/74 452/490/91 458/484/88
f 443/463/71 444/473/81 462/472/80
f 452/487/91 454/466/74 453/488/92
f 450/489/86 457/621/73 458/484/88
f 456/468/76 446/469/77 445/471/79
f 454/466/74 456/468/76 455/491/93
f 457/465/73 463/464/72 464/480/85
f 456/493/76 460/622/75 444/475/81
f 455/496/93 445/623/79 447/497/78
f 447/497/78 449/624/83 453/495/92
f 449/624/83 451/625/87 453/495/92
f 459/498/89 458/492/88 464/480/85
f 459/498/89 465/499/94 466/500/95
f 470/479/84 469/506/101 475/501/96
f 462/472/80 468/504/99 467/503/98
f 466/500/95 472/507/102 468/504/99
f 464/480/85 470/479/84 471/505/100
f 461/486/90 467/503/98 469/506/101
f 465/499/94 471/505/100 472/507/102
f 476/502/97 475/501/96 481/508/103
f 468/504/99 474/512/107 473/510/105
f 468/504/99 472/507/102 478/511/106
f 470/479/84 476/502/97 477/513/108
f 467/503/98 473/510/105 475/501/96
f 471/505/100 477/513/108 478/511/106
f 483/514/109 489/519/114 490/515/110
f 474/512/107 480/518/113 479/517/112
f 474/512/107 478/511/106 484/516/111
f 476/502/97 482/509/104 483/514/109
f 473/510/105 479/517/112 481/508/103
f 477/513/108 483/514/109 484/516/111
f 489/519/114 495/531/120 496/520/115
f 482/509/104 481/508/103 487/521/116
f 480/518/113 486/524/119 485/523/118
f 480/518/113 484/516/111 490/515/110
f 482/509/104 488/522/117 489/519/114
f 481/508/103 479/517/112 485/523/118
f 495/525/120 501/542/129 502/526/121
f 487/521/116 493/532/125 494/528/122
f 486/524/119 492/530/124 491/529/123
f 490/515/110 496/520/115 492/530/124
f 488/522/117 494/528/122 495/531/120
f 485/523/118 491/529/123 493/532/125
f 493/533/125 499/626/130 500/534/126
f 491/536/123 492/627/124 498/537/127
f 496/527/115 502/526/121 498/539/127
f 495/525/120 494/628/122 500/541/126
f 493/543/125 491/629/123 497/544/128
